{
    "options": {
        "show-Console": true,
        "showBrain": true,
        "showMedia": true,
        "interactionEnabled": true
    },
    "media": [
        {
            "Pavlov": {
                "type": "image",
                "url": "scenarios/example/media/screencast0.jpg"
            }
        },
        {
            "img1": {
                "type": "image",
                "url": "scenarios/example/media/screencast1.jpg"
            }
        },
        {
            "img2": {
                "type": "image",
                "url": "scenarios/example/media/screencast2.jpg"
            }
        },
        {
            "img3": {
                "type": "image",
                "url": "scenarios/example/media/screencast3.jpg"
            }
        },
        {
            "img4": {
                "type": "image",
                "url": "scenarios/example/media/screencast4.jpg"
            }
        },
        {
            "img5": {
                "type": "image",
                "url": "scenarios/example/media/screencast5.jpg"
            }
        },
        {
            "img6": {
                "type": "image",
                "url": "scenarios/example/media/screencast6.jpg"
            }
        },
        {
            "img7": {
                "type": "image",
                "url": "scenarios/example/media/screencast7.jpg"
            }
        },
        {
            "PopeyeExample": {
                "type": "video",
                "url": [
                    "scenarios/example/media/ConditionnementPavlovian.mp4",
                    "scenarios/example/media/ConditionnementPavlovian.flv",
                    "scenarios/example/media/ConditionnementPavlovian.webm",
                    "scenarios/example/media/ConditionnementPavlovian.3gp"
                ]
            }
        }
    ],
    "sequences": [
        {
            "id": 1,
            "actions": [
                {
                    "action": "printLine",
                    "value": "Comment modéliser un comportement Pavlovien grâce aux mathématiques ?"
                },
                {
                    "action": "showMedia",
                    "media": "Pavlov"
                },
                {
                    "action": "rotateCamera",
                    "x": "3.5",
                    "y": "10.0",
                    "z": "200.0"
                },
                {
                    "action": "animationDuration",
                    "value": "3.0"
                }
            ]
        },
        {
            "id": 2,
            "actions": [
                {
                    "action": "printLine",
                    "value": "<i>Prenons un cas concret ...</i>"
                },
                {
                    "action": "showMedia",
                    "media": "PopeyeExample"
                },
                {
                    "action": "animationDuration",
                    "value": "12.0"
                }
            ]
        },
        {
            "id": 3,
            "actions": [
                {
                    "action": "printLine",
                    "value": "<i>Bien :)</i> Reprenons calmement"
                },
                {
                    "action": "showMedia",
                    "media": "img1"
                },
                {
                    "action": "animationDuration",
                    "value": "1"
                }
            ]
        },
        {
            "id": 4,
            "actions": [
                {
                    "action": "clear"
                },
                {
                    "action": "printLine",
                    "value": "Lorsque Bluto se retourne, constate la présence du monstre et prend peur:<ul><li>Le Thalamus reçoit un stimulus sensoriel qui avertit du danger</li></ul>"
                },
                {
                    "action": "showMedia",
                    "media": "img2"
                },
                {
                    "action": "setOpacity",
                    "object": "thala",
                    "value": "1.0"
                },
                {
                    "action": "animationDuration",
                    "value": "3"
                }
            ]
        },
        {
            "id": 5,
            "actions": [
                {
                    "action": "printLine",
                    "value": "Deux voies parallèles entrent en action :<ul><li>La voie thalamo-amygdalienne (route courte) :<ul><li>Il y activation de l’amygdale qui donne alors des réactions émotionnelles premières.</li></ul></li></ul>"
                },
                {
                    "action": "showMedia",
                    "media": "img3"
                },
                {
                    "action": "setOpacity",
                    "object": "amy",
                    "value": "1.0"
                }
            ]
        },
        {
            "id": 6,
            "actions": [
                {
                    "action": "clear"
                },
                {
                    "action": "printLine",
                    "value": "<ul><li>La voie thalamo-cortico-amygdalienne (route longue):<ul><li>Le cortex sensoriel primaire traite l’objet <i>monstre</i>.</li></ul>"
                },
                {
                    "action": "showMedia",
                    "media": "img4"
                }
            ]
        },
        {
            "id": 7,
            "actions": [
                {
                    "action": "printLine",
                    "value": "<ul><li><ul><li>Le cortex associatif unimodal envoie à l’amygdale une représentation de l’objet <i>monstre</i>.</li></ul></li></ul>"
                },
                {
                    "action": "showMedia",
                    "media": "img5"
                },
                {
                    "action": "setOpacity",
                    "object": "4vent",
                    "value": "1.0"
                }
            ]
        },
        {
            "id": 7,
            "actions": [
                {
                    "action": "printLine",
                    "value": "<ul><li><ul><li>Parallèlement, le cortex associatif polymodal conceptualise l’objet <i>monstre</i> et en informe l’amygdale.</li></ul></li></ul>"
                },
                {
                    "action": "showMedia",
                    "media": "img5"
                },
                {
                    "action": "setOpacity",
                    "object": "3vent",
                    "value": "1.0"
                }
            ]
        },
        {
            "id": 8,
            "actions": [
                {
                    "action": "printLine",
                    "value": "<ul><li><ul><li>L’hippocampe intervient pour comparer la représentation élaborée au contenue de la mémoire explicite.</li></ul></li></ul>"
                },
                {
                    "action": "showMedia",
                    "media": "img5"
                },
                {
                    "action": "setOpacity",
                    "object": "hippo",
                    "value": "1.0"
                }
            ]
        },
        {
            "id": 9,
            "actions": [
                {
                    "action": "printLine",
                    "value": "<ul><li><ul><li>L’amygdale finit par s’activer et active les glandes surrénales et hypothalamus responsable de la manifestation de la peur.</li></ul></li></ul>"
                },
                {
                    "action": "showMedia",
                    "media": "img5"
                },
                {
                    "action": "setColor",
                    "object": "amy",
                    "value": "#FFFFFF"
                },
                {
                    "action": "setOpacity",
                    "object": "amy",
                    "value": "1.0"
                }
            ]
        },
        {
            "id": 10,
            "actions": [
                {
                    "action": "clear"
                },
                {
                    "action": "printLine",
                    "value": "Quand Bluto fuit :<ul><li>Le cortex préfrontal est également impliqué dans la dernière phase de la confrontation à un danger, celle où après la réaction émotive automatique initiale, induit une réaction et le choix de l'action la plus efficace pour se soustraire au danger.</li></ul>"
                },
                {
                    "action": "showMedia",
                    "media": "img6"
                },
                {
                    "action": "setOpacity",
                    "object": "lh",
                    "value": "1.0"
                },
                {
                    "action": "setOpacity",
                    "object": "rh",
                    "value": "1.0"
                }
            ]
        },
        {
            "id": 11,
            "actions": [
                {
                    "action": "clear"
                },
                {
                    "action": "printLine",
                    "value": "Et la notion de conditionnement Pavlovien alors ?"
                },
                {
                    "action": "showMedia",
                    "media": "img7"
                }
            ]
        },
        {
            "id": 12,
            "actions": [
                {
                    "action": "printLine",
                    "value": "C'est l'association entre un stimulus inconditionnel, l’objet <i>monstre</i> et uns stimulus neutre <i>Olive</i> : <ul><li>Il n'est pas impossible que la prochaine fois que Bluto croise Olive <br><br> .. il fuit !!! :)</li></ul>"
                }
            ]
        },
        {
            "id": 13,
            "actions": [
                {
                    "action": "clear"
                },
                {
                    "action": "printLine",
                    "value": "Pour en savoir plus ..<ul><li><a target='_blank' href='./more.html'>Quelques définitions et références</a><br><br></li><li><a target='_blank' href='http://lecerveau.mcgill.ca/flash/i/i_04/i_04_cr/i_04_cr_peu/i_04_cr_peu.html'>L'amygdale et ses alliés, <i>le cerveau à tous les niveaux</i></a></li></ul><h3><center>ATTENTION: DANS CETTE VERSION <br> LES ZONES CORTICALES <br> SONT APPROXIMATIVES</center></h3>"
                },
                {
                    "action": "showMedia",
                    "media": "Pavlov2"
                }
            ]
        }
    ]
}
