####
#
# OBJ File Generated by Meshlab
#
####
# Object 3rd-Ventricle-resize.obj
#
# Vertices: 66
# Faces: 128
#
####
vn 3.581020 -2.442975 -0.304499
v 1.491460 -25.751507 -11.557878 0.752941 0.752941 0.752941
vn -4.016322 -3.409317 -0.146651
v -2.748026 -25.702435 -10.934390 0.752941 0.752941 0.752941
vn 0.118756 -3.862396 -1.352108
v -0.461535 -26.784538 -12.599684 0.752941 0.752941 0.752941
vn -4.242146 -2.172785 -2.526109
v -2.677902 -25.109716 -12.403959 0.752941 0.752941 0.752941
vn 0.560993 -1.941614 -3.690982
v -0.329180 -25.567690 -13.864205 0.752941 0.752941 0.752941
vn -0.071971 -3.500072 2.492895
v -1.480303 -25.717848 -7.556186 0.752941 0.752941 0.752941
vn 2.457129 -1.821620 3.996783
v -0.307414 -22.464355 -5.451210 0.752941 0.752941 0.752941
vn -3.942490 -2.462589 2.412724
v -2.708568 -24.761839 -7.621258 0.752941 0.752941 0.752941
vn 5.642860 -0.677280 0.995664
v 2.114684 -21.131653 -9.390857 0.752941 0.752941 0.752941
vn -6.065535 -0.593092 0.045680
v -3.447495 -22.659449 -9.966319 0.752941 0.752941 0.752941
vn 5.150356 -0.693594 -3.180408
v 1.109266 -21.420805 -13.167830 0.752941 0.752941 0.752941
vn -2.516429 -1.801556 -5.109579
v -1.715247 -21.120724 -14.357459 0.752941 0.752941 0.752941
vn -1.542002 -1.388991 4.070671
v -1.696189 -22.378258 -5.207185 0.752941 0.752941 0.752941
vn 2.727000 -1.562152 -5.036494
v -0.001809 -21.137968 -14.320751 0.752941 0.752941 0.752941
vn 0.631761 1.177826 4.250637
v -0.441176 -16.750742 -5.190282 0.752941 0.752941 0.752941
vn 4.456090 -2.239876 -3.199706
v 1.026139 -15.868383 -16.519392 0.752941 0.752941 0.752941
vn -5.415475 -0.028954 2.433902
v -2.963342 -21.451084 -6.844354 0.752941 0.752941 0.752941
vn -1.162319 -2.606500 -4.557479
v -1.255662 -18.697666 -16.001602 0.752941 0.752941 0.752941
vn 4.890509 0.440259 3.191534
v 0.850310 -18.077845 -6.247577 0.752941 0.752941 0.752941
vn -5.489487 -1.011761 -2.297866
v -2.998850 -19.095680 -13.702221 0.752941 0.752941 0.752941
vn 5.810099 -0.136333 -0.256130
v 2.291496 -16.102692 -12.656703 0.752941 0.752941 0.752941
vn -4.212797 1.388678 3.852949
v -1.713956 -16.760790 -5.987212 0.752941 0.752941 0.752941
vn -4.869066 -2.112135 -2.739326
v -2.924093 -14.012127 -17.177153 0.752941 0.752941 0.752941
vn 4.996271 -1.769102 -2.550762
v 1.080762 -13.217391 -18.142633 0.752941 0.752941 0.752941
vn 0.077939 -3.097527 -4.360616
v -0.654364 -14.723021 -18.534613 0.752941 0.752941 0.752941
vn -5.816041 0.737226 2.066536
v -3.063637 -13.600973 -10.617364 0.752941 0.752941 0.752941
vn -6.220694 -0.103050 0.247308
v -3.384239 -15.581086 -11.883845 0.752941 0.752941 0.752941
vn 0.651124 2.314145 3.044913
v -0.370458 -12.811530 -7.107814 0.752941 0.752941 0.752941
vn -3.247782 2.173122 4.378559
v -1.892966 -11.362778 -9.551873 0.752941 0.752941 0.752941
vn 3.662564 2.461595 3.431374
v 0.327589 -11.779144 -9.210090 0.752941 0.752941 0.752941
vn -5.817290 -0.771706 -1.204346
v -3.949461 -10.863554 -16.865818 0.752941 0.752941 0.752941
vn 0.350783 -3.603065 -3.709738
v -0.574486 -11.911219 -20.934277 0.752941 0.752941 0.752941
vn 3.823403 1.175201 4.631744
v 0.379880 -8.900825 -10.680396 0.752941 0.752941 0.752941
vn 6.236366 0.036953 -0.255984
v 1.769780 -11.624590 -14.476050 0.752941 0.752941 0.752941
vn 0.873822 -3.469186 -2.864694
v -0.470850 -9.006733 -24.755510 0.752941 0.752941 0.752941
vn -6.008952 -0.149941 1.645286
v -3.500582 -10.502614 -12.715762 0.752941 0.752941 0.752941
vn 6.228314 -0.106704 -0.674083
v 1.584050 -7.038464 -18.689320 0.752941 0.752941 0.752941
vn -4.738403 -2.386022 -2.877082
v -2.226255 -10.686378 -20.625854 0.752941 0.752941 0.752941
vn -4.571457 -2.800602 -2.267926
v -1.981283 -8.433368 -24.007448 0.752941 0.752941 0.752941
vn -4.444582 0.974914 4.021364
v -2.635987 -9.309530 -10.956488 0.752941 0.752941 0.752941
vn 5.840558 0.387155 2.058395
v 1.408754 -10.544072 -11.929016 0.752941 0.752941 0.752941
vn -4.150805 1.683516 2.402551
v -3.795316 -5.609005 -12.490761 0.752941 0.752941 0.752941
vn 5.515903 -1.754015 -1.674894
v 1.100977 -9.036825 -21.576334 0.752941 0.752941 0.752941
vn -5.816887 -1.477992 -0.707698
v -2.673748 -5.804595 -24.420168 0.752941 0.752941 0.752941
vn 0.205852 -0.862362 -2.857001
v -0.624238 -7.030965 -26.996908 0.752941 0.752941 0.752941
vn -5.496032 0.927081 0.059446
v -4.421318 -6.723444 -14.439889 0.752941 0.752941 0.752941
vn -6.123422 -0.107457 -1.141467
v -2.584630 -7.767736 -20.663593 0.752941 0.752941 0.752941
vn 5.662372 1.346391 -0.910873
v 1.288250 -3.662322 -23.631277 0.752941 0.752941 0.752941
vn 4.397573 -0.670319 -3.059097
v 0.761172 -5.626799 -25.931774 0.752941 0.752941 0.752941
vn -2.554807 -1.563631 -4.401411
v -1.499541 -6.181844 -26.552229 0.752941 0.752941 0.752941
vn -1.101911 1.257026 5.815108
v -1.022767 -7.405612 -10.642965 0.752941 0.752941 0.752941
vn 4.305183 1.713789 1.748650
v 1.801970 -3.676237 -12.154487 0.752941 0.752941 0.752941
vn 5.738868 1.066123 -0.134104
v 2.233469 -5.031019 -14.446979 0.752941 0.752941 0.752941
vn -5.298806 3.001134 -0.507072
v -2.499191 -4.005780 -17.421045 0.752941 0.752941 0.752941
vn 5.868506 1.987764 -0.341788
v 1.358025 -4.090948 -17.572620 0.752941 0.752941 0.752941
vn 0.332769 2.087564 1.754457
v 0.263493 -2.169532 -11.112504 0.752941 0.752941 0.752941
vn -3.991420 4.356677 0.322734
v -2.209162 -3.175465 -14.422351 0.752941 0.752941 0.752941
vn -5.715451 1.992396 0.606712
v -2.393467 -3.566654 -22.378744 0.752941 0.752941 0.752941
vn -2.229977 1.029533 -0.942606
v -3.616039 -3.162747 -26.228109 0.752941 0.752941 0.752941
vn 0.244082 1.243777 -2.324040
v -1.094333 -3.066497 -27.700327 0.752941 0.752941 0.752941
vn 3.777630 4.634652 0.020789
v 0.657610 -2.856040 -16.330067 0.752941 0.752941 0.752941
vn -2.768092 5.276738 -0.403735
v -1.868347 -2.680794 -23.743896 0.752941 0.752941 0.752941
vn 3.098068 3.257576 -2.017981
v 0.432326 -3.007493 -25.644129 0.752941 0.752941 0.752941
vn -1.421599 5.525331 0.292601
v -0.839721 -2.417824 -16.504225 0.752941 0.752941 0.752941
vn -2.331558 4.653025 -0.566528
v -1.046846 -1.538510 -22.023357 0.752941 0.752941 0.752941
vn 2.066054 4.106507 -0.250947
v 0.292743 -1.384062 -21.713779 0.752941 0.752941 0.752941
# 66 vertices, 0 vertices normals

f 1//1 6//6 3//3
f 6//6 2//2 3//3
f 2//2 4//4 3//3
f 1//1 3//3 5//5
f 3//3 4//4 5//5
f 6//6 7//7 8//8
f 6//6 1//1 7//7
f 6//6 8//8 2//2
f 1//1 5//5 11//11
f 8//8 17//17 10//10
f 7//7 1//1 9//9
f 8//8 10//10 2//2
f 1//1 11//11 9//9
f 5//5 14//14 11//11
f 13//13 8//8 7//7
f 8//8 13//13 17//17
f 2//2 10//10 4//4
f 12//12 5//5 4//4
f 4//4 20//20 12//12
f 14//14 5//5 12//12
f 9//9 19//19 7//7
f 20//20 4//4 10//10
f 7//7 15//15 13//13
f 17//17 13//13 22//22
f 17//17 27//27 10//10
f 7//7 19//19 15//15
f 11//11 14//14 21//21
f 16//16 21//21 14//14
f 14//14 12//12 18//18
f 12//12 20//20 18//18
f 22//22 13//13 15//15
f 10//10 27//27 20//20
f 21//21 9//9 11//11
f 14//14 18//18 16//16
f 26//26 17//17 22//22
f 17//17 26//26 27//27
f 25//25 16//16 18//18
f 21//21 19//19 9//9
f 20//20 23//23 18//18
f 23//23 25//25 18//18
f 15//15 19//19 28//28
f 21//21 16//16 24//24
f 16//16 25//25 24//24
f 15//15 28//28 22//22
f 30//30 28//28 19//19
f 21//21 30//30 19//19
f 21//21 24//24 34//34
f 20//20 27//27 23//23
f 31//31 23//23 27//27
f 22//22 29//29 26//26
f 41//41 30//30 21//21
f 26//26 36//36 27//27
f 21//21 34//34 41//41
f 27//27 36//36 31//31
f 32//32 24//24 25//25
f 25//25 23//23 32//32
f 28//28 29//29 22//22
f 28//28 30//30 29//29
f 29//29 40//40 26//26
f 26//26 40//40 36//36
f 23//23 31//31 38//38
f 24//24 32//32 43//43
f 23//23 38//38 32//32
f 33//33 30//30 41//41
f 31//31 36//36 46//46
f 32//32 35//35 43//43
f 32//32 38//38 35//35
f 33//33 51//51 30//30
f 30//30 51//51 29//29
f 53//53 41//41 34//34
f 24//24 43//43 37//37
f 31//31 47//47 38//38
f 39//39 35//35 38//38
f 34//34 24//24 37//37
f 34//34 37//37 53//53
f 31//31 46//46 47//47
f 38//38 47//47 39//39
f 51//51 40//40 29//29
f 40//40 42//42 36//36
f 36//36 42//42 46//46
f 49//49 43//43 35//35
f 45//45 35//35 39//39
f 52//52 33//33 41//41
f 41//41 53//53 52//52
f 47//47 46//46 54//54
f 44//44 39//39 47//47
f 35//35 45//45 49//49
f 39//39 50//50 45//45
f 33//33 52//52 56//56
f 33//33 56//56 51//51
f 42//42 40//40 51//51
f 48//48 37//37 43//43
f 43//43 49//49 48//48
f 39//39 44//44 50//50
f 50//50 49//49 45//45
f 53//53 37//37 55//55
f 48//48 55//55 37//37
f 58//58 47//47 54//54
f 47//47 58//58 44//44
f 44//44 59//59 50//50
f 51//51 56//56 42//42
f 42//42 57//57 46//46
f 57//57 54//54 46//46
f 58//58 59//59 44//44
f 48//48 49//49 63//63
f 60//60 63//63 49//49
f 49//49 50//50 60//60
f 60//60 50//50 59//59
f 52//52 53//53 61//61
f 53//53 55//55 61//61
f 66//66 61//61 55//55
f 55//55 48//48 66//66
f 58//58 62//62 59//59
f 61//61 56//56 52//52
f 56//56 57//57 42//42
f 64//64 57//57 56//56
f 64//64 56//56 61//61
f 64//64 54//54 57//57
f 61//61 66//66 64//64
f 54//54 64//64 65//65
f 58//58 54//54 65//65
f 65//65 62//62 58//58
f 66//66 48//48 63//63
f 65//65 63//63 62//62
f 63//63 60//60 62//62
f 62//62 60//60 59//59
f 66//66 65//65 64//64
f 63//63 65//65 66//66
# 128 faces, 0 coords texture

# End of File
