####
#
# OBJ File Generated by Meshlab
#
####
# Object Caudate-resize-v2.obj
#
# Vertices: 295
# Faces: 582
#
####
mtllib ./Caudate-resize-v2.obj.mtl

vn -3.313060 -1.898849 -0.886959
v 17.850288 -19.964083 6.168993 0.752941 0.752941 0.752941
vn 0.042770 -0.095252 -0.028707
v 19.712128 -22.750307 5.513707 0.752941 0.752941 0.752941
vn 0.768643 -0.348177 1.545954
v 18.751060 -19.828274 7.293746 0.752941 0.752941 0.752941
vn 2.529075 0.628820 -3.507458
v 18.022566 -18.122204 5.910758 0.752941 0.752941 0.752941
vn -2.865806 -1.715316 4.764945
v 17.028631 -17.588091 6.989996 0.752941 0.752941 0.752941
vn -2.430422 -1.183206 -1.047483
v 15.849216 -16.898756 6.041727 0.752941 0.752941 0.752941
vn 4.882308 -0.085456 2.627686
v 17.578297 -16.220930 7.128614 0.752941 0.752941 0.752941
vn 0.323206 -0.632469 3.561383
v 16.915169 -13.681415 8.665031 0.752941 0.752941 0.752941
vn -3.332990 -1.441187 -0.463255
v 14.359149 -12.944059 6.235835 0.752941 0.752941 0.752941
vn 1.080226 -0.388604 -5.714880
v 16.058878 -13.124413 5.778518 0.752941 0.752941 0.752941
vn 4.921340 0.722617 -3.167677
v 17.045788 -13.260111 6.420921 0.752941 0.752941 0.752941
vn 3.238163 0.937672 2.507743
v 17.313908 -12.277876 8.252662 0.752941 0.752941 0.752941
vn 4.619990 0.952879 0.391023
v 16.769680 -8.474198 6.337337 0.752941 0.752941 0.752941
vn -2.601710 -2.155836 -2.232824
v 13.889412 -10.730722 5.253456 0.752941 0.752941 0.752941
vn 0.938707 1.738697 5.120598
v 16.204876 -9.705225 7.599483 0.752941 0.752941 0.752941
vn -3.890847 -0.584760 4.601954
v 14.172883 -9.229720 6.757723 0.752941 0.752941 0.752941
vn 3.517841 -1.393784 -4.652414
v 15.679115 -7.924763 4.679824 0.752941 0.752941 0.752941
vn -1.941373 -1.252694 -0.440193
v 12.328788 -9.622708 4.814316 0.752941 0.752941 0.752941
vn -0.838792 1.173126 4.283058
v 14.463564 -6.314348 7.171960 0.752941 0.752941 0.752941
vn -2.033698 -2.814811 0.973134
v 12.076755 -8.471273 4.401837 0.752941 0.752941 0.752941
vn 1.543195 -2.676517 -5.381068
v 13.995893 -8.114099 4.111049 0.752941 0.752941 0.752941
vn 1.562063 -3.120149 -4.880964
v 11.728629 -7.776369 3.013305 0.752941 0.752941 0.752941
vn -0.174739 -0.979583 0.181864
v 10.859581 -9.445774 3.815372 0.752941 0.752941 0.752941
vn -1.152400 -0.515703 -0.194407
v 9.133187 -7.858723 2.868380 0.752941 0.752941 0.752941
vn -3.575215 0.197675 5.061065
v 11.381400 -6.951666 4.204178 0.752941 0.752941 0.752941
vn 5.543951 -0.847030 -2.040846
v 15.977055 -4.689119 4.263195 0.752941 0.752941 0.752941
vn -2.917109 1.398636 5.018179
v 13.497883 -4.859058 5.808921 0.752941 0.752941 0.752941
vn -0.313037 -2.478923 -5.634324
v 11.068074 -4.600149 1.647815 0.752941 0.752941 0.752941
vn 3.378639 0.489234 4.119353
v 15.861187 -3.716456 5.434645 0.752941 0.752941 0.752941
vn 3.546891 -2.126940 -4.628635
v 15.121009 -4.311027 3.089648 0.752941 0.752941 0.752941
vn -2.998405 0.037760 -0.851355
v 9.677024 -4.765225 2.049210 0.752941 0.752941 0.752941
vn 2.751711 -2.933654 -4.763874
v 13.148670 -2.730617 1.184635 0.752941 0.752941 0.752941
vn -4.563572 -0.557241 -2.062094
v 10.108274 -3.713393 1.654402 0.752941 0.752941 0.752941
vn 4.163059 -0.090510 2.711032
v 17.690395 0.671184 4.385435 0.752941 0.752941 0.752941
vn -3.519452 0.905061 4.824068
v 12.122708 0.539092 3.947394 0.752941 0.752941 0.752941
vn -0.037211 -4.413259 -4.143477
v 11.174042 -2.345797 -0.042549 0.752941 0.752941 0.752941
vn -4.492470 -2.933327 -1.446230
v 9.925330 -1.980656 0.279753 0.752941 0.752941 0.752941
vn 1.151993 1.234637 5.761022
v 16.654623 0.899130 4.820637 0.752941 0.752941 0.752941
vn 5.325876 -0.965347 -1.099314
v 17.838694 1.021227 3.146492 0.752941 0.752941 0.752941
vn 3.684578 -2.517323 -4.324199
v 14.512594 0.098162 0.760860 0.752941 0.752941 0.752941
vn -5.597961 -0.173575 2.556161
v 9.695432 -0.048986 0.757862 0.752941 0.752941 0.752941
vn -3.785819 -2.549011 -0.448350
v 8.922105 -0.569333 -1.709788 0.752941 0.752941 0.752941
vn 1.156669 -4.827330 -3.461486
v 9.689900 0.420793 -3.714843 0.752941 0.752941 0.752941
vn -1.092422 1.474810 5.905069
v 14.391246 0.280928 4.866413 0.752941 0.752941 0.752941
vn 5.009492 -1.616091 -2.853664
v 17.391270 2.929660 1.347008 0.752941 0.752941 0.752941
vn 3.034042 -3.285855 -3.975867
v 12.081629 -0.502016 -1.737961 0.752941 0.752941 0.752941
vn 4.212497 -3.054343 -3.428462
v 10.718418 2.035292 -4.400737 0.752941 0.752941 0.752941
vn -3.128277 -2.341707 -0.105537
v 7.522631 1.649236 -6.008962 0.752941 0.752941 0.752941
vn -4.774101 0.529439 3.500635
v 10.140460 3.467492 1.661695 0.752941 0.752941 0.752941
vn 3.952618 -2.501935 -4.169268
v 13.207489 2.374232 -2.056577 0.752941 0.752941 0.752941
vn -6.066447 0.137340 1.561941
v 8.510910 4.215831 -3.785673 0.752941 0.752941 0.752941
vn 4.007869 -4.148168 -1.554417
v 9.192720 2.496153 -7.845027 0.752941 0.752941 0.752941
vn 1.453700 -5.264137 -1.263121
v 5.975925 1.142638 -13.845592 0.752941 0.752941 0.752941
vn 3.635022 -4.573119 -1.306387
v 7.436910 1.956355 -13.759563 0.752941 0.752941 0.752941
vn -1.025746 -4.544176 0.316980
v 7.458309 1.658860 -8.965393 0.752941 0.752941 0.752941
vn -2.878962 -1.407276 1.793496
v 5.287283 1.429062 -12.545529 0.752941 0.752941 0.752941
vn -0.983610 -0.711412 0.095034
v 4.296394 0.803258 -13.637973 0.752941 0.752941 0.752941
vn -2.262130 -2.820424 -3.180329
v 6.369254 2.887574 -16.326807 0.752941 0.752941 0.752941
vn -5.642441 1.423886 -0.840184
v 6.161650 4.432490 -15.900318 0.752941 0.752941 0.752941
vn 3.859676 -2.635213 -4.101361
v 16.020035 3.687047 -0.714622 0.752941 0.752941 0.752941
vn -5.820868 0.754836 1.847398
v 6.855368 2.580652 -9.883154 0.752941 0.752941 0.752941
vn 2.170108 1.189058 5.124805
v 17.166655 5.110865 3.469355 0.752941 0.752941 0.752941
vn -2.158201 1.992240 5.278216
v 12.663544 6.296068 2.719728 0.752941 0.752941 0.752941
vn 5.416986 -3.083531 -0.665671
v 8.720974 3.976179 -14.145971 0.752941 0.752941 0.752941
vn -5.751740 1.715055 1.196134
v 7.039340 4.886222 -13.501588 0.752941 0.752941 0.752941
vn 0.731734 -4.056073 -1.626830
v 8.191797 3.747115 -18.059864 0.752941 0.752941 0.752941
vn -5.145279 -0.579404 -2.839116
v 7.128557 5.208305 -18.167408 0.752941 0.752941 0.752941
vn -3.672384 1.935875 4.187738
v 10.346207 7.427662 0.904573 0.752941 0.752941 0.752941
vn 4.755473 -3.178158 -1.821114
v 11.276134 7.903679 -8.826332 0.752941 0.752941 0.752941
vn -6.128928 0.265250 0.901049
v 7.573249 5.789818 -10.260139 0.752941 0.752941 0.752941
vn 2.250614 -1.724519 -1.728542
v 11.049584 5.950817 -20.346651 0.752941 0.752941 0.752941
vn 5.277081 -3.204657 0.848686
v 10.456711 7.139948 -17.253817 0.752941 0.752941 0.752941
vn -0.744854 -2.148554 -2.146004
v 8.448104 4.241810 -19.956991 0.752941 0.752941 0.752941
vn -0.785499 1.789971 5.614762
v 15.406600 7.795424 2.938349 0.752941 0.752941 0.752941
vn 4.054471 0.449491 2.860593
v 17.901398 7.347741 2.461743 0.752941 0.752941 0.752941
vn -6.202537 0.310953 -0.189575
v 6.841690 6.699914 -15.779288 0.752941 0.752941 0.752941
vn -5.502819 0.748603 2.461094
v 8.952326 7.676426 -1.331693 0.752941 0.752941 0.752941
vn 4.911395 -2.359074 -2.861142
v 17.204491 8.489284 -2.157531 0.752941 0.752941 0.752941
vn 3.865390 -3.100801 -3.663171
v 14.592796 7.493985 -3.807629 0.752941 0.752941 0.752941
vn -5.587087 0.934285 1.881773
v 7.843522 10.318412 -5.139510 0.752941 0.752941 0.752941
vn 5.249689 -3.172708 -0.081857
v 10.300274 7.523659 -14.051962 0.752941 0.752941 0.752941
vn -1.215406 -0.201563 -5.628567
v 10.706944 11.096401 -21.052912 0.752941 0.752941 0.752941
vn 5.971908 -1.133741 -0.894920
v 18.050571 8.588639 -0.070596 0.752941 0.752941 0.752941
vn -5.949002 0.107052 -1.935098
v 6.855349 9.304575 -16.086010 0.752941 0.752941 0.752941
vn -4.375858 0.737853 -3.949126
v 8.576985 10.681759 -19.786348 0.752941 0.752941 0.752941
vn 3.757422 0.368133 3.640665
v 17.820148 9.411922 2.269735 0.752941 0.752941 0.752941
vn 4.611468 -3.674307 -1.948576
v 13.903538 11.069744 -9.386653 0.752941 0.752941 0.752941
vn -6.056332 0.282614 1.409264
v 7.114714 11.394212 -9.556437 0.752941 0.752941 0.752941
vn 3.677005 -2.321497 -3.035641
v 12.272007 9.849244 -20.383171 0.752941 0.752941 0.752941
vn 0.244710 2.302680 3.890172
v 16.979589 10.838679 2.384175 0.752941 0.752941 0.752941
vn -3.932665 2.504829 3.798080
v 10.112904 9.947823 -0.845599 0.752941 0.752941 0.752941
vn 4.109663 -3.069023 -2.726898
v 17.452477 11.452641 -5.748845 0.752941 0.752941 0.752941
vn -6.107259 -0.708985 0.118392
v 6.302012 10.228007 -13.890773 0.752941 0.752941 0.752941
vn 5.044172 -3.730319 -0.139657
v 13.385026 11.366289 -14.524178 0.752941 0.752941 0.752941
vn 4.195608 1.083723 1.535082
v 18.761930 11.561641 0.231448 0.752941 0.752941 0.752941
vn -0.391561 3.440955 4.870163
v 16.243080 12.151684 0.837656 0.752941 0.752941 0.752941
vn 4.636779 -3.343642 -2.486357
v 17.194010 14.383770 -8.589715 0.752941 0.752941 0.752941
vn -5.400848 0.173482 -3.172747
v 7.250318 12.878374 -16.598335 0.752941 0.752941 0.752941
vn 5.942839 -0.118517 0.149814
v 18.528679 12.678524 -1.940953 0.752941 0.752941 0.752941
vn -5.640731 0.211803 -0.423034
v 5.929467 13.824197 -14.279549 0.752941 0.752941 0.752941
vn 5.037520 -3.106703 -1.508185
v 14.071072 12.336266 -19.780966 0.752941 0.752941 0.752941
vn 2.403080 -1.336048 -4.377722
v 13.669885 13.051154 -21.247551 0.752941 0.752941 0.752941
vn -2.928878 3.019883 3.915980
v 12.278602 13.575998 -1.120009 0.752941 0.752941 0.752941
vn 5.413223 -0.584704 0.167706
v 19.264551 14.791208 -4.688564 0.752941 0.752941 0.752941
vn -4.701000 2.622318 2.580418
v 8.507374 13.237894 -5.876402 0.752941 0.752941 0.752941
vn 4.509219 -3.737479 -1.315206
v 15.167146 13.867943 -11.011585 0.752941 0.752941 0.752941
vn -3.694952 -0.204098 -4.883691
v 10.058699 14.212011 -20.096052 0.752941 0.752941 0.752941
vn 3.365237 2.775159 3.733604
v 17.751062 14.229967 -1.105837 0.752941 0.752941 0.752941
vn -3.326471 4.628490 2.627814
v 12.371327 15.632206 -4.859590 0.752941 0.752941 0.752941
vn -5.048614 2.183068 2.756947
v 7.473227 15.768809 -11.227424 0.752941 0.752941 0.752941
vn 4.912409 -3.663299 -0.876320
v 15.512116 14.042066 -18.389839 0.752941 0.752941 0.752941
vn -5.679789 1.073591 -1.639489
v 6.284988 15.653571 -14.918014 0.752941 0.752941 0.752941
vn -0.731189 3.686149 4.547242
v 15.136429 15.108497 -1.061501 0.752941 0.752941 0.752941
vn -3.610526 4.048474 3.020111
v 9.406114 15.436625 -7.498694 0.752941 0.752941 0.752941
vn 5.922937 -1.448723 -0.727564
v 18.861565 17.100563 -7.868228 0.752941 0.752941 0.752941
vn 3.412959 -3.311033 -3.785084
v 15.072783 15.017661 -20.707872 0.752941 0.752941 0.752941
vn 4.686800 -3.958555 -1.059517
v 17.601601 16.120909 -11.727212 0.752941 0.752941 0.752941
vn 5.393670 -2.969377 -0.563422
v 18.037703 17.321054 -15.437502 0.752941 0.752941 0.752941
vn -4.808144 1.295939 -2.892350
v 7.837045 16.725426 -18.129385 0.752941 0.752941 0.752941
vn -0.901707 -2.126147 -5.540857
v 12.778656 15.252442 -21.304743 0.752941 0.752941 0.752941
vn -3.631880 0.049423 -3.305969
v 9.055253 16.377941 -20.384184 0.752941 0.752941 0.752941
vn -2.265943 4.664192 3.181847
v 15.022305 16.556561 -2.784286 0.752941 0.752941 0.752941
vn 1.960019 3.219870 2.848460
v 18.140179 18.295757 -4.038387 0.752941 0.752941 0.752941
vn 4.076108 2.721677 1.574102
v 18.839443 18.651613 -5.647278 0.752941 0.752941 0.752941
vn -4.502381 2.160326 1.348641
v 6.543784 17.327511 -13.233013 0.752941 0.752941 0.752941
vn 4.301909 -3.471895 -2.269329
v 16.884256 16.453922 -20.352140 0.752941 0.752941 0.752941
vn 0.116597 -1.011837 -4.111605
v 14.084662 16.914520 -23.147520 0.752941 0.752941 0.752941
vn -2.759776 4.519436 3.281322
v 12.880616 17.979649 -8.373701 0.752941 0.752941 0.752941
vn -2.995635 4.094688 3.551634
v 10.275718 18.926487 -10.948755 0.752941 0.752941 0.752941
vn 5.771261 -1.180381 -0.410714
v 19.274374 18.894598 -12.234398 0.752941 0.752941 0.752941
vn 5.530488 -1.717288 -1.167640
v 18.080585 18.198473 -19.983362 0.752941 0.752941 0.752941
vn 3.146784 -0.053245 -3.202645
v 17.700520 18.836262 -21.767775 0.752941 0.752941 0.752941
vn 5.833085 1.118477 0.751607
v 19.074911 19.030430 -8.094660 0.752941 0.752941 0.752941
vn -1.375440 4.985100 3.167203
v 16.755657 19.879543 -7.137743 0.752941 0.752941 0.752941
vn -3.273346 4.128444 1.141912
v 8.826324 20.191677 -13.610772 0.752941 0.752941 0.752941
vn -4.473212 3.531745 -1.912442
v 8.052732 18.689875 -16.231245 0.752941 0.752941 0.752941
vn -4.076337 4.089496 -2.418586
v 10.081459 19.526327 -17.834435 0.752941 0.752941 0.752941
vn -2.090168 2.664138 -4.486793
v 12.889348 19.420483 -22.007174 0.752941 0.752941 0.752941
vn -2.258803 5.177023 2.463232
v 13.551554 21.286402 -11.872847 0.752941 0.752941 0.752941
vn 6.129620 -0.283194 -0.843117
v 18.687876 20.185659 -16.560026 0.752941 0.752941 0.752941
vn -2.862484 4.325611 -2.713096
v 12.666883 21.127462 -20.045067 0.752941 0.752941 0.752941
vn -2.404929 5.349745 -0.258998
v 12.179082 21.960909 -16.248810 0.752941 0.752941 0.752941
vn 3.677170 2.809152 -1.884139
v 18.127974 21.890205 -19.113720 0.752941 0.752941 0.752941
vn 0.888911 3.493664 -4.237123
v 16.158066 21.206383 -21.211779 0.752941 0.752941 0.752941
vn 1.361443 4.356401 2.561578
v 17.837122 21.785656 -9.800825 0.752941 0.752941 0.752941
vn 4.871392 2.596032 0.350160
v 18.962152 22.239985 -12.905556 0.752941 0.752941 0.752941
vn -1.692481 6.019349 0.379799
v 15.072981 22.457344 -15.533042 0.752941 0.752941 0.752941
vn -0.363691 5.092946 -2.121231
v 15.535935 22.566923 -19.485218 0.752941 0.752941 0.752941
vn 0.695025 4.591203 1.108350
v 17.635548 23.359045 -12.583776 0.752941 0.752941 0.752941
vn 1.617788 4.954617 -0.606463
v 17.737246 23.212893 -15.376719 0.752941 0.752941 0.752941
vn -2.784931 -0.740854 -3.229718
v -19.814293 -21.243475 6.764941 0.752941 0.752941 0.752941
vn 1.733222 -2.014844 -2.010553
v -18.212090 -21.825321 6.759068 0.752941 0.752941 0.752941
vn -0.391101 -1.159516 0.194628
v -19.750729 -23.086374 7.888739 0.752941 0.752941 0.752941
vn 3.782656 -2.637702 3.397668
v -18.032549 -20.924011 8.143297 0.752941 0.752941 0.752941
vn 0.650349 -1.147009 5.059402
v -18.896839 -18.104971 9.821565 0.752941 0.752941 0.752941
vn -3.911242 -0.348619 2.749831
v -20.281813 -17.829821 9.338986 0.752941 0.752941 0.752941
vn 2.317302 -0.481429 -1.195568
v -16.342798 -18.926157 6.820381 0.752941 0.752941 0.752941
vn 5.053431 -1.090433 2.400949
v -16.876579 -16.738531 8.505562 0.752941 0.752941 0.752941
vn -4.657277 0.993119 -1.338462
v -20.349480 -16.261694 8.033596 0.752941 0.752941 0.752941
vn -3.080322 0.294211 -5.146342
v -18.586327 -14.361786 7.051877 0.752941 0.752941 0.752941
vn 2.434466 -0.573684 -4.639442
v -17.192373 -16.089190 6.899427 0.752941 0.752941 0.752941
vn 2.637352 -0.267139 4.890265
v -16.605253 -11.700747 9.905169 0.752941 0.752941 0.752941
vn -2.537206 0.097293 4.959754
v -18.593025 -13.177007 9.890931 0.752941 0.752941 0.752941
vn -5.625144 0.744484 -0.272031
v -19.426918 -13.559441 8.429964 0.752941 0.752941 0.752941
vn 3.695625 -1.786099 -2.337627
v -15.136406 -12.131517 6.511185 0.752941 0.752941 0.752941
vn -0.887211 -0.837386 -6.029310
v -17.270741 -13.760299 6.580682 0.752941 0.752941 0.752941
vn 5.368066 -1.075863 2.514921
v -15.363870 -11.789700 8.299303 0.752941 0.752941 0.752941
vn -0.684953 0.866289 5.480753
v -17.925356 -10.490309 10.056058 0.752941 0.752941 0.752941
vn 0.115416 -2.018858 -5.713607
v -15.873485 -9.888771 5.540027 0.752941 0.752941 0.752941
vn -4.202647 0.669422 1.637547
v -19.553864 -9.867312 9.000516 0.752941 0.752941 0.752941
vn -4.832418 -0.247571 -3.537547
v -18.751780 -9.538607 6.910036 0.752941 0.752941 0.752941
vn -3.221337 -1.308175 -5.186513
v -17.280315 -7.950834 5.502092 0.752941 0.752941 0.752941
vn 3.983559 -2.882011 -0.810740
v -14.279234 -9.331062 5.921760 0.752941 0.752941 0.752941
vn 3.866831 0.500322 4.342733
v -15.177928 -7.556177 8.407883 0.752941 0.752941 0.752941
vn -1.220089 -3.134336 -4.863531
v -15.425097 -8.501457 4.721321 0.752941 0.752941 0.752941
vn 2.193495 -1.899830 -0.562387
v -11.866300 -7.597709 3.749284 0.752941 0.752941 0.752941
vn 0.385300 1.642473 5.402195
v -17.095465 -6.147573 8.964709 0.752941 0.752941 0.752941
vn -3.978891 1.259623 2.041003
v -18.713610 -4.585700 7.860949 0.752941 0.752941 0.752941
vn -5.828235 0.035796 -1.774184
v -17.972393 -2.951491 5.093303 0.752941 0.752941 0.752941
vn -0.320139 -3.605910 -4.862804
v -12.892978 -5.016212 1.850339 0.752941 0.752941 0.752941
vn 4.710103 -2.050219 -1.104757
v -11.230264 -3.883257 1.638277 0.752941 0.752941 0.752941
vn 3.776067 1.113358 4.697099
v -14.043492 -3.568280 6.311457 0.752941 0.752941 0.752941
vn 5.247552 -0.371749 2.342811
v -11.512013 -5.298851 3.667098 0.752941 0.752941 0.752941
vn -3.455654 -2.697055 -4.381218
v -15.027258 -4.106479 2.232495 0.752941 0.752941 0.752941
vn -0.629904 2.558316 4.278935
v -17.263290 -2.168728 7.531998 0.752941 0.752941 0.752941
vn -5.153529 -1.503759 -2.956733
v -17.446909 -1.990183 3.748630 0.752941 0.752941 0.752941
vn 0.518254 2.177483 5.711343
v -15.913822 -0.149622 5.899975 0.752941 0.752941 0.752941
vn -4.083964 2.503886 2.818468
v -17.666018 -1.280418 6.313273 0.752941 0.752941 0.752941
vn 2.369411 -1.459021 -1.840332
v -10.642467 -1.779238 -1.279949 0.752941 0.752941 0.752941
vn -2.843545 -3.044759 -4.386419
v -14.041368 -2.017370 -0.144796 0.752941 0.752941 0.752941
vn -4.149157 0.195272 3.218493
v -17.956539 0.745329 5.024603 0.752941 0.752941 0.752941
vn 5.236956 0.232877 3.048233
v -11.630906 0.638372 3.141757 0.752941 0.752941 0.752941
vn -4.011535 -2.869090 -3.875191
v -15.447909 1.264449 -0.655168 0.752941 0.752941 0.752941
vn -5.057206 -2.308270 -1.994546
v -18.765936 2.518864 1.954191 0.752941 0.752941 0.752941
vn 5.004095 -2.078852 -1.045465
v -10.735416 -0.193466 -1.552779 0.752941 0.752941 0.752941
vn -1.791651 -4.211752 -3.782112
v -12.314659 -0.221435 -2.257920 0.752941 0.752941 0.752941
vn 3.059555 1.104917 5.140028
v -13.558877 0.420509 5.120144 0.752941 0.752941 0.752941
vn -2.171483 -5.203396 -0.799650
v -10.825015 0.959903 -6.910333 0.752941 0.752941 0.752941
vn 4.206072 -3.417350 0.794174
v -9.671967 1.220497 -6.089828 0.752941 0.752941 0.752941
vn -0.370195 -4.985120 -0.233437
v -8.846232 0.117784 -10.259811 0.752941 0.752941 0.752941
vn 3.034413 -2.030418 -0.220951
v -7.515429 0.603069 -11.208781 0.752941 0.752941 0.752941
vn 2.872018 -2.959711 1.892058
v -8.828417 0.662135 -8.033703 0.752941 0.752941 0.752941
vn 1.455383 -4.347534 -1.974421
v -8.545753 1.637308 -14.243164 0.752941 0.752941 0.752941
vn 5.883496 -0.639353 1.691248
v -10.021872 3.359682 -0.558612 0.752941 0.752941 0.752941
vn -5.167342 -2.915192 -1.852328
v -12.102677 2.440842 -6.946339 0.752941 0.752941 0.752941
vn 5.846496 -1.025163 1.534692
v -9.031634 3.692936 -7.775723 0.752941 0.752941 0.752941
vn -3.126020 -4.666897 -1.867901
v -9.636825 1.363137 -12.879098 0.752941 0.752941 0.752941
vn 5.948212 -1.232858 -0.268632
v -7.738789 2.490724 -13.015020 0.752941 0.752941 0.752941
vn -4.482989 -4.155459 -0.687590
v -10.157008 2.730170 -14.771669 0.752941 0.752941 0.752941
vn 0.897666 1.526242 5.793384
v -15.857473 4.576841 4.893347 0.752941 0.752941 0.752941
vn 3.453951 2.024550 4.229543
v -12.331595 5.616694 3.096398 0.752941 0.752941 0.752941
vn -4.809842 -0.393292 1.348366
v -19.613188 4.332708 3.291153 0.752941 0.752941 0.752941
vn -4.711282 -2.811362 -2.961244
v -13.316220 3.283789 -4.914433 0.752941 0.752941 0.752941
vn 5.283930 -1.390489 -1.439072
v -7.382872 3.597393 -14.881360 0.752941 0.752941 0.752941
vn 1.806075 -3.044547 -2.389205
v -9.107082 2.677961 -17.557413 0.752941 0.752941 0.752941
vn -1.856839 0.917866 5.400539
v -17.745581 4.546185 4.853894 0.752941 0.752941 0.752941
vn -5.572280 -2.616402 -0.867311
v -12.247212 6.093962 -11.200106 0.752941 0.752941 0.752941
vn -1.559847 -2.846666 -2.413156
v -10.963896 3.455969 -18.587589 0.752941 0.752941 0.752941
vn 4.443719 1.928594 3.092143
v -10.540661 6.811963 0.423127 0.752941 0.752941 0.752941
vn 5.893144 -0.272028 1.851860
v -9.165276 6.310730 -3.235488 0.752941 0.752941 0.752941
vn -4.747474 -2.580353 -3.104599
v -18.012362 6.781363 -2.242473 0.752941 0.752941 0.752941
vn -4.699748 -2.879961 -2.210923
v -13.238636 6.448697 -7.392304 0.752941 0.752941 0.752941
vn 5.859307 -1.809844 1.315668
v -8.350458 4.707672 -8.965811 0.752941 0.752941 0.752941
vn 5.964288 -0.996876 -0.704336
v -7.016129 6.820861 -13.796338 0.752941 0.752941 0.752941
vn -4.924870 -2.906186 -1.366497
v -13.177998 6.746100 -18.469328 0.752941 0.752941 0.752941
vn -4.818553 -3.811567 0.498185
v -13.050763 7.590706 -14.846880 0.752941 0.752941 0.752941
vn 3.124247 -0.621798 -4.103523
v -9.357576 5.127566 -18.860027 0.752941 0.752941 0.752941
vn -1.464008 -0.608147 -3.798498
v -12.529778 6.848546 -19.796167 0.752941 0.752941 0.752941
vn -5.845813 -1.274009 -1.457060
v -18.992941 7.516182 -0.760986 0.752941 0.752941 0.752941
vn 5.851134 -1.426350 1.400317
v -7.920919 6.846653 -6.973655 0.752941 0.752941 0.752941
vn 5.316753 0.335344 -3.194588
v -7.938059 6.746468 -15.812982 0.752941 0.752941 0.752941
vn 0.988676 3.207913 4.446610
v -16.407639 8.538510 3.550907 0.752941 0.752941 0.752941
vn 3.655194 1.820711 -3.861072
v -9.414362 6.917987 -18.551580 0.752941 0.752941 0.752941
vn -3.198586 1.865727 2.689147
v -19.018621 8.316253 3.232330 0.752941 0.752941 0.752941
vn -6.077945 -0.299386 0.606789
v -19.208162 8.601593 0.575004 0.752941 0.752941 0.752941
vn 4.265833 2.265591 3.531205
v -10.290209 9.016213 -1.689431 0.752941 0.752941 0.752941
vn 5.743398 0.385161 2.165910
v -7.993564 8.924994 -6.026414 0.752941 0.752941 0.752941
vn 0.793361 0.212143 -5.046893
v -13.072707 9.387321 -19.420374 0.752941 0.752941 0.752941
vn 3.053225 3.428219 4.206912
v -14.170560 9.945734 0.015645 0.752941 0.752941 0.752941
vn -4.407951 -3.651251 -2.507190
v -16.385456 9.093352 -6.560395 0.752941 0.752941 0.752941
vn 5.503809 -0.249053 -0.551836
v -6.014565 10.858464 -13.501017 0.752941 0.752941 0.752941
vn -4.651563 -3.845462 -0.514754
v -13.367545 8.166944 -11.400470 0.752941 0.752941 0.752941
vn 3.411206 1.837754 -4.665538
v -8.767349 8.494414 -16.001198 0.752941 0.752941 0.752941
vn -4.675836 2.150970 3.166609
v -18.666582 9.840688 1.419420 0.752941 0.752941 0.752941
vn -5.518111 -2.350570 -1.563856
v -19.160717 11.414804 -4.207410 0.752941 0.752941 0.752941
vn -4.703687 -3.955481 -1.021512
v -15.694285 10.224936 -10.710608 0.752941 0.752941 0.752941
vn 4.173925 0.556428 -4.088919
v -6.643431 11.165510 -14.618398 0.752941 0.752941 0.752941
vn -4.847230 -3.476795 -0.649537
v -15.907677 10.000891 -17.115490 0.752941 0.752941 0.752941
vn -2.960244 -3.687585 -3.864464
v -15.567312 11.105100 -19.062141 0.752941 0.752941 0.752941
vn -0.064844 3.428285 4.835359
v -17.548691 10.194796 1.884662 0.752941 0.752941 0.752941
vn -6.053833 -0.348547 0.570534
v -19.645332 12.397186 -2.417415 0.752941 0.752941 0.752941
vn 4.080403 2.527815 3.476556
v -9.864574 11.995939 -3.890020 0.752941 0.752941 0.752941
vn 5.375156 1.922502 2.158742
v -8.127408 11.866957 -7.091411 0.752941 0.752941 0.752941
vn 3.717793 0.597444 0.699415
v -5.934355 12.146020 -13.205035 0.752941 0.752941 0.752941
vn 3.483943 0.207656 -3.764246
v -11.606407 11.341319 -16.380093 0.752941 0.752941 0.752941
vn 1.473581 -2.858883 -5.090012
v -14.012196 11.708316 -19.702732 0.752941 0.752941 0.752941
vn -1.766342 2.263495 2.823038
v -18.661272 13.597193 0.553150 0.752941 0.752941 0.752941
vn 5.282108 2.606674 1.833588
v -6.929151 13.124148 -12.288436 0.752941 0.752941 0.752941
vn -5.548736 -2.327769 -0.897406
v -19.799294 14.334903 -7.954748 0.752941 0.752941 0.752941
vn -4.914004 -3.553070 -0.480104
v -17.061586 12.959808 -12.798130 0.752941 0.752941 0.752941
vn 4.731612 -1.319985 -3.684708
v -12.788374 11.612354 -18.819708 0.752941 0.752941 0.752941
vn 2.392472 3.157540 4.299808
v -16.771711 12.895693 0.492205 0.752941 0.752941 0.752941
vn 2.891108 3.410088 4.366302
v -14.346196 12.935656 -1.974542 0.752941 0.752941 0.752941
vn 4.199145 1.740086 -3.654900
v -8.556334 14.533567 -15.156560 0.752941 0.752941 0.752941
vn -4.363615 -3.963736 -1.429720
v -17.357119 12.731711 -19.103058 0.752941 0.752941 0.752941
vn -3.976295 3.013811 2.769722
v -19.493410 14.837999 -2.870376 0.752941 0.752941 0.752941
vn 4.991447 0.119408 -3.270816
v -9.847713 15.013933 -16.464432 0.752941 0.752941 0.752941
vn 3.026223 -0.150444 -3.905846
v -12.652399 14.643527 -21.135874 0.752941 0.752941 0.752941
vn -0.446441 -2.176995 -4.052752
v -15.647027 13.322153 -21.976955 0.752941 0.752941 0.752941
vn 0.254426 4.203894 4.259463
v -17.328611 15.510637 -2.600356 0.752941 0.752941 0.752941
vn 2.909887 3.539095 4.094383
v -12.518103 14.896600 -4.151067 0.752941 0.752941 0.752941
vn 4.197596 4.011624 1.657033
v -9.815202 16.216211 -9.289088 0.752941 0.752941 0.752941
vn -5.495607 -2.578720 -0.255396
v -19.374840 15.507060 -14.333764 0.752941 0.752941 0.752941
vn -5.384536 -2.196148 -0.586989
v -19.565708 15.452312 -18.470613 0.752941 0.752941 0.752941
vn 3.431652 -0.715390 -2.156947
v -10.808648 15.145231 -19.063171 0.752941 0.752941 0.752941
vn -3.431262 -1.168698 -2.943712
v -18.664570 14.696369 -20.748913 0.752941 0.752941 0.752941
vn -0.024161 1.324219 -5.077734
v -15.637804 15.562554 -22.054379 0.752941 0.752941 0.752941
vn 3.421153 4.441328 2.376076
v -11.867764 17.118488 -7.415183 0.752941 0.752941 0.752941
vn -4.831377 1.097363 1.918205
v -20.148239 15.743573 -4.520582 0.752941 0.752941 0.752941
vn 4.777487 3.733854 -0.232863
v -8.490955 15.581852 -13.218870 0.752941 0.752941 0.752941
vn 1.501205 4.142668 3.946339
v -16.661316 18.286127 -4.668365 0.752941 0.752941 0.752941
vn -5.945233 0.356301 -0.149484
v -20.456121 18.395948 -10.578345 0.752941 0.752941 0.752941
vn 4.018872 4.016419 -0.944898
v -10.345977 17.633810 -15.076919 0.752941 0.752941 0.752941
vn -4.917622 0.956060 -1.759679
v -19.912846 17.516418 -18.310707 0.752941 0.752941 0.752941
vn -1.335361 3.253891 -3.715521
v -17.336241 19.575399 -19.760721 0.752941 0.752941 0.752941
vn -1.975361 3.459006 3.783097
v -18.522060 18.353052 -4.650660 0.752941 0.752941 0.752941
vn -5.066258 2.305907 -0.721389
v -19.883892 19.997892 -14.087185 0.752941 0.752941 0.752941
vn 2.534030 4.050142 -3.186693
v -14.554939 19.470005 -19.013123 0.752941 0.752941 0.752941
vn -3.637767 3.466508 1.037846
v -19.427979 21.369854 -9.182768 0.752941 0.752941 0.752941
vn 2.805822 5.482195 0.780123
v -15.576653 20.375628 -11.192709 0.752941 0.752941 0.752941
vn 1.297740 5.025383 2.766235
v -17.516663 20.335962 -7.300207 0.752941 0.752941 0.752941
vn -1.464805 4.423812 -1.293344
v -17.914404 21.413776 -16.736895 0.752941 0.752941 0.752941
vn 1.806283 5.265966 -1.441983
v -15.955429 20.932806 -17.311260 0.752941 0.752941 0.752941
vn -0.632218 3.902711 1.667004
v -18.859198 21.662485 -8.947602 0.752941 0.752941 0.752941
vn -0.723356 5.620400 -0.381088
v -18.367634 21.375753 -12.274110 0.752941 0.752941 0.752941
# 295 vertices, 0 vertices normals


usemtl material_0
f 1//1 2//2 3//3
f 2//2 1//1 4//4
f 5//5 1//1 3//3
f 3//3 2//2 4//4
f 1//1 5//5 6//6
f 4//4 1//1 6//6
f 3//3 7//7 5//5
f 3//3 4//4 7//7
f 5//5 7//7 8//8
f 5//5 9//9 6//6
f 9//9 5//5 8//8
f 4//4 10//10 11//11
f 4//4 6//6 10//10
f 6//6 9//9 10//10
f 7//7 4//4 11//11
f 7//7 11//11 12//12
f 8//8 7//7 12//12
f 12//12 11//11 13//13
f 14//14 10//10 9//9
f 15//15 8//8 12//12
f 16//16 8//8 15//15
f 8//8 16//16 9//9
f 11//11 10//10 13//13
f 12//12 13//13 15//15
f 9//9 16//16 14//14
f 17//17 13//13 10//10
f 14//14 16//16 18//18
f 10//10 14//14 17//17
f 15//15 19//19 16//16
f 16//16 20//20 18//18
f 21//21 17//17 14//14
f 14//14 18//18 21//21
f 20//20 21//21 18//18
f 22//22 20//20 23//23
f 20//20 24//24 23//23
f 15//15 13//13 19//19
f 16//16 19//19 20//20
f 22//22 21//21 20//20
f 20//20 25//25 24//24
f 23//23 24//24 22//22
f 13//13 17//17 26//26
f 19//19 27//27 20//20
f 28//28 22//22 24//24
f 29//29 19//19 13//13
f 13//13 26//26 29//29
f 20//20 27//27 25//25
f 17//17 30//30 26//26
f 17//17 21//21 30//30
f 21//21 22//22 30//30
f 24//24 31//31 28//28
f 25//25 31//31 24//24
f 31//31 25//25 27//27
f 30//30 22//22 32//32
f 22//22 28//28 32//32
f 28//28 31//31 33//33
f 27//27 19//19 29//29
f 34//34 29//29 26//26
f 27//27 35//35 31//31
f 31//31 35//35 33//33
f 36//36 32//32 28//28
f 28//28 33//33 36//36
f 37//37 36//36 33//33
f 38//38 29//29 34//34
f 29//29 38//38 27//27
f 34//34 26//26 39//39
f 30//30 32//32 40//40
f 35//35 41//41 33//33
f 33//33 41//41 37//37
f 37//37 42//42 36//36
f 36//36 42//42 43//43
f 38//38 44//44 27//27
f 27//27 44//44 35//35
f 30//30 39//39 26//26
f 45//45 39//39 30//30
f 30//30 40//40 45//45
f 32//32 36//36 46//46
f 37//37 41//41 42//42
f 43//43 46//46 36//36
f 32//32 46//46 40//40
f 46//46 43//43 47//47
f 43//43 42//42 48//48
f 49//49 41//41 35//35
f 50//50 40//40 46//46
f 42//42 51//51 48//48
f 43//43 48//48 52//52
f 53//53 54//54 55//55
f 55//55 56//56 53//53
f 56//56 57//57 53//53
f 57//57 58//58 53//53
f 57//57 59//59 58//58
f 60//60 45//45 40//40
f 40//40 50//50 60//60
f 41//41 49//49 51//51
f 41//41 51//51 42//42
f 46//46 47//47 50//50
f 55//55 52//52 48//48
f 61//61 55//55 48//48
f 55//55 54//54 52//52
f 61//61 56//56 55//55
f 57//57 56//56 59//59
f 54//54 53//53 58//58
f 34//34 62//62 38//38
f 38//38 62//62 44//44
f 44//44 62//62 63//63
f 44//44 63//63 35//35
f 35//35 63//63 49//49
f 52//52 47//47 43//43
f 52//52 54//54 64//64
f 61//61 65//65 56//56
f 59//59 56//56 65//65
f 54//54 58//58 66//66
f 66//66 58//58 67//67
f 34//34 39//39 62//62
f 63//63 68//68 49//49
f 47//47 52//52 69//69
f 61//61 48//48 51//51
f 51//51 70//70 61//61
f 65//65 61//61 70//70
f 58//58 59//59 67//67
f 71//71 72//72 66//66
f 66//66 67//67 73//73
f 73//73 71//71 66//66
f 62//62 74//74 63//63
f 39//39 45//45 75//75
f 64//64 69//69 52//52
f 65//65 76//76 59//59
f 64//64 54//54 72//72
f 66//66 72//72 54//54
f 59//59 76//76 67//67
f 49//49 68//68 77//77
f 45//45 60//60 78//78
f 49//49 77//77 51//51
f 60//60 50//50 79//79
f 60//60 79//79 78//78
f 50//50 47//47 79//79
f 80//80 51//51 77//77
f 70//70 51//51 80//80
f 69//69 64//64 81//81
f 65//65 70//70 76//76
f 64//64 72//72 81//81
f 71//71 73//73 82//82
f 62//62 39//39 75//75
f 74//74 62//62 75//75
f 75//75 45//45 83//83
f 45//45 78//78 83//83
f 47//47 69//69 79//79
f 84//84 67//67 76//76
f 67//67 85//85 73//73
f 75//75 86//86 74//74
f 74//74 68//68 63//63
f 79//79 69//69 87//87
f 70//70 80//80 88//88
f 71//71 89//89 72//72
f 82//82 73//73 85//85
f 90//90 74//74 86//86
f 86//86 75//75 83//83
f 91//91 68//68 74//74
f 91//91 77//77 68//68
f 78//78 79//79 92//92
f 93//93 70//70 88//88
f 76//76 70//70 93//93
f 76//76 93//93 84//84
f 81//81 72//72 94//94
f 84//84 85//85 67//67
f 71//71 82//82 89//89
f 95//95 86//86 83//83
f 91//91 74//74 96//96
f 80//80 77//77 91//91
f 92//92 79//79 97//97
f 79//79 87//87 97//97
f 94//94 69//69 81//81
f 84//84 98//98 85//85
f 74//74 90//90 96//96
f 86//86 95//95 90//90
f 95//95 83//83 99//99
f 87//87 69//69 94//94
f 93//93 88//88 100//100
f 93//93 100//100 84//84
f 72//72 101//101 94//94
f 89//89 101//101 72//72
f 101//101 89//89 102//102
f 89//89 82//82 102//102
f 96//96 103//103 91//91
f 99//99 83//83 78//78
f 99//99 78//78 92//92
f 104//104 99//99 92//92
f 91//91 103//103 80//80
f 105//105 80//80 103//103
f 106//106 97//97 87//87
f 84//84 100//100 98//98
f 82//82 85//85 107//107
f 96//96 90//90 95//95
f 95//95 99//99 108//108
f 103//103 109//109 105//105
f 80//80 105//105 88//88
f 110//110 88//88 105//105
f 100//100 88//88 110//110
f 87//87 94//94 106//106
f 94//94 111//111 106//106
f 100//100 112//112 98//98
f 94//94 101//101 111//111
f 107//107 85//85 98//98
f 101//101 102//102 111//111
f 95//95 108//108 96//96
f 113//113 103//103 96//96
f 99//99 104//104 108//108
f 105//105 109//109 114//114
f 104//104 92//92 115//115
f 97//97 115//115 92//92
f 111//111 102//102 116//116
f 113//113 96//96 108//108
f 105//105 114//114 110//110
f 97//97 106//106 117//117
f 111//111 118//118 106//106
f 119//119 98//98 112//112
f 98//98 119//119 107//107
f 116//116 102//102 120//120
f 120//120 102//102 82//82
f 120//120 82//82 107//107
f 120//120 107//107 121//121
f 103//103 113//113 122//122
f 108//108 104//104 123//123
f 108//108 123//123 113//113
f 122//122 109//109 103//103
f 104//104 115//115 124//124
f 97//97 117//117 115//115
f 125//125 100//100 110//110
f 117//117 106//106 118//118
f 125//125 112//112 100//100
f 126//126 118//118 111//111
f 121//121 107//107 119//119
f 126//126 111//111 116//116
f 116//116 127//127 126//126
f 120//120 121//121 127//127
f 116//116 120//120 127//127
f 122//122 113//113 123//123
f 124//124 123//123 104//104
f 109//109 128//128 114//114
f 128//128 129//129 114//114
f 117//117 130//130 115//115
f 117//117 118//118 130//130
f 131//131 118//118 126//126
f 126//126 132//132 131//131
f 126//126 127//127 132//132
f 133//133 124//124 115//115
f 109//109 134//134 128//128
f 115//115 130//130 133//133
f 129//129 110//110 114//114
f 110//110 129//129 135//135
f 110//110 135//135 125//125
f 125//125 136//136 112//112
f 119//119 112//112 136//136
f 121//121 119//119 137//137
f 127//127 121//121 138//138
f 122//122 123//123 134//134
f 122//122 134//134 109//109
f 128//128 139//139 129//129
f 130//130 118//118 140//140
f 125//125 135//135 136//136
f 118//118 131//131 140//140
f 137//137 119//119 136//136
f 137//137 141//141 121//121
f 134//134 123//123 124//124
f 134//134 139//139 128//128
f 136//136 135//135 142//142
f 136//136 142//142 137//137
f 131//131 132//132 143//143
f 121//121 141//141 138//138
f 144//144 132//132 127//127
f 127//127 138//138 144//144
f 124//124 133//133 145//145
f 124//124 145//145 134//134
f 133//133 146//146 145//145
f 133//133 130//130 146//146
f 135//135 129//129 139//139
f 130//130 140//140 146//146
f 131//131 143//143 140//140
f 142//142 141//141 137//137
f 132//132 144//144 143//143
f 144//144 138//138 141//141
f 134//134 145//145 139//139
f 139//139 142//142 135//135
f 140//140 143//143 146//146
f 139//139 147//147 142//142
f 148//148 141//141 142//142
f 144//144 148//148 143//143
f 144//144 141//141 148//148
f 145//145 146//146 149//149
f 145//145 149//149 139//139
f 149//149 147//147 139//139
f 146//146 143//143 150//150
f 147//147 150//150 148//148
f 147//147 148//148 142//142
f 146//146 150//150 149//149
f 149//149 150//150 147//147
f 150//150 143//143 148//148
f 151//151 152//152 153//153
f 153//153 152//152 154//154
f 153//153 155//155 156//156
f 152//152 157//157 154//154
f 153//153 154//154 155//155
f 156//156 151//151 153//153
f 154//154 158//158 155//155
f 154//154 157//157 158//158
f 152//152 151//151 157//157
f 159//159 151//151 156//156
f 161//161 151//151 160//160
f 151//151 161//161 157//157
f 158//158 157//157 161//161
f 151//151 159//159 160//160
f 155//155 162//162 163//163
f 155//155 158//158 162//162
f 155//155 163//163 156//156
f 159//159 156//156 164//164
f 165//165 158//158 161//161
f 159//159 164//164 160//160
f 165//165 161//161 166//166
f 161//161 160//160 166//166
f 156//156 163//163 164//164
f 162//162 158//158 167//167
f 167//167 158//158 165//165
f 168//168 163//163 162//162
f 165//165 166//166 169//169
f 163//163 170//170 164//164
f 163//163 168//168 170//170
f 164//164 171//171 160//160
f 166//166 160//160 171//171
f 166//166 171//171 172//172
f 169//169 166//166 172//172
f 167//167 165//165 173//173
f 167//167 173//173 174//174
f 171//171 164//164 170//170
f 165//165 169//169 173//173
f 167//167 174//174 162//162
f 175//175 176//176 173//173
f 173//173 169//169 175//175
f 169//169 172//172 175//175
f 162//162 174//174 168//168
f 168//168 177//177 170//170
f 173//173 176//176 174//174
f 177//177 168//168 174//174
f 178//178 170//170 177//177
f 172//172 171//171 179//179
f 176//176 175//175 180//180
f 181//181 176//176 180//180
f 170//170 178//178 171//171
f 176//176 182//182 174//174
f 183//183 176//176 181//181
f 184//184 180//180 175//175
f 174//174 185//185 177//177
f 177//177 185//185 178//178
f 179//179 171//171 178//178
f 183//183 182//182 176//176
f 186//186 184//184 175//175
f 175//175 172//172 186//186
f 174//174 182//182 185//185
f 172//172 179//179 186//186
f 185//185 182//182 187//187
f 178//178 188//188 179//179
f 181//181 180//180 189//189
f 180//180 184//184 190//190
f 180//180 190//190 189//189
f 178//178 185//185 188//188
f 191//191 179//179 188//188
f 183//183 181//181 192//192
f 184//184 186//186 193//193
f 185//185 187//187 188//188
f 179//179 191//191 186//186
f 194//194 186//186 191//191
f 181//181 189//189 192//192
f 184//184 193//193 190//190
f 189//189 195//195 192//192
f 190//190 193//193 196//196
f 189//189 196//196 195//195
f 189//189 190//190 196//196
f 182//182 197//197 187//187
f 197//197 182//182 192//192
f 183//183 192//192 182//182
f 186//186 194//194 193//193
f 195//195 198//198 199//199
f 195//195 196//196 198//198
f 200//200 201//201 202//202
f 203//203 201//201 200//200
f 187//187 191//191 188//188
f 195//195 204//204 192//192
f 205//205 198//198 196//196
f 199//199 198//198 202//202
f 202//202 198//198 200//200
f 202//202 201//201 206//206
f 207//207 200//200 198//198
f 200//200 207//207 203//203
f 201//201 203//203 208//208
f 207//207 209//209 203//203
f 197//197 210//210 187//187
f 187//187 210//210 191//191
f 197//197 192//192 211//211
f 191//191 212//212 194//194
f 199//199 204//204 195//195
f 196//196 213//213 205//205
f 198//198 205//205 207//207
f 209//209 207//207 205//205
f 206//206 201//201 208//208
f 214//214 208//208 203//203
f 215//215 214//214 203//203
f 216//216 191//191 210//210
f 212//212 191//191 216//216
f 210//210 197//197 211//211
f 204//204 199//199 206//206
f 196//196 193//193 213//213
f 199//199 202//202 206//206
f 205//205 217//217 209//209
f 203//203 209//209 218//218
f 203//203 218//218 215//215
f 192//192 204//204 219//219
f 204//204 220//220 219//219
f 193//193 194//194 221//221
f 204//204 206//206 220//220
f 193//193 221//221 213//213
f 213//213 222//222 205//205
f 206//206 208//208 223//223
f 224//224 208//208 214//214
f 209//209 225//225 218//218
f 209//209 226//226 225//225
f 215//215 218//218 227//227
f 218//218 225//225 228//228
f 192//192 219//219 211//211
f 229//229 221//221 194//194
f 222//222 213//213 221//221
f 206//206 230//230 220//220
f 206//206 223//223 230//230
f 217//217 205//205 222//222
f 208//208 224//224 223//223
f 209//209 217//217 226//226
f 214//214 215//215 231//231
f 215//215 227//227 231//231
f 228//228 227//227 218//218
f 211//211 232//232 210//210
f 212//212 229//229 194//194
f 224//224 230//230 223//223
f 224//224 214//214 231//231
f 231//231 227//227 233//233
f 210//210 232//232 216//216
f 216//216 232//232 234//234
f 216//216 234//234 212//212
f 212//212 234//234 229//229
f 235//235 229//229 234//234
f 219//219 220//220 236//236
f 237//237 220//220 230//230
f 228//228 233//233 227//227
f 225//225 238//238 228//228
f 219//219 239//239 211//211
f 211//211 239//239 232//232
f 236//236 220//220 237//237
f 222//222 221//221 240//240
f 230//230 224//224 241//241
f 222//222 242//242 217//217
f 217//217 242//242 226//226
f 224//224 231//231 241//241
f 231//231 233//233 243//243
f 228//228 238//238 233//233
f 234//234 244//244 235//235
f 221//221 229//229 245//245
f 245//245 240//240 221//221
f 222//222 246//246 242//242
f 222//222 240//240 246//246
f 230//230 241//241 237//237
f 226//226 242//242 246//246
f 241//241 231//231 247//247
f 248//248 226//226 246//246
f 231//231 243//243 247//247
f 226//226 248//248 225//225
f 243//243 233//233 238//238
f 248//248 249//249 225//225
f 249//249 238//238 225//225
f 232//232 250//250 234//234
f 244//244 234//234 250//250
f 250//250 232//232 239//239
f 235//235 251//251 229//229
f 219//219 236//236 239//239
f 252//252 236//236 237//237
f 253//253 252//252 237//237
f 246//246 240//240 245//245
f 241//241 247//247 254//254
f 243//243 238//238 255//255
f 256//256 238//238 249//249
f 257//257 235//235 244//244
f 235//235 257//257 251//251
f 229//229 251//251 245//245
f 258//258 253//253 237//237
f 259//259 246//246 245//245
f 258//258 237//237 241//241
f 246//246 260//260 248//248
f 238//238 261//261 255//255
f 256//256 261//261 238//238
f 239//239 262//262 250//250
f 257//257 250//250 262//262
f 250//250 257//257 244//244
f 263//263 262//262 239//239
f 263//263 236//236 252//252
f 236//236 263//263 239//239
f 259//259 260//260 246//246
f 254//254 258//258 241//241
f 247//247 243//243 264//264
f 243//243 255//255 264//264
f 248//248 260//260 265//265
f 249//249 248//248 265//265
f 266//266 251//251 257//257
f 245//245 251//251 259//259
f 254//254 247//247 264//264
f 267//267 264//264 255//255
f 267//267 255//255 261//261
f 268//268 267//267 261//261
f 261//261 256//256 268//268
f 256//256 269//269 268//268
f 256//256 249//249 269//269
f 249//249 265//265 269//269
f 262//262 270//270 257//257
f 263//263 270//270 262//262
f 271//271 263//263 252//252
f 253//253 272//272 252//252
f 253//253 258//258 272//272
f 273//273 260//260 259//259
f 265//265 260//260 274//274
f 267//267 268//268 275//275
f 265//265 274//274 276//276
f 265//265 276//276 269//269
f 269//269 277//277 268//268
f 263//263 271//271 270//270
f 271//271 252//252 278//278
f 251//251 266//266 279//279
f 252//252 272//272 278//278
f 251//251 279//279 259//259
f 258//258 280//280 272//272
f 280//280 258//258 254//254
f 254//254 264//264 280//280
f 274//274 260//260 273//273
f 276//276 277//277 269//269
f 266//266 257//257 270//270
f 281//281 270//270 271//271
f 279//279 266//266 270//270
f 279//279 282//282 259//259
f 259//259 282//282 273//273
f 280//280 264//264 283//283
f 264//264 267//267 283//283
f 267//267 275//275 283//283
f 276//276 274//274 284//284
f 277//277 276//276 285//285
f 270//270 281//281 286//286
f 270//270 286//286 279//279
f 271//271 278//278 281//281
f 283//283 272//272 280//280
f 287//287 273//273 282//282
f 273//273 284//284 274//274
f 273//273 287//287 284//284
f 283//283 275//275 288//288
f 275//275 268//268 288//288
f 284//284 285//285 276//276
f 268//268 277//277 288//288
f 289//289 279//279 286//286
f 278//278 272//272 290//290
f 272//272 283//283 290//290
f 281//281 278//278 291//291
f 279//279 289//289 282//282
f 285//285 284//284 292//292
f 288//288 277//277 285//285
f 281//281 291//291 286//286
f 286//286 291//291 289//289
f 278//278 290//290 291//291
f 290//290 283//283 293//293
f 287//287 292//292 284//284
f 283//283 288//288 293//293
f 291//291 294//294 289//289
f 291//291 290//290 294//294
f 282//282 289//289 287//287
f 290//290 293//293 295//295
f 293//293 292//292 295//295
f 292//292 293//293 285//285
f 288//288 285//285 293//293
f 290//290 295//295 294//294
f 289//289 294//294 295//295
f 295//295 287//287 289//289
f 295//295 292//292 287//287
# 582 faces, 0 coords texture

# End of File
