####
#
# OBJ File Generated by Meshlab
#
####
# Object Lateral-Ventricle-resize-v2.obj
#
# Vertices: 469
# Faces: 948
#
####
mtllib ./Lateral-Ventricle-resize-v2.obj.mtl

vn 0.182668 -3.107157 -4.894358
v -26.386385 -56.548775 -4.283421 0.752941 0.752941 0.752941
vn 3.285978 -1.746454 -0.820690
v -24.346943 -56.684677 -3.409607 0.752941 0.752941 0.752941
vn 0.316289 -1.484341 0.353784
v -25.826990 -58.977818 -2.251342 0.752941 0.752941 0.752941
vn -2.212880 -2.901697 0.607230
v -28.022291 -57.615520 -2.571698 0.752941 0.752941 0.752941
vn 4.682339 -1.230835 3.736827
v -24.720310 -53.407990 -1.882000 0.752941 0.752941 0.752941
vn -1.627374 -2.024582 5.476873
v -27.750896 -54.143726 -1.114579 0.752941 0.752941 0.752941
vn -3.209047 -2.890060 -1.479391
v -29.547991 -55.809357 -3.836085 0.752941 0.752941 0.752941
vn 2.086205 -1.839006 5.475744
v -25.964382 -53.785664 -1.118618 0.752941 0.752941 0.752941
vn 3.956835 -1.665963 -3.828287
v -24.422401 -53.424717 -4.821588 0.752941 0.752941 0.752941
vn 5.934479 -1.478591 0.588558
v -23.662268 -51.254978 -3.598696 0.752941 0.752941 0.752941
vn -4.548910 -1.848905 3.201460
v -30.489603 -52.801117 -2.369030 0.752941 0.752941 0.752941
vn 1.350394 -1.891830 -5.590858
v -25.788301 -50.841267 -6.447170 0.752941 0.752941 0.752941
vn -4.180551 -2.705477 -1.560610
v -31.299330 -52.538586 -4.923738 0.752941 0.752941 0.752941
vn -1.027485 -2.471840 -5.463932
v -31.040504 -50.196514 -6.580965 0.752941 0.752941 0.752941
vn 4.816756 -1.713948 3.302824
v -24.741753 -48.108829 0.350527 0.752941 0.752941 0.752941
vn -4.528043 -2.288282 -0.043446
v -33.243343 -48.758587 -6.491145 0.752941 0.752941 0.752941
vn 0.634299 -2.814145 4.947388
v -26.467863 -48.702965 1.477752 0.752941 0.752941 0.752941
vn -3.782166 -1.482004 4.459928
v -28.460970 -47.354332 1.306125 0.752941 0.752941 0.752941
vn 4.461678 -1.591094 -3.297276
v -22.875336 -47.533123 -5.894164 0.752941 0.752941 0.752941
vn 2.285995 -0.326866 4.423066
v -23.298256 -46.259804 -1.149044 0.752941 0.752941 0.752941
vn -5.279733 -0.151604 3.225000
v -31.431324 -47.152981 -2.502632 0.752941 0.752941 0.752941
vn 5.498470 -2.180809 0.373574
v -21.944605 -46.444054 -3.608520 0.752941 0.752941 0.752941
vn -0.907338 -2.867731 4.716853
v -25.673597 -44.872654 4.248996 0.752941 0.752941 0.752941
vn 4.153410 -3.391732 1.649435
v -24.484890 -46.550362 1.905173 0.752941 0.752941 0.752941
vn -0.956876 -0.563664 -6.029920
v -28.145439 -46.099144 -7.706732 0.752941 0.752941 0.752941
vn 3.953370 -0.852117 -4.503044
v -23.543722 -45.073086 -7.123507 0.752941 0.752941 0.752941
vn 0.885089 -1.685863 -5.671986
v -25.665892 -45.238262 -8.179932 0.752941 0.752941 0.752941
vn -2.302225 -1.382007 -2.181003
v -33.605343 -47.840878 -7.655102 0.752941 0.752941 0.752941
vn 2.524932 -3.859319 3.338454
v -23.164272 -44.111511 4.345158 0.752941 0.752941 0.752941
vn 5.911672 0.686020 -0.909321
v -24.584322 -46.096230 0.102490 0.752941 0.752941 0.752941
vn 0.707794 4.851893 2.921140
v -24.409971 -46.094772 -1.185153 0.752941 0.752941 0.752941
vn -3.723273 0.025011 -1.036526
v -34.264210 -43.612755 -8.247317 0.752941 0.752941 0.752941
vn 2.369360 1.637185 -4.183381
v -29.380640 -44.662998 -7.517126 0.752941 0.752941 0.752941
vn -3.587374 -0.120331 4.422743
v -26.377575 -43.016033 4.481155 0.752941 0.752941 0.752941
vn -5.112938 0.619685 3.434598
v -28.881594 -44.143211 1.081821 0.752941 0.752941 0.752941
vn 2.809036 -2.391359 -4.113001
v -24.579174 -44.252968 0.167602 0.752941 0.752941 0.752941
vn 3.312351 3.710804 -2.246537
v -26.979670 -45.596306 -2.917403 0.752941 0.752941 0.752941
vn -0.577664 4.829160 1.540322
v -26.768524 -46.004803 -5.433815 0.752941 0.752941 0.752941
vn 3.364961 3.128509 -1.066781
v -28.727219 -45.428665 -5.148620 0.752941 0.752941 0.752941
vn 4.357477 -0.813671 -3.803975
v -27.114523 -44.368790 -2.622952 0.752941 0.752941 0.752941
vn -4.054854 1.544847 2.457061
v -25.124590 -44.798012 -5.555792 0.752941 0.752941 0.752941
vn -0.120216 -1.416452 -5.797195
v -33.087036 -44.260349 -8.559745 0.752941 0.752941 0.752941
vn 4.169019 -4.529948 0.576098
v -21.931671 -43.773563 1.572351 0.752941 0.752941 0.752941
vn 0.801204 -4.816190 -0.433011
v -22.807732 -44.032272 0.114581 0.752941 0.752941 0.752941
vn 4.943414 -3.384302 0.833059
v -20.958651 -43.457829 -1.056107 0.752941 0.752941 0.752941
vn -5.172888 -0.371068 2.669112
v -23.975485 -44.032551 -2.723544 0.752941 0.752941 0.752941
vn 4.395467 -0.839702 -3.446707
v -29.512711 -42.486698 -5.730695 0.752941 0.752941 0.752941
vn -3.141179 4.300258 1.659652
v -27.505602 -44.608231 -7.309594 0.752941 0.752941 0.752941
vn 3.086874 -0.182047 -4.827047
v -24.953951 -42.763535 -8.685160 0.752941 0.752941 0.752941
vn -4.455353 -0.516419 -0.994875
v -27.057997 -43.559959 -8.173198 0.752941 0.752941 0.752941
vn -4.590121 3.188083 2.313205
v -32.594532 -41.272625 -6.870066 0.752941 0.752941 0.752941
vn 4.977823 -0.771936 -3.062812
v -20.013041 -40.548542 -2.838214 0.752941 0.752941 0.752941
vn 3.348369 -0.534813 -4.992518
v -30.978409 -43.083679 -8.034324 0.752941 0.752941 0.752941
vn -0.132949 -1.267706 -4.637029
v -27.125233 -41.189030 -9.655802 0.752941 0.752941 0.752941
vn -0.867156 -1.601668 5.311005
v -23.328472 -41.750618 5.910262 0.752941 0.752941 0.752941
vn -5.263395 1.747744 2.909513
v -27.859800 -41.074207 1.266715 0.752941 0.752941 0.752941
vn 1.983326 -4.546554 -3.262749
v -26.314367 -42.835934 -3.206730 0.752941 0.752941 0.752941
vn -0.842136 -2.324573 -0.566560
v -23.799297 -42.305313 -1.049247 0.752941 0.752941 0.752941
vn -3.374730 -4.378947 0.807288
v -25.274965 -42.782681 -3.714209 0.752941 0.752941 0.752941
vn -5.352612 -2.080229 0.890459
v -26.200123 -41.914692 -6.497586 0.752941 0.752941 0.752941
vn -1.466892 0.864068 -1.440765
v -33.262814 -40.513638 -9.705825 0.752941 0.752941 0.752941
vn 2.934697 -2.495090 3.802343
v -19.772867 -39.523712 6.440960 0.752941 0.752941 0.752941
vn -0.012892 -1.468750 5.735930
v -20.979841 -39.304592 6.794472 0.752941 0.752941 0.752941
vn 4.902118 -3.462728 1.263276
v -19.311193 -40.176834 4.223619 0.752941 0.752941 0.752941
vn 3.275851 2.802749 -3.782065
v -22.067797 -40.584393 -4.956531 0.752941 0.752941 0.752941
vn -3.301743 3.542080 0.986611
v -26.523680 -40.663853 -7.757789 0.752941 0.752941 0.752941
vn 1.423701 -3.924583 -4.353307
v -31.164227 -40.880039 -9.349937 0.752941 0.752941 0.752941
vn -2.673529 -4.907404 -0.598807
v -28.084927 -40.514282 -9.160287 0.752941 0.752941 0.752941
vn -4.689312 0.637703 4.013612
v -24.809105 -38.005093 4.699314 0.752941 0.752941 0.752941
vn -1.426747 -3.463468 -3.614883
v -27.303789 -41.027725 -5.347780 0.752941 0.752941 0.752941
vn 1.426359 2.195795 -4.212426
v -27.862331 -40.083515 -5.579699 0.752941 0.752941 0.752941
vn 2.421700 3.546309 -2.758344
v -25.798275 -40.604084 -8.665750 0.752941 0.752941 0.752941
vn 5.061882 -2.063245 -1.798084
v -17.501221 -37.458015 -0.164269 0.752941 0.752941 0.752941
vn -2.739175 4.912411 0.927427
v -29.269146 -39.272747 -3.881539 0.752941 0.752941 0.752941
vn -4.862686 3.311989 0.819385
v -28.128571 -38.753635 -1.489949 0.752941 0.752941 0.752941
vn 2.072483 2.596416 -4.616373
v -20.405619 -39.183212 -2.943658 0.752941 0.752941 0.752941
vn 2.595958 -0.850403 1.802846
v -28.565964 -40.165775 -8.334397 0.752941 0.752941 0.752941
vn 1.752032 5.552780 -1.540398
v -28.548136 -39.363380 -5.248451 0.752941 0.752941 0.752941
vn 0.399385 0.862594 -1.400352
v -28.683958 -39.177349 -10.562369 0.752941 0.752941 0.752941
vn -3.288454 -0.750319 5.050763
v -22.893974 -35.256248 6.566440 0.752941 0.752941 0.752941
vn 4.457093 -2.463275 2.847271
v -17.695456 -36.634186 5.618650 0.752941 0.752941 0.752941
vn -4.890323 2.634418 0.090499
v -25.527220 -35.122616 2.367729 0.752941 0.752941 0.752941
vn 0.671991 4.651427 -3.807183
v -22.651590 -39.072746 -2.697222 0.752941 0.752941 0.752941
vn 0.901313 5.511574 -2.657574
v -25.047121 -39.557301 -5.256418 0.752941 0.752941 0.752941
vn -1.371406 4.959677 -2.400115
v -26.793777 -37.897995 -2.850944 0.752941 0.752941 0.752941
vn -0.203114 5.047147 0.162277
v -29.899052 -38.969353 -7.538119 0.752941 0.752941 0.752941
vn -0.795060 4.746480 -3.741484
v -24.256414 -35.531719 0.348045 0.752941 0.752941 0.752941
vn 0.737995 -2.172371 5.675075
v -19.662445 -34.426384 7.496906 0.752941 0.752941 0.752941
vn -1.207544 4.055556 -4.300438
v -19.515152 -34.286831 1.933400 0.752941 0.752941 0.752941
vn -3.536664 3.762010 -3.280002
v -19.072767 -35.941723 -1.020270 0.752941 0.752941 0.752941
vn 0.871184 1.662783 -3.236805
v -17.404181 -34.541882 -0.868441 0.752941 0.752941 0.752941
vn 5.209424 -1.715513 -0.637443
v -15.195563 -33.313931 3.267514 0.752941 0.752941 0.752941
vn -3.331141 3.897395 -2.370339
v -18.156330 -34.342831 1.139472 0.752941 0.752941 0.752941
vn 4.347135 0.965047 -2.410340
v -15.843197 -33.713642 1.069622 0.752941 0.752941 0.752941
vn 3.016949 -2.640946 4.751567
v -17.640474 -33.296375 7.295305 0.752941 0.752941 0.752941
vn -5.462801 1.281297 1.832519
v -24.668497 -33.973305 4.397411 0.752941 0.752941 0.752941
vn -2.918557 3.669559 -2.265805
v -24.618872 -33.732094 2.456598 0.752941 0.752941 0.752941
vn 4.906634 -3.021277 2.204778
v -13.859210 -28.060869 6.705108 0.752941 0.752941 0.752941
vn -0.083996 3.129425 -3.971874
v -16.804934 -32.351097 1.566948 0.752941 0.752941 0.752941
vn 1.719558 -1.718561 5.277300
v -17.674623 -30.382105 9.026577 0.752941 0.752941 0.752941
vn -1.756112 -0.791044 5.103107
v -20.728750 -30.937958 9.055983 0.752941 0.752941 0.752941
vn -4.693654 0.785067 2.107061
v -23.866453 -32.435211 6.287877 0.752941 0.752941 0.752941
vn -1.214662 3.422911 -4.912529
v -17.641464 -29.903767 4.450049 0.752941 0.752941 0.752941
vn 4.943029 -1.612240 -0.828082
v -13.835944 -30.328808 3.790549 0.752941 0.752941 0.752941
vn -2.896800 3.241867 -3.741235
v -22.746113 -31.383490 4.259278 0.752941 0.752941 0.752941
vn 1.111501 1.199970 -3.380572
v -14.629597 -29.873121 2.568118 0.752941 0.752941 0.752941
vn 3.673187 -2.116652 4.280655
v -14.380651 -27.615709 7.930147 0.752941 0.752941 0.752941
vn -4.581377 2.548366 -1.479244
v -22.775417 -29.317053 5.765063 0.752941 0.752941 0.752941
vn -2.483360 0.118548 5.302172
v -19.989571 -27.302715 9.232783 0.752941 0.752941 0.752941
vn -4.551989 2.327928 1.302016
v -21.232264 -26.591892 7.836141 0.752941 0.752941 0.752941
vn -0.095411 0.639040 -3.455146
v -14.009367 -27.914759 5.005481 0.752941 0.752941 0.752941
vn 0.461416 -0.368283 -1.509215
v -13.346569 -27.853367 4.189605 0.752941 0.752941 0.752941
vn -1.841699 3.030095 -4.521531
v -21.144201 -28.160131 5.249728 0.752941 0.752941 0.752941
vn -0.952779 2.550639 -5.343086
v -15.584707 -27.520594 5.812422 0.752941 0.752941 0.752941
vn -0.995033 2.601247 -5.572599
v -18.671381 -25.860819 6.439540 0.752941 0.752941 0.752941
vn -3.460377 3.711746 -3.200537
v -20.398178 -25.987001 6.985391 0.752941 0.752941 0.752941
vn -0.916185 -0.531203 5.993712
v -18.114660 -24.319126 9.791654 0.752941 0.752941 0.752941
vn 3.937948 -1.464851 4.072002
v -11.452765 -23.629848 7.394408 0.752941 0.752941 0.752941
vn 3.288013 -3.069114 -1.355440
v -10.733123 -25.340986 4.402755 0.752941 0.752941 0.752941
vn -2.248390 1.775173 -5.267951
v -13.301135 -23.378931 6.477815 0.752941 0.752941 0.752941
vn 1.992237 -1.381025 5.749681
v -16.104582 -23.338625 9.690127 0.752941 0.752941 0.752941
vn -4.205239 1.406183 2.661132
v -19.297354 -23.606596 9.255975 0.752941 0.752941 0.752941
vn 2.623619 -2.567409 -0.616244
v -9.440978 -24.305847 4.246383 0.752941 0.752941 0.752941
vn -1.547302 0.782264 -4.764460
v -10.576148 -23.630280 3.798437 0.752941 0.752941 0.752941
vn 1.172264 -0.707219 -3.576294
v -9.303926 -23.397610 3.517043 0.752941 0.752941 0.752941
vn 3.473357 -1.672629 4.903454
v -11.942396 -20.041716 8.313010 0.752941 0.752941 0.752941
vn -4.056660 2.157081 -3.742545
v -18.231394 -21.701571 8.187087 0.752941 0.752941 0.752941
vn -0.381370 1.960616 1.348824
v -9.332680 -21.856094 4.930790 0.752941 0.752941 0.752941
vn -1.850967 1.313348 -5.836115
v -16.076151 -21.016289 7.510661 0.752941 0.752941 0.752941
vn -2.858098 3.662730 -4.061356
v -11.071530 -22.335648 5.222674 0.752941 0.752941 0.752941
vn 2.072077 1.302833 -3.350343
v -11.037704 -21.262026 6.250344 0.752941 0.752941 0.752941
vn 3.355118 -2.944678 1.244113
v -7.865301 -21.441238 4.723643 0.752941 0.752941 0.752941
vn -0.352603 -0.106460 -4.612175
v -7.893943 -20.876017 4.270439 0.752941 0.752941 0.752941
vn -0.955480 -0.717418 5.170734
v -16.971664 -19.549458 11.026942 0.752941 0.752941 0.752941
vn -4.731039 0.937479 1.157265
v -18.195210 -19.437109 9.965006 0.752941 0.752941 0.752941
vn 1.923915 -1.954550 -2.517291
v -10.444173 -19.803717 6.609128 0.752941 0.752941 0.752941
vn -1.617229 -0.106249 -6.036185
v -13.602329 -16.071398 7.310744 0.752941 0.752941 0.752941
vn 2.269001 -2.042830 -1.430196
v -5.392780 -18.992147 4.180909 0.752941 0.752941 0.752941
vn 2.628587 -0.976076 5.500882
v -13.181448 -16.266161 10.391796 0.752941 0.752941 0.752941
vn -4.025497 1.353326 -4.159576
v -16.933346 -17.927719 8.474553 0.752941 0.752941 0.752941
vn 2.600421 -3.694156 3.696434
v -8.910673 -18.923714 6.876657 0.752941 0.752941 0.752941
vn 2.464082 -2.872466 4.459831
v -6.890172 -19.032436 5.949079 0.752941 0.752941 0.752941
vn -2.947796 -1.830844 -1.658126
v -8.318797 -19.041685 5.676681 0.752941 0.752941 0.752941
vn -1.819615 -0.091488 -5.669747
v -5.402889 -16.291389 3.830765 0.752941 0.752941 0.752941
vn 3.801403 -2.662405 2.136162
v -3.601857 -15.992354 5.090527 0.752941 0.752941 0.752941
vn -4.522080 0.493874 1.482626
v -17.059980 -14.826485 10.843185 0.752941 0.752941 0.752941
vn 2.833985 -0.552335 5.462523
v -7.332494 -14.525242 7.549484 0.752941 0.752941 0.752941
vn -2.705323 0.252740 -5.520447
v -8.185468 -14.599917 6.057317 0.752941 0.752941 0.752941
vn 2.280515 -1.853159 -4.488302
v -4.207124 -16.079159 3.789400 0.752941 0.752941 0.752941
vn -0.222344 -0.789806 5.826349
v -15.894968 -14.904886 11.447691 0.752941 0.752941 0.752941
vn -5.230641 1.116747 -3.148495
v -15.819682 -13.280654 8.800571 0.752941 0.752941 0.752941
vn -3.641086 -0.217260 -5.022090
v -14.630223 -13.683887 7.484970 0.752941 0.752941 0.752941
vn 3.146979 -1.324307 0.467633
v -2.242326 -14.656864 4.659982 0.752941 0.752941 0.752941
vn 3.217687 -0.373102 -2.944426
v -2.310126 -12.270901 3.391922 0.752941 0.752941 0.752941
vn -1.529590 0.899650 1.525481
v -16.760069 -11.763435 11.942284 0.752941 0.752941 0.752941
vn 1.199451 1.341496 5.199991
v -14.955530 -11.638788 11.576153 0.752941 0.752941 0.752941
vn -0.988010 -0.960990 -5.810228
v -9.490219 -12.348801 6.537158 0.752941 0.752941 0.752941
vn -1.414880 -1.374004 -5.650646
v -12.620913 -11.170470 5.898682 0.752941 0.752941 0.752941
vn -2.629467 -1.007162 -5.301057
v -6.413618 -9.831026 5.020619 0.752941 0.752941 0.752941
vn 3.047282 0.724594 5.429531
v -10.667551 -10.673903 8.879199 0.752941 0.752941 0.752941
vn 4.278243 0.573726 2.892160
v -2.422011 -11.114671 4.935672 0.752941 0.752941 0.752941
vn -1.376909 -0.506928 -5.732228
v -3.761887 -10.162656 3.051721 0.752941 0.752941 0.752941
vn -5.375607 1.841544 0.149806
v -15.481488 -10.167948 9.774624 0.752941 0.752941 0.752941
vn -0.223507 1.257192 4.726699
v -14.037507 -7.622898 10.538484 0.752941 0.752941 0.752941
vn 3.174481 1.490798 5.068970
v -4.407119 -7.847505 5.307983 0.752941 0.752941 0.752941
vn -4.416334 -0.110966 -4.052403
v -14.138326 -10.228356 6.674810 0.752941 0.752941 0.752941
vn -0.700584 -2.235412 -5.737456
v -8.962811 -8.919392 5.334208 0.752941 0.752941 0.752941
vn 2.828687 1.694807 5.327665
v -9.251762 -5.915131 6.772857 0.752941 0.752941 0.752941
vn -2.429487 -1.476053 -5.279918
v -11.648251 -6.801889 4.613754 0.752941 0.752941 0.752941
vn -0.782827 -2.624750 -5.557080
v -4.474554 -5.024551 2.542238 0.752941 0.752941 0.752941
vn 3.268309 -0.449842 -1.266923
v -2.916527 -5.273362 2.695132 0.752941 0.752941 0.752941
vn -5.271646 0.164207 -2.904195
v -13.795344 -4.828126 6.379384 0.752941 0.752941 0.752941
vn -2.333465 1.681332 2.311071
v -14.507998 -5.412169 9.625494 0.752941 0.752941 0.752941
vn -2.437959 -3.390001 -4.491402
v -10.011031 -3.456708 2.647618 0.752941 0.752941 0.752941
vn 0.840832 2.739835 5.021257
v -12.639689 -2.161892 7.611439 0.752941 0.752941 0.752941
vn -4.527293 -1.173108 -4.085279
v -11.539406 -3.123405 3.709460 0.752941 0.752941 0.752941
vn 1.235257 -4.078536 -4.269624
v -4.287227 -3.264847 1.278516 0.752941 0.752941 0.752941
vn -3.621100 2.036293 0.951101
v -13.591225 -1.334572 6.677786 0.752941 0.752941 0.752941
vn 2.609726 2.211333 5.254069
v -5.679030 0.582422 3.016532 0.752941 0.752941 0.752941
vn 4.126557 1.495498 3.638905
v -3.080205 -0.899372 2.360922 0.752941 0.752941 0.752941
vn 2.332574 2.346567 5.229184
v -9.777867 2.433372 4.468670 0.752941 0.752941 0.752941
vn -5.863142 0.837425 -1.688525
v -11.999197 0.643271 4.065361 0.752941 0.752941 0.752941
vn 5.033383 -1.019849 -0.264515
v -2.676553 -2.033409 1.726004 0.752941 0.752941 0.752941
vn -5.366916 -1.395939 -2.464223
v -10.873493 -0.666576 0.915941 0.752941 0.752941 0.752941
vn -4.202703 -3.260468 -2.411663
v -9.537917 -0.446536 -1.954381 0.752941 0.752941 0.752941
vn -1.395272 -5.598651 -2.260793
v -7.547764 -1.349902 -1.919337 0.752941 0.752941 0.752941
vn 2.922571 -4.642653 -1.990516
v -3.918173 -1.600757 -1.169392 0.752941 0.752941 0.752941
vn 5.604671 -0.223586 0.349293
v -2.582230 -0.155617 0.475479 0.752941 0.752941 0.752941
vn 5.503628 -1.842319 -1.215118
v -2.824179 0.328550 -2.936209 0.752941 0.752941 0.752941
vn 4.246419 -3.567554 -1.488667
v -3.777920 -0.521937 -4.676730 0.752941 0.752941 0.752941
vn -0.527518 -5.433280 -1.333248
v -6.181013 -0.837101 -7.547897 0.752941 0.752941 0.752941
vn -3.490211 -3.944000 -2.199420
v -7.391292 0.439339 -9.657467 0.752941 0.752941 0.752941
vn 1.240494 -4.071657 -2.494802
v -5.290069 0.186514 -10.622883 0.752941 0.752941 0.752941
vn -2.627976 2.650788 3.005104
v -11.767642 1.482184 5.282484 0.752941 0.752941 0.752941
vn -5.906967 0.113727 -2.068341
v -10.735825 0.894765 0.518853 0.752941 0.752941 0.752941
vn -5.096383 -2.725707 -1.401859
v -8.784970 0.876443 -6.292935 0.752941 0.752941 0.752941
vn 5.121043 -2.414700 -1.794398
v -4.085472 1.391419 -10.122183 0.752941 0.752941 0.752941
vn -6.034488 0.199083 -1.283326
v -9.413901 2.744754 -4.835414 0.752941 0.752941 0.752941
vn -1.001011 -1.869198 -3.484844
v -6.317836 3.407911 -14.322062 0.752941 0.752941 0.752941
vn 3.640930 2.341647 4.208714
v -4.071279 4.364090 0.365272 0.752941 0.752941 0.752941
vn 6.180769 -0.154698 0.114082
v -2.628941 6.189398 -4.903381 0.752941 0.752941 0.752941
vn -5.167630 -1.352954 -2.420933
v -7.770745 3.160710 -11.988213 0.752941 0.752941 0.752941
vn 3.345137 -1.155043 -3.906217
v -4.893543 4.553727 -14.232781 0.752941 0.752941 0.752941
vn -5.833325 0.050257 -1.987809
v -9.814624 5.163276 -0.742276 0.752941 0.752941 0.752941
vn 5.181364 1.675726 2.465984
v -3.129930 7.310472 -2.583459 0.752941 0.752941 0.752941
vn -5.910420 0.596272 -1.110766
v -8.843375 3.816517 -8.121647 0.752941 0.752941 0.752941
vn -5.264240 1.714380 -0.589815
v -11.218933 6.490187 2.069385 0.752941 0.752941 0.752941
vn 0.185958 3.720241 4.287516
v -9.968922 7.871358 1.262712 0.752941 0.752941 0.752941
vn -5.061420 1.125629 -2.723943
v -7.117189 6.153411 -13.422281 0.752941 0.752941 0.752941
vn -0.630232 0.826668 -4.044864
v -5.990413 6.175312 -14.750383 0.752941 0.752941 0.752941
vn -1.168269 1.715927 1.891513
v -11.247729 6.315856 3.360043 0.752941 0.752941 0.752941
vn -5.937713 0.943131 -1.389452
v -8.121634 6.520527 -6.245485 0.752941 0.752941 0.752941
vn 5.813159 -0.429598 -1.512071
v -2.768486 7.383346 -10.383883 0.752941 0.752941 0.752941
vn 3.587208 3.033168 3.839669
v -4.084783 10.010831 -3.307630 0.752941 0.752941 0.752941
vn -5.707906 -0.959165 -2.403591
v -9.548650 7.649890 -2.435300 0.752941 0.752941 0.752941
vn 5.927382 1.134386 0.535840
v -2.604555 9.568672 -6.528112 0.752941 0.752941 0.752941
vn -5.748032 0.707486 -2.222203
v -6.745030 9.349889 -11.407308 0.752941 0.752941 0.752941
vn 3.790667 1.354092 -3.943171
v -3.826865 9.693082 -12.351850 0.752941 0.752941 0.752941
vn -5.023746 0.750998 0.207326
v -10.601701 9.772281 -1.343867 0.752941 0.752941 0.752941
vn -5.611694 -0.963400 -2.202831
v -8.120182 10.195056 -5.997316 0.752941 0.752941 0.752941
vn 5.736217 1.167545 -1.275918
v -2.834664 10.171670 -10.067332 0.752941 0.752941 0.752941
vn -1.153870 2.302919 -4.663698
v -5.537203 9.314361 -13.135459 0.752941 0.752941 0.752941
vn -0.622798 3.218974 4.301438
v -9.569929 12.310644 -2.155145 0.752941 0.752941 0.752941
vn -5.365675 -2.313431 -1.982064
v -9.643611 12.654941 -4.623268 0.752941 0.752941 0.752941
vn 5.058981 2.557378 2.260048
v -3.470635 11.084238 -5.182817 0.752941 0.752941 0.752941
vn -3.493699 -0.477056 -4.289047
v -6.690097 12.182329 -11.810111 0.752941 0.752941 0.752941
vn -5.560032 -0.313177 1.922934
v -10.073453 13.418047 -3.396394 0.752941 0.752941 0.752941
vn 4.369572 3.111759 1.979236
v -4.284060 14.086781 -7.117848 0.752941 0.752941 0.752941
vn 4.663676 2.704704 -1.407606
v -4.464451 15.043123 -10.271561 0.752941 0.752941 0.752941
vn 2.490992 1.284223 -4.822398
v -6.067309 15.205879 -11.959612 0.752941 0.752941 0.752941
vn 2.811447 3.726574 4.167202
v -8.349141 15.696454 -5.594430 0.752941 0.752941 0.752941
vn -2.366773 -2.080554 -4.420383
v -7.509150 14.465673 -11.945236 0.752941 0.752941 0.752941
vn 0.967182 2.951423 5.311989
v -10.236429 14.905088 -4.135660 0.752941 0.752941 0.752941
vn -3.300880 -3.037136 1.659809
v -12.194281 15.712527 -4.614943 0.752941 0.752941 0.752941
vn -3.832193 -4.389098 -1.880036
v -10.973533 16.856142 -8.392808 0.752941 0.752941 0.752941
vn -3.353575 -4.307314 -2.798709
v -9.603886 16.750345 -11.912352 0.752941 0.752941 0.752941
vn -0.249304 0.485768 4.462489
v -13.315454 17.888115 -4.236001 0.752941 0.752941 0.752941
vn 3.803677 4.219460 1.624126
v -6.181514 16.912392 -8.774080 0.752941 0.752941 0.752941
vn 1.578768 0.163005 -3.930988
v -9.206527 17.866899 -13.050589 0.752941 0.752941 0.752941
vn -3.580446 -4.525140 0.345000
v -15.276855 18.377539 -5.434653 0.752941 0.752941 0.752941
vn 3.011244 4.180482 3.360626
v -11.655990 19.465199 -6.574444 0.752941 0.752941 0.752941
vn 3.920229 4.031201 -1.767711
v -6.875854 17.533253 -10.817759 0.752941 0.752941 0.752941
vn -2.238872 -0.912563 2.639896
v -15.906960 19.125063 -4.735919 0.752941 0.752941 0.752941
vn -0.396909 -3.401698 -3.473332
v -12.406543 19.097580 -14.039319 0.752941 0.752941 0.752941
vn -0.642415 2.871585 4.085839
v -15.984760 21.273834 -5.578867 0.752941 0.752941 0.752941
vn 3.763816 4.630780 0.192238
v -10.301497 20.309471 -10.527659 0.752941 0.752941 0.752941
vn -4.508376 -3.992855 -0.528461
v -17.409559 21.308992 -10.280713 0.752941 0.752941 0.752941
vn 3.670789 2.083253 -3.329126
v -11.626793 20.547689 -13.888404 0.752941 0.752941 0.752941
vn -4.260539 -0.282099 1.959528
v -17.567879 21.453207 -7.053445 0.752941 0.752941 0.752941
vn -4.024722 -3.612277 -1.225631
v -17.709906 21.909424 -14.870492 0.752941 0.752941 0.752941
vn 0.541451 -2.129075 -3.657239
v -14.398560 20.850790 -15.950036 0.752941 0.752941 0.752941
vn 2.016391 4.778416 2.843124
v -15.850457 23.267683 -7.990482 0.752941 0.752941 0.752941
vn 2.383230 1.898378 -3.974999
v -15.085833 22.699049 -16.189863 0.752941 0.752941 0.752941
vn -2.180674 -1.227017 -3.139283
v -17.567911 22.646938 -16.469332 0.752941 0.752941 0.752941
vn -2.493295 1.685511 -0.074845
v -19.047068 24.743919 -12.387994 0.752941 0.752941 0.752941
vn 2.467600 5.122437 -0.343177
v -15.518340 24.472664 -12.941626 0.752941 0.752941 0.752941
vn -0.709006 1.867638 -2.022125
v -17.446110 24.447279 -16.399782 0.752941 0.752941 0.752941
vn -1.156069 3.568272 1.758175
v -17.665276 24.735569 -9.596953 0.752941 0.752941 0.752941
vn -0.252089 -2.604728 1.362596
v 25.948011 -51.780727 -2.047428 0.752941 0.752941 0.752941
vn -2.585527 -2.210404 -0.380018
v 24.478743 -51.063362 -3.239329 0.752941 0.752941 0.752941
vn 1.755072 -3.225701 -1.810012
v 27.696478 -50.849056 -4.411679 0.752941 0.752941 0.752941
vn 3.446408 -2.262186 3.018402
v 27.868612 -49.972248 -1.930490 0.752941 0.752941 0.752941
vn -1.790918 -2.829531 -5.035822
v 25.994894 -49.732510 -4.849251 0.752941 0.752941 0.752941
vn -4.368499 -1.716105 -3.422381
v 24.495863 -47.253094 -5.000357 0.752941 0.752941 0.752941
vn -1.536459 -1.921476 4.933951
v 25.761539 -47.664478 -0.628881 0.752941 0.752941 0.752941
vn 5.503835 -1.351126 1.869192
v 29.949118 -46.785881 -4.827874 0.752941 0.752941 0.752941
vn 0.219806 -3.210630 -5.391074
v 28.450489 -47.865772 -5.973554 0.752941 0.752941 0.752941
vn -5.493701 -2.237842 1.219950
v 23.735092 -45.946522 -2.382866 0.752941 0.752941 0.752941
vn 3.377265 -2.595264 -1.831495
v 30.268253 -46.675121 -6.523774 0.752941 0.752941 0.752941
vn 3.105773 -1.500025 4.369506
v 27.082016 -44.399490 0.235522 0.752941 0.752941 0.752941
vn -2.810807 -3.136962 4.062148
v 24.350992 -44.584953 0.092982 0.752941 0.752941 0.752941
vn 5.745780 -0.612603 2.305810
v 31.031033 -43.767616 -7.357282 0.752941 0.752941 0.752941
vn -2.634194 1.385282 -3.444765
v 26.210743 -41.645760 -8.140888 0.752941 0.752941 0.752941
vn -1.476867 -3.420323 -5.022620
v 30.125698 -44.333538 -8.211150 0.752941 0.752941 0.752941
vn 5.423439 1.319151 2.254335
v 28.383068 -39.613987 -1.584452 0.752941 0.752941 0.752941
vn -4.028831 -0.343861 -3.995725
v 24.030243 -42.875721 -6.439606 0.752941 0.752941 0.752941
vn 2.294197 -3.102624 -1.787047
v 31.455929 -43.800777 -9.001538 0.752941 0.752941 0.752941
vn 1.736217 -3.041073 4.593996
v 25.297260 -41.896805 2.451017 0.752941 0.752941 0.752941
vn -2.585424 -4.014399 3.602036
v 23.869474 -42.547337 1.645428 0.752941 0.752941 0.752941
vn -5.271835 -2.987703 0.946401
v 21.966143 -41.724567 -0.699108 0.752941 0.752941 0.752941
vn -4.893860 0.053091 -2.127964
v 21.931923 -41.422493 -3.361232 0.752941 0.752941 0.752941
vn 5.365281 1.719555 2.423470
v 30.030058 -40.196472 -5.672333 0.752941 0.752941 0.752941
vn 4.836758 -0.640159 3.705950
v 26.608784 -40.952103 1.634765 0.752941 0.752941 0.752941
vn 4.354164 -1.250852 -0.181605
v 32.780575 -41.543362 -10.165559 0.752941 0.752941 0.752941
vn -2.675055 -2.533213 -4.560300
v 29.907717 -41.051086 -10.969131 0.752941 0.752941 0.752941
vn 1.684785 3.497340 -1.510371
v 24.333109 -41.748936 -1.624007 0.752941 0.752941 0.752941
vn -1.072002 3.798785 -1.884721
v 23.533073 -40.642109 -4.775301 0.752941 0.752941 0.752941
vn 1.986871 1.988913 -3.497144
v 23.485924 -39.762920 -0.494863 0.752941 0.752941 0.752941
vn -2.121723 2.353459 -3.026778
v 25.829636 -41.361679 -1.308043 0.752941 0.752941 0.752941
vn -1.845236 3.165574 0.237303
v 27.385693 -41.931667 -5.061035 0.752941 0.752941 0.752941
vn -2.643924 5.169456 -0.001175
v 27.092247 -41.147011 -6.925209 0.752941 0.752941 0.752941
vn 2.669927 -2.412243 -2.598657
v 32.367825 -39.742306 -12.605924 0.752941 0.752941 0.752941
vn -1.723609 -3.934486 4.046968
v 22.571457 -39.748512 4.346192 0.752941 0.752941 0.752941
vn -3.007975 -3.521324 3.058997
v 20.732483 -37.806240 5.118213 0.752941 0.752941 0.752941
vn 0.067253 2.806633 -0.479148
v 28.733875 -38.212456 -5.355264 0.752941 0.752941 0.752941
vn -3.722029 3.095001 -2.562781
v 28.201548 -40.320618 -9.460649 0.752941 0.752941 0.752941
vn 1.961806 -1.936982 4.404310
v 23.926016 -38.963959 5.044269 0.752941 0.752941 0.752941
vn -5.460806 -2.573820 -0.834869
v 20.401615 -38.241276 0.814500 0.752941 0.752941 0.752941
vn 2.774905 2.979603 -4.573861
v 22.348352 -38.370789 -1.036254 0.752941 0.752941 0.752941
vn -4.686666 0.763137 -4.025271
v 26.803829 -38.182137 -2.648730 0.752941 0.752941 0.752941
vn 0.509525 4.390005 0.133525
v 29.631628 -38.789822 -6.991520 0.752941 0.752941 0.752941
vn 4.859053 2.330014 1.359348
v 32.481598 -39.373058 -10.542246 0.752941 0.752941 0.752941
vn 0.169720 0.259324 -0.450921
v 32.551609 -38.050541 -14.152261 0.752941 0.752941 0.752941
vn 5.496133 0.668419 2.657806
v 25.994053 -36.939297 2.358036 0.752941 0.752941 0.752941
vn -1.977049 1.639497 -5.502456
v 23.778612 -36.400578 0.048257 0.752941 0.752941 0.752941
vn -1.100684 1.679488 -4.232594
v 21.510817 -37.993336 -1.277102 0.752941 0.752941 0.752941
vn 0.867792 5.169990 1.087671
v 31.576292 -38.790863 -10.191075 0.752941 0.752941 0.752941
vn 1.363322 -1.799576 5.337308
v 21.990614 -35.748871 6.612574 0.752941 0.752941 0.752941
vn 4.128572 -0.079061 4.383440
v 23.882168 -35.004662 5.589882 0.752941 0.752941 0.752941
vn 1.602055 2.747326 -2.274352
v 26.526108 -36.463116 -1.463836 0.752941 0.752941 0.752941
vn 5.739698 1.679763 0.294174
v 26.132835 -34.796539 0.531699 0.752941 0.752941 0.752941
vn -4.610304 -1.428721 -3.012103
v 18.802626 -35.074657 0.460673 0.752941 0.752941 0.752941
vn -2.910791 -3.227567 3.351940
v 19.172726 -35.165680 6.743915 0.752941 0.752941 0.752941
vn -4.818407 -3.044955 1.510835
v 16.326809 -32.003788 5.101577 0.752941 0.752941 0.752941
vn -0.723976 2.830243 -4.837245
v 22.486351 -35.239304 1.026865 0.752941 0.752941 0.752941
vn 0.864434 2.033275 -2.892813
v 25.283220 -33.472019 -0.371128 0.752941 0.752941 0.752941
vn -0.735448 1.962008 -4.047004
v 19.267902 -34.364361 0.048330 0.752941 0.752941 0.752941
vn 4.778069 1.063067 3.080145
v 23.452898 -30.464458 5.781526 0.752941 0.752941 0.752941
vn -0.964047 -1.650195 4.855280
v 19.504528 -33.754162 7.805893 0.752941 0.752941 0.752941
vn 3.838475 3.055624 -0.711692
v 24.800186 -31.477247 2.484773 0.752941 0.752941 0.752941
vn 0.679367 1.753030 -4.098616
v 20.443993 -32.882648 3.188639 0.752941 0.752941 0.752941
vn -4.595289 -2.267068 -2.541668
v 16.822222 -32.397202 2.492316 0.752941 0.752941 0.752941
vn 2.095285 -0.515717 5.462440
v 20.494486 -28.356949 8.227175 0.752941 0.752941 0.752941
vn -2.496560 -1.766590 5.110846
v 17.648830 -30.269295 7.708474 0.752941 0.752941 0.752941
vn 0.276049 2.831950 -5.296687
v 22.626173 -30.469242 2.926075 0.752941 0.752941 0.752941
vn -0.371845 1.354707 -5.288229
v 17.876940 -31.784384 1.708679 0.752941 0.752941 0.752941
vn 1.076758 1.220986 -5.923013
v 19.761349 -30.373138 2.697038 0.752941 0.752941 0.752941
vn -2.133172 -0.188709 -3.280680
v 14.967704 -29.269508 2.548412 0.752941 0.752941 0.752941
vn -4.426673 -3.044230 2.940610
v 14.341490 -28.380161 5.873306 0.752941 0.752941 0.752941
vn -4.121323 -2.587134 -2.151219
v 13.255154 -27.432447 4.297463 0.752941 0.752941 0.752941
vn 4.157416 3.173813 -1.604912
v 23.336977 -29.418776 4.088796 0.752941 0.752941 0.752941
vn 4.698522 1.113868 3.542491
v 21.163540 -26.497446 7.604056 0.752941 0.752941 0.752941
vn -3.363263 -2.220644 4.705940
v 14.085634 -25.355112 7.624264 0.752941 0.752941 0.752941
vn 4.681934 2.920907 -0.852646
v 21.753613 -26.370956 5.742423 0.752941 0.752941 0.752941
vn 1.724483 2.977755 -4.725710
v 19.655586 -25.443291 4.527115 0.752941 0.752941 0.752941
vn -2.008810 -1.558511 5.601418
v 15.683966 -23.693846 9.068844 0.752941 0.752941 0.752941
vn -0.575008 1.738117 -5.710217
v 14.244232 -26.790569 3.799343 0.752941 0.752941 0.752941
vn 1.907258 -0.280119 5.200397
v 19.009544 -24.734133 9.181206 0.752941 0.752941 0.752941
vn -0.082513 -0.409709 -4.013479
v 11.709774 -24.503059 3.620194 0.752941 0.752941 0.752941
vn -3.985656 -3.927060 0.487618
v 11.276872 -25.056959 4.929193 0.752941 0.752941 0.752941
vn 4.269190 2.306471 0.207865
v 20.144569 -22.942480 7.466472 0.752941 0.752941 0.752941
vn 0.138412 2.057661 -5.598977
v 15.525278 -23.308744 6.065130 0.752941 0.752941 0.752941
vn 0.400961 -0.628463 5.743196
v 17.007689 -21.290277 9.964018 0.752941 0.752941 0.752941
vn -3.054008 -2.641653 -0.459586
v 8.342205 -22.876495 4.311378 0.752941 0.752941 0.752941
vn 2.164920 2.247311 -5.117425
v 12.600929 -22.506151 5.717253 0.752941 0.752941 0.752941
vn 4.177441 1.418328 3.568460
v 18.170210 -20.763485 9.370193 0.752941 0.752941 0.752941
vn 1.809021 2.069540 -5.189469
v 17.171305 -20.818781 6.376419 0.752941 0.752941 0.752941
vn -2.957863 -1.605269 5.012970
v 8.800659 -20.463043 6.327322 0.752941 0.752941 0.752941
vn 0.195890 0.179120 -4.464052
v 9.412083 -22.091175 3.297884 0.752941 0.752941 0.752941
vn -3.573121 -0.451345 4.942338
v 10.776721 -19.005487 7.443057 0.752941 0.752941 0.752941
vn -3.597080 -1.513229 -3.534434
v 7.171805 -20.725294 4.161700 0.752941 0.752941 0.752941
vn 5.112884 2.340716 -1.928444
v 17.488789 -18.972513 7.943276 0.752941 0.752941 0.752941
vn -0.174698 -0.256438 -5.832129
v 10.732779 -17.369856 6.403209 0.752941 0.752941 0.752941
vn 2.321316 1.164954 -0.594810
v 9.788423 -18.254976 6.202668 0.752941 0.752941 0.752941
vn -4.373730 -2.610284 2.335069
v 5.853887 -18.629971 4.916961 0.752941 0.752941 0.752941
vn 3.012231 0.014645 3.978080
v 16.872252 -17.455873 10.084857 0.752941 0.752941 0.752941
vn -2.255365 -0.877170 5.648694
v 14.278777 -16.481058 10.013922 0.752941 0.752941 0.752941
vn -2.498230 -1.035089 5.500231
v 6.449772 -16.355955 6.186191 0.752941 0.752941 0.752941
vn 1.566765 0.879379 -5.847492
v 7.170523 -18.233896 4.335002 0.752941 0.752941 0.752941
vn -1.569254 -2.078754 5.336260
v 9.446548 -17.251823 6.799168 0.752941 0.752941 0.752941
vn -3.032730 -2.068353 -2.598948
v 4.110499 -15.737141 4.295964 0.752941 0.752941 0.752941
vn 2.173916 0.878563 -5.619870
v 15.235723 -16.661436 6.844250 0.752941 0.752941 0.752941
vn 0.631175 0.227470 4.855343
v 15.891294 -14.802876 10.854568 0.752941 0.752941 0.752941
vn 3.579397 1.715040 1.568199
v 16.708178 -13.679332 10.037041 0.752941 0.752941 0.752941
vn -3.388131 0.913162 4.582321
v 10.172683 -14.397692 7.943955 0.752941 0.752941 0.752941
vn -1.994491 1.103271 -4.360033
v 10.771386 -13.399775 6.608259 0.752941 0.752941 0.752941
vn -3.511801 -0.736710 1.215249
v 2.311505 -12.385629 4.858304 0.752941 0.752941 0.752941
vn 1.364852 -0.550512 -5.977095
v 5.308140 -14.540037 4.037457 0.752941 0.752941 0.752941
vn 4.836538 1.715697 -1.774865
v 14.703068 -10.652588 7.797329 0.752941 0.752941 0.752941
vn 1.877925 -0.206656 -5.788946
v 13.181605 -12.941620 6.478441 0.752941 0.752941 0.752941
vn 3.338339 0.604577 -5.106269
v 8.758971 -13.339182 5.739693 0.752941 0.752941 0.752941
vn -2.649944 0.836991 5.449489
v 12.345172 -11.342062 8.999964 0.752941 0.752941 0.752941
vn -0.442995 3.605140 4.197253
v 9.245381 -13.570491 6.645562 0.752941 0.752941 0.752941
vn -1.928060 0.152627 5.794807
v 4.963588 -11.708917 6.102695 0.752941 0.752941 0.752941
vn -5.130989 -0.735269 2.121258
v 10.583393 -12.073577 7.375457 0.752941 0.752941 0.752941
vn 1.270692 -3.101551 0.195227
v 9.446508 -11.991132 6.167448 0.752941 0.752941 0.752941
vn 2.102038 -1.245150 -5.728383
v 6.414134 -10.537248 4.282440 0.752941 0.752941 0.752941
vn -1.587943 -1.133408 -4.419494
v 3.166646 -11.674047 3.105547 0.752941 0.752941 0.752941
vn 1.635427 2.449610 4.093132
v 14.241761 -10.703979 9.319396 0.752941 0.752941 0.752941
vn 3.285727 -0.824146 -5.080140
v 12.357365 -9.425036 5.526133 0.752941 0.752941 0.752941
vn 0.876966 -2.580232 -5.450707
v 10.910347 -10.820103 5.450145 0.752941 0.752941 0.752941
vn -1.278478 -1.338554 5.757201
v 8.097432 -10.793582 6.724516 0.752941 0.752941 0.752941
vn -2.913610 -0.104516 5.428435
v 10.459922 -10.086737 7.719125 0.752941 0.752941 0.752941
vn -0.483359 -2.378446 -5.285398
v 3.150199 -7.676082 2.406912 0.752941 0.752941 0.752941
vn 5.220463 0.824439 -2.706317
v 13.327449 -7.604437 6.474975 0.752941 0.752941 0.752941
vn -4.181911 -0.729681 0.577340
v 1.932916 -8.420278 3.774759 0.752941 0.752941 0.752941
vn 3.419098 2.442885 2.496310
v 13.492816 -7.549111 7.917790 0.752941 0.752941 0.752941
vn -0.333491 2.414780 5.238982
v 12.080150 -6.740141 7.785507 0.752941 0.752941 0.752941
vn -1.952008 1.130237 5.854178
v 7.502668 -7.901192 6.257092 0.752941 0.752941 0.752941
vn -3.134978 1.017971 4.956089
v 2.607559 -5.179090 4.212220 0.752941 0.752941 0.752941
vn 1.384547 -3.079371 -4.879248
v 6.640131 -4.150383 2.446699 0.752941 0.752941 0.752941
vn 2.798864 -1.566322 -4.966818
v 10.443168 -5.292056 3.376064 0.752941 0.752941 0.752941
vn -3.871724 -1.294251 -0.027657
v 1.170875 -6.497684 2.764865 0.752941 0.752941 0.752941
vn -2.918312 -1.736670 -3.313580
v 1.503540 -4.868057 0.911751 0.752941 0.752941 0.752941
vn 0.513516 2.361397 5.245347
v 10.811273 -3.496574 6.153957 0.752941 0.752941 0.752941
vn 4.106805 1.381465 0.281594
v 12.239400 -3.618982 5.282370 0.752941 0.752941 0.752941
vn -2.456152 1.771671 5.413908
v 3.074733 -2.143553 3.485432 0.752941 0.752941 0.752941
vn 5.220241 -0.510204 -3.109460
v 10.409986 -0.832286 2.107177 0.752941 0.752941 0.752941
vn 2.641215 -3.287659 -4.375527
v 8.841813 -2.595991 1.365165 0.752941 0.752941 0.752941
vn 0.311604 -3.499645 -5.131435
v 3.939877 -1.979867 -0.437343 0.752941 0.752941 0.752941
vn -2.232963 -3.504565 -4.449040
v 2.270925 -0.699902 -1.038671 0.752941 0.752941 0.752941
vn 4.427204 1.730027 1.169413
v 11.428186 -1.037428 4.379469 0.752941 0.752941 0.752941
vn -4.866891 0.740901 2.894480
v 1.220076 -0.298506 1.610490 0.752941 0.752941 0.752941
vn -5.426772 -1.060538 -0.683600
v 0.805697 0.508705 -0.414104 0.752941 0.752941 0.752941
vn 5.126905 -1.672848 -2.823195
v 9.061753 0.442846 -0.768636 0.752941 0.752941 0.752941
vn -0.109931 2.427986 5.397704
v 9.499739 1.391445 4.271738 0.752941 0.752941 0.752941
vn 2.182833 -4.343149 -3.448092
v 7.480155 -0.233815 -2.114543 0.752941 0.752941 0.752941
vn -3.079293 2.141109 4.783792
v 2.201507 1.464296 1.786866 0.752941 0.752941 0.752941
vn 5.886831 0.761432 -1.817868
v 9.674019 1.811410 0.690082 0.752941 0.752941 0.752941
vn -3.968085 -3.782990 -2.572753
v 1.459620 1.198771 -2.818446 0.752941 0.752941 0.752941
vn 2.419624 1.974791 1.469281
v 10.622294 2.271842 3.697802 0.752941 0.752941 0.752941
vn -0.646027 2.888320 5.276019
v 7.150816 4.283031 2.310043 0.752941 0.752941 0.752941
vn -5.711802 -1.684530 -1.075673
v 0.985618 2.801758 -3.728672 0.752941 0.752941 0.752941
vn 5.070451 -2.799990 -1.807392
v 7.646247 2.974771 -5.927616 0.752941 0.752941 0.752941
vn -0.875484 -5.777247 -2.212422
v 4.079105 1.179598 -4.552964 0.752941 0.752941 0.752941
vn 1.451787 -5.738961 -1.180562
v 5.529375 1.653490 -6.596909 0.752941 0.752941 0.752941
vn -3.028011 -5.030879 -0.841263
v 2.905351 1.941528 -6.975388 0.752941 0.752941 0.752941
vn 0.314889 -4.670952 -0.894560
v 4.495728 1.094258 -11.259601 0.752941 0.752941 0.752941
vn -1.857376 -2.958538 -2.215770
v 3.446030 1.903744 -13.028977 0.752941 0.752941 0.752941
vn 3.351415 -2.182641 -2.666626
v 6.619383 4.435380 -14.711423 0.752941 0.752941 0.752941
vn 4.278666 -4.165248 -1.144510
v 6.170376 2.328552 -10.993908 0.752941 0.752941 0.752941
vn -4.920684 1.388030 2.576530
v 1.019804 5.350227 -1.484909 0.752941 0.752941 0.752941
vn -5.648543 -2.065509 -1.218506
v 1.112558 4.314989 -6.797035 0.752941 0.752941 0.752941
vn 3.870197 2.908841 2.653083
v 8.979126 4.138563 1.866242 0.752941 0.752941 0.752941
vn 6.040200 0.566064 -0.539668
v 9.445712 3.203984 -0.067175 0.752941 0.752941 0.752941
vn -5.938822 0.146075 0.654351
v 0.443861 6.161930 -3.934369 0.752941 0.752941 0.752941
vn 6.056554 -0.382103 -1.322539
v 8.436077 4.645987 -4.499837 0.752941 0.752941 0.752941
vn 0.380875 0.133424 -2.766129
v 5.529008 6.648379 -16.753115 0.752941 0.752941 0.752941
vn 1.966351 2.436361 2.839261
v 8.258221 8.564539 0.039430 0.752941 0.752941 0.752941
vn -2.752753 3.066636 4.524566
v 2.971017 7.360140 -1.025620 0.752941 0.752941 0.752941
vn 6.029634 1.180993 0.050149
v 8.696590 7.804160 -1.317429 0.752941 0.752941 0.752941
vn -6.013659 0.113252 -0.552631
v 0.475391 7.062837 -6.149677 0.752941 0.752941 0.752941
vn 6.151578 0.039197 -0.959378
v 7.447155 6.497485 -10.701475 0.752941 0.752941 0.752941
vn -5.709846 -0.205788 -2.180036
v 1.926520 7.050575 -11.901004 0.752941 0.752941 0.752941
vn -4.590577 -0.207117 -3.626615
v 3.276633 6.240555 -14.601349 0.752941 0.752941 0.752941
vn 5.766530 0.683957 -1.753663
v 6.984801 7.073232 -13.697168 0.752941 0.752941 0.752941
vn 6.206076 0.665511 -0.480372
v 8.056980 9.731074 -3.793544 0.752941 0.752941 0.752941
vn 2.752480 2.602189 -3.977703
v 5.878876 9.057647 -14.668941 0.752941 0.752941 0.752941
vn -4.979603 2.251466 1.878539
v 1.132839 9.636638 -4.572679 0.752941 0.752941 0.752941
vn 6.104989 -0.057389 -1.340287
v 7.332697 10.854531 -8.525020 0.752941 0.752941 0.752941
vn -2.792241 2.376134 -4.753588
v 4.140446 9.576923 -14.156638 0.752941 0.752941 0.752941
vn -4.886512 2.318870 -0.606512
v 1.523769 12.861494 -8.958020 0.752941 0.752941 0.752941
vn 4.925083 1.367840 -3.176690
v 6.201386 11.854853 -12.473169 0.752941 0.752941 0.752941
vn 2.813749 2.309402 3.061522
v 7.705288 11.543587 -2.849687 0.752941 0.752941 0.752941
vn -3.282286 3.547145 3.696007
v 2.692451 11.522627 -4.430026 0.752941 0.752941 0.752941
vn -4.701019 1.838712 -3.236799
v 2.368456 11.612108 -11.491158 0.752941 0.752941 0.752941
vn -5.071996 2.830626 1.882851
v 1.831309 12.028655 -6.425943 0.752941 0.752941 0.752941
vn -1.067737 2.334820 -4.841279
v 4.935526 13.679201 -12.458912 0.752941 0.752941 0.752941
vn -0.254044 3.695834 4.470277
v 6.954949 13.545561 -4.020897 0.752941 0.752941 0.752941
vn 6.111573 -0.541201 -0.387280
v 8.144642 14.389139 -7.279811 0.752941 0.752941 0.752941
vn -3.227379 4.287123 1.830052
v 3.709644 15.123694 -7.557454 0.752941 0.752941 0.752941
vn -3.723044 3.946937 -1.982290
v 4.129595 15.373917 -10.438738 0.752941 0.752941 0.752941
vn 2.027997 2.433752 2.154157
v 7.975061 15.743647 -6.099745 0.752941 0.752941 0.752941
vn 4.179928 -0.302154 -3.986809
v 6.751870 14.453853 -11.658601 0.752941 0.752941 0.752941
vn -0.032948 2.244766 -3.154346
v 6.737291 16.714409 -11.599027 0.752941 0.752941 0.752941
vn 4.579736 -0.636984 0.368718
v 8.532596 17.597898 -10.067421 0.752941 0.752941 0.752941
vn -1.397028 4.995480 1.492583
v 7.313909 17.560947 -9.324981 0.752941 0.752941 0.752941
vn 0.244801 0.268124 -0.038649
v 9.160317 18.900948 -10.399577 0.752941 0.752941 0.752941
vn 1.772701 -1.448501 2.907727
v 15.569331 23.032528 -11.558944 0.752941 0.752941 0.752941
vn -0.594710 -0.684005 0.654264
v 12.492355 21.333950 -11.227917 0.752941 0.752941 0.752941
vn 1.779743 -5.030471 -1.114213
v 15.481346 22.597979 -16.103922 0.752941 0.752941 0.752941
vn -2.711632 -1.006713 -1.336923
v 13.014465 22.527700 -15.059697 0.752941 0.752941 0.752941
vn -2.938017 2.186018 2.355198
v 12.899687 22.828012 -11.667069 0.752941 0.752941 0.752941
vn -3.718824 4.233491 -1.292041
v 14.782037 24.781921 -15.952202 0.752941 0.752941 0.752941
vn 0.068207 -0.056460 -0.870233
v 16.235819 24.016544 -19.662313 0.752941 0.752941 0.752941
vn 0.004793 2.709499 2.006062
v 15.852424 25.574076 -12.274786 0.752941 0.752941 0.752941
vn 3.409389 -0.019461 1.390320
v 17.601553 24.633215 -13.301662 0.752941 0.752941 0.752941
vn 4.747757 -0.766360 -0.666419
v 17.848185 25.003361 -16.395926 0.752941 0.752941 0.752941
vn 1.504629 2.978570 -0.947514
v 17.524799 25.873631 -16.622955 0.752941 0.752941 0.752941
# 469 vertices, 0 vertices normals


usemtl material_0
f 1//1 2//2 3//3
f 1//1 3//3 4//4
f 3//3 2//2 5//5
f 3//3 6//6 4//4
f 7//7 1//1 4//4
f 3//3 8//8 6//6
f 2//2 1//1 9//9
f 3//3 5//5 8//8
f 2//2 10//10 5//5
f 4//4 11//11 7//7
f 9//9 1//1 12//12
f 6//6 11//11 4//4
f 2//2 9//9 10//10
f 7//7 11//11 13//13
f 14//14 1//1 7//7
f 7//7 13//13 14//14
f 12//12 1//1 14//14
f 8//8 5//5 15//15
f 13//13 16//16 14//14
f 8//8 15//15 17//17
f 8//8 17//17 6//6
f 18//18 6//6 17//17
f 6//6 18//18 11//11
f 16//16 13//13 11//11
f 19//19 10//10 9//9
f 12//12 19//19 9//9
f 15//15 5//5 20//20
f 20//20 5//5 10//10
f 21//21 11//11 18//18
f 11//11 21//21 16//16
f 10//10 19//19 22//22
f 18//18 17//17 23//23
f 15//15 24//24 17//17
f 20//20 10//10 22//22
f 12//12 14//14 25//25
f 19//19 12//12 26//26
f 12//12 25//25 27//27
f 14//14 16//16 28//28
f 17//17 24//24 23//23
f 24//24 29//29 23//23
f 30//30 24//24 15//15
f 15//15 31//31 30//30
f 31//31 15//15 20//20
f 32//32 16//16 21//21
f 16//16 32//32 28//28
f 26//26 12//12 27//27
f 25//25 14//14 33//33
f 28//28 33//33 14//14
f 23//23 34//34 18//18
f 18//18 35//35 21//21
f 24//24 30//30 36//36
f 37//37 30//30 31//31
f 31//31 38//38 37//37
f 39//39 37//37 38//38
f 39//39 40//40 37//37
f 31//31 41//41 38//38
f 38//38 33//33 39//39
f 28//28 32//32 42//42
f 18//18 34//34 35//35
f 43//43 24//24 44//44
f 36//36 44//44 24//24
f 45//45 44//44 20//20
f 20//20 22//22 45//45
f 30//30 37//37 40//40
f 32//32 21//21 35//35
f 20//20 46//46 31//31
f 31//31 46//46 41//41
f 39//39 33//33 47//47
f 48//48 38//38 41//41
f 38//38 48//48 33//33
f 26//26 27//27 49//49
f 27//27 25//25 50//50
f 25//25 33//33 48//48
f 50//50 25//25 48//48
f 33//33 28//28 42//42
f 29//29 24//24 43//43
f 43//43 44//44 45//45
f 46//46 20//20 44//44
f 40//40 36//36 30//30
f 35//35 51//51 32//32
f 22//22 19//19 52//52
f 40//40 39//39 47//47
f 53//53 47//47 33//33
f 50//50 48//48 41//41
f 54//54 49//49 27//27
f 27//27 50//50 54//54
f 33//33 42//42 53//53
f 29//29 55//55 23//23
f 23//23 55//55 34//34
f 34//34 56//56 35//35
f 40//40 57//57 36//36
f 44//44 58//58 46//46
f 45//45 22//22 52//52
f 46//46 58//58 59//59
f 40//40 47//47 57//57
f 19//19 26//26 52//52
f 46//46 59//59 41//41
f 60//60 41//41 59//59
f 41//41 60//60 50//50
f 61//61 53//53 42//42
f 42//42 32//32 61//61
f 62//62 55//55 29//29
f 62//62 63//63 55//55
f 62//62 29//29 64//64
f 29//29 43//43 64//64
f 45//45 64//64 43//43
f 36//36 58//58 44//44
f 58//58 36//36 57//57
f 35//35 56//56 51//51
f 58//58 57//57 59//59
f 52//52 26//26 65//65
f 26//26 49//49 65//65
f 66//66 50//50 60//60
f 67//67 47//47 53//53
f 68//68 50//50 66//66
f 50//50 68//68 54//54
f 53//53 61//61 67//67
f 55//55 69//69 34//34
f 57//57 47//47 70//70
f 59//59 57//57 70//70
f 59//59 70//70 60//60
f 66//66 60//60 70//70
f 70//70 47//47 71//71
f 65//65 49//49 72//72
f 47//47 67//67 71//71
f 51//51 61//61 32//32
f 49//49 54//54 72//72
f 34//34 69//69 56//56
f 64//64 45//45 73//73
f 45//45 52//52 73//73
f 51//51 56//56 74//74
f 56//56 75//75 74//74
f 52//52 65//65 76//76
f 70//70 71//71 66//66
f 71//71 77//77 78//78
f 71//71 67//67 77//77
f 68//68 66//66 77//77
f 77//77 67//67 68//68
f 79//79 72//72 54//54
f 79//79 54//54 68//68
f 68//68 67//67 79//79
f 67//67 61//61 79//79
f 80//80 55//55 63//63
f 62//62 64//64 81//81
f 73//73 81//81 64//64
f 69//69 82//82 56//56
f 56//56 82//82 75//75
f 83//83 84//84 85//85
f 65//65 83//83 76//76
f 75//75 78//78 74//74
f 71//71 85//85 84//84
f 85//85 71//71 78//78
f 74//74 86//86 51//51
f 83//83 65//65 84//84
f 84//84 72//72 66//66
f 84//84 66//66 71//71
f 65//65 72//72 84//84
f 51//51 86//86 61//61
f 78//78 77//77 86//86
f 79//79 66//66 72//72
f 66//66 79//79 77//77
f 77//77 79//79 86//86
f 86//86 79//79 61//61
f 55//55 80//80 69//69
f 76//76 83//83 87//87
f 83//83 85//85 87//87
f 73//73 52//52 76//76
f 86//86 74//74 78//78
f 62//62 81//81 88//88
f 62//62 88//88 63//63
f 76//76 89//89 90//90
f 89//89 76//76 87//87
f 85//85 75//75 82//82
f 73//73 76//76 91//91
f 85//85 78//78 75//75
f 88//88 80//80 63//63
f 73//73 92//92 81//81
f 93//93 90//90 89//89
f 73//73 91//91 94//94
f 90//90 91//91 76//76
f 88//88 81//81 95//95
f 96//96 69//69 80//80
f 69//69 96//96 82//82
f 94//94 92//92 73//73
f 97//97 89//89 87//87
f 87//87 85//85 82//82
f 81//81 98//98 95//95
f 97//97 82//82 96//96
f 97//97 87//87 82//82
f 93//93 99//99 90//90
f 88//88 95//95 100//100
f 80//80 88//88 101//101
f 101//101 102//102 80//80
f 80//80 102//102 96//96
f 81//81 92//92 98//98
f 97//97 96//96 102//102
f 89//89 103//103 93//93
f 99//99 93//93 103//103
f 90//90 99//99 91//91
f 88//88 100//100 101//101
f 92//92 104//104 98//98
f 105//105 97//97 102//102
f 97//97 105//105 89//89
f 89//89 105//105 103//103
f 99//99 92//92 94//94
f 91//91 99//99 94//94
f 99//99 104//104 92//92
f 104//104 99//99 106//106
f 100//100 95//95 107//107
f 95//95 98//98 107//107
f 102//102 108//108 105//105
f 103//103 106//106 99//99
f 100//100 109//109 101//101
f 101//101 109//109 102//102
f 110//110 102//102 109//109
f 102//102 110//110 108//108
f 98//98 104//104 111//111
f 111//111 104//104 112//112
f 103//103 105//105 113//113
f 105//105 108//108 113//113
f 104//104 106//106 112//112
f 103//103 111//111 106//106
f 114//114 111//111 103//103
f 114//114 103//103 115//115
f 116//116 108//108 110//110
f 103//103 113//113 115//115
f 108//108 116//116 113//113
f 112//112 106//106 111//111
f 100//100 117//117 109//109
f 118//118 107//107 98//98
f 119//119 98//98 112//112
f 111//111 112//112 98//98
f 120//120 112//112 111//111
f 100//100 121//121 117//117
f 100//100 107//107 121//121
f 122//122 109//109 117//117
f 109//109 122//122 110//110
f 98//98 119//119 118//118
f 114//114 120//120 111//111
f 114//114 115//115 120//120
f 115//115 113//113 116//116
f 116//116 110//110 122//122
f 121//121 107//107 118//118
f 119//119 123//123 118//118
f 120//120 124//124 112//112
f 119//119 124//124 123//123
f 119//119 112//112 124//124
f 123//123 124//124 125//125
f 118//118 126//126 121//121
f 116//116 122//122 127//127
f 118//118 123//123 128//128
f 127//127 115//115 116//116
f 120//120 115//115 129//129
f 130//130 124//124 120//120
f 118//118 128//128 131//131
f 129//129 115//115 127//127
f 130//130 120//120 131//131
f 132//132 128//128 123//123
f 123//123 125//125 132//132
f 133//133 132//132 125//125
f 125//125 124//124 133//133
f 121//121 134//134 117//117
f 117//117 134//134 135//135
f 117//117 135//135 122//122
f 127//127 122//122 135//135
f 118//118 136//136 126//126
f 118//118 131//131 136//136
f 120//120 129//129 137//137
f 120//120 137//137 131//131
f 131//131 128//128 130//130
f 132//132 133//133 138//138
f 124//124 128//128 133//133
f 128//128 124//124 130//130
f 121//121 139//139 134//134
f 127//127 135//135 140//140
f 141//141 126//126 136//136
f 138//138 142//142 132//132
f 132//132 142//142 128//128
f 143//143 128//128 142//142
f 133//133 128//128 143//143
f 138//138 133//133 144//144
f 121//121 126//126 139//139
f 129//129 127//127 140//140
f 142//142 141//141 143//143
f 141//141 136//136 143//143
f 142//142 138//138 145//145
f 134//134 146//146 135//135
f 126//126 141//141 139//139
f 129//129 140//140 137//137
f 142//142 145//145 147//147
f 142//142 147//147 141//141
f 136//136 131//131 137//137
f 143//143 144//144 133//133
f 143//143 148//148 144//144
f 145//145 138//138 149//149
f 138//138 144//144 149//149
f 135//135 146//146 140//140
f 141//141 147//147 139//139
f 148//148 143//143 136//136
f 137//137 148//148 136//136
f 134//134 139//139 150//150
f 146//146 134//134 150//150
f 140//140 146//146 151//151
f 151//151 152//152 140//140
f 137//137 140//140 152//152
f 145//145 149//149 153//153
f 154//154 153//153 149//149
f 155//155 146//146 150//150
f 139//139 156//156 150//150
f 155//155 150//150 156//156
f 151//151 146//146 155//155
f 148//148 137//137 157//157
f 152//152 158//158 137//137
f 153//153 147//147 145//145
f 137//137 158//158 157//157
f 148//148 159//159 144//144
f 144//144 154//154 149//149
f 139//139 160//160 156//156
f 160//160 139//139 147//147
f 161//161 147//147 153//153
f 144//144 159//159 162//162
f 154//154 144//144 162//162
f 151//151 155//155 163//163
f 148//148 157//157 159//159
f 164//164 156//156 160//160
f 160//160 147//147 165//165
f 152//152 151//151 166//166
f 157//157 167//167 159//159
f 157//157 158//158 167//167
f 158//158 152//152 166//166
f 153//153 154//154 161//161
f 156//156 163//163 155//155
f 156//156 164//164 163//163
f 166//166 151//151 163//163
f 168//168 160//160 165//165
f 165//165 147//147 161//161
f 167//167 158//158 169//169
f 158//158 166//166 169//169
f 170//170 162//162 159//159
f 171//171 154//154 162//162
f 170//170 171//171 162//162
f 172//172 169//169 166//166
f 154//154 171//171 161//161
f 164//164 173//173 163//163
f 160//160 168//168 164//164
f 163//163 172//172 166//166
f 161//161 171//171 165//165
f 159//159 167//167 170//170
f 163//163 173//173 172//172
f 167//167 169//169 170//170
f 174//174 170//170 169//169
f 173//173 164//164 175//175
f 164//164 168//168 175//175
f 176//176 169//169 172//172
f 177//177 171//171 170//170
f 173//173 178//178 172//172
f 179//179 168//168 165//165
f 180//180 165//165 171//171
f 174//174 169//169 176//176
f 175//175 178//178 173//173
f 168//168 181//181 175//175
f 179//179 181//181 168//168
f 178//178 182//182 172//172
f 172//172 182//182 176//176
f 171//171 183//183 180//180
f 171//171 177//177 183//183
f 170//170 174//174 177//177
f 184//184 174//174 176//176
f 176//176 182//182 184//184
f 174//174 184//184 185//185
f 177//177 186//186 187//187
f 177//177 174//174 186//186
f 174//174 185//185 186//186
f 180//180 179//179 165//165
f 188//188 180//180 183//183
f 183//183 177//177 187//187
f 183//183 187//187 188//188
f 189//189 188//188 187//187
f 187//187 190//190 189//189
f 187//187 186//186 191//191
f 190//190 187//187 191//191
f 192//192 191//191 186//186
f 190//190 191//191 193//193
f 175//175 194//194 178//178
f 184//184 195//195 185//185
f 186//186 185//185 196//196
f 186//186 196//196 192//192
f 193//193 197//197 190//190
f 191//191 192//192 193//193
f 194//194 175//175 181//181
f 178//178 194//194 182//182
f 195//195 184//184 182//182
f 198//198 185//185 195//195
f 185//185 198//198 196//196
f 193//193 192//192 199//199
f 180//180 188//188 200//200
f 180//180 200//200 179//179
f 189//189 201//201 188//188
f 189//189 190//190 201//201
f 196//196 202//202 192//192
f 197//197 193//193 203//203
f 192//192 202//202 199//199
f 193//193 199//199 203//203
f 195//195 182//182 204//204
f 188//188 205//205 200//200
f 188//188 201//201 205//205
f 204//204 198//198 195//195
f 198//198 206//206 196//196
f 190//190 197//197 201//201
f 196//196 206//206 202//202
f 204//204 182//182 207//207
f 179//179 208//208 181//181
f 208//208 179//179 200//200
f 202//202 209//209 199//199
f 209//209 210//210 199//199
f 210//210 203//203 199//199
f 181//181 211//211 194//194
f 194//194 211//211 207//207
f 194//194 207//207 182//182
f 198//198 204//204 212//212
f 212//212 206//206 198//198
f 197//197 213//213 201//201
f 197//197 203//203 213//213
f 206//206 209//209 202//202
f 181//181 208//208 211//211
f 205//205 214//214 200//200
f 206//206 212//212 209//209
f 200//200 214//214 208//208
f 204//204 207//207 215//215
f 212//212 204//204 215//215
f 201//201 213//213 216//216
f 212//212 217//217 209//209
f 213//213 203//203 218//218
f 203//203 210//210 218//218
f 207//207 211//211 208//208
f 207//207 208//208 219//219
f 215//215 207//207 219//219
f 205//205 201//201 216//216
f 220//220 212//212 215//215
f 217//217 212//212 220//220
f 213//213 218//218 221//221
f 222//222 209//209 217//217
f 209//209 222//222 210//210
f 223//223 208//208 214//214
f 213//213 221//221 216//216
f 218//218 210//210 222//222
f 208//208 223//223 219//219
f 215//215 219//219 224//224
f 215//215 224//224 220//220
f 225//225 214//214 205//205
f 225//225 205//205 216//216
f 217//217 220//220 226//226
f 217//217 226//226 222//222
f 223//223 227//227 219//219
f 228//228 225//225 216//216
f 220//220 224//224 226//226
f 216//216 221//221 228//228
f 221//221 218//218 229//229
f 218//218 222//222 226//226
f 218//218 226//226 230//230
f 224//224 219//219 227//227
f 231//231 223//223 214//214
f 214//214 228//228 231//231
f 225//225 228//228 214//214
f 226//226 224//224 232//232
f 230//230 229//229 218//218
f 223//223 233//233 227//227
f 223//223 231//231 233//233
f 227//227 234//234 224//224
f 227//227 233//233 234//234
f 228//228 221//221 229//229
f 232//232 230//230 226//226
f 224//224 234//234 235//235
f 224//224 235//235 232//232
f 232//232 235//235 236//236
f 237//237 234//234 233//233
f 237//237 233//233 231//231
f 228//228 238//238 231//231
f 228//228 229//229 238//238
f 230//230 232//232 239//239
f 236//236 239//239 232//232
f 234//234 237//237 240//240
f 238//238 241//241 231//231
f 238//238 229//229 242//242
f 229//229 230//230 242//242
f 230//230 239//239 242//242
f 237//237 243//243 240//240
f 241//241 237//237 231//231
f 234//234 240//240 235//235
f 236//236 244//244 239//239
f 245//245 237//237 241//241
f 246//246 241//241 238//238
f 238//238 242//242 246//246
f 235//235 247//247 236//236
f 242//242 239//239 246//246
f 236//236 247//247 244//244
f 239//239 244//244 248//248
f 237//237 245//245 243//243
f 240//240 243//243 249//249
f 247//247 235//235 240//240
f 248//248 246//246 239//239
f 247//247 250//250 244//244
f 244//244 251//251 248//248
f 249//249 243//243 245//245
f 245//245 241//241 252//252
f 241//241 246//246 252//252
f 240//240 249//249 247//247
f 253//253 248//248 251//251
f 244//244 250//250 251//251
f 250//250 254//254 251//251
f 254//254 253//253 251//251
f 255//255 247//247 249//249
f 250//250 247//247 255//255
f 246//246 248//248 256//256
f 248//248 253//253 256//256
f 257//257 253//253 254//254
f 249//249 245//245 258//258
f 245//245 252//252 258//258
f 246//246 256//256 252//252
f 249//249 258//258 255//255
f 250//250 255//255 254//254
f 254//254 255//255 257//257
f 257//257 256//256 253//253
f 252//252 256//256 258//258
f 258//258 256//256 255//255
f 256//256 257//257 255//255
f 259//259 260//260 261//261
f 262//262 259//259 261//261
f 261//261 260//260 263//263
f 260//260 264//264 263//263
f 265//265 259//259 262//262
f 266//266 262//262 261//261
f 261//261 263//263 267//267
f 259//259 265//265 260//260
f 268//268 260//260 265//265
f 266//266 261//261 269//269
f 261//261 267//267 269//269
f 262//262 270//270 265//265
f 260//260 268//268 264//264
f 265//265 270//270 271//271
f 265//265 271//271 268//268
f 269//269 272//272 266//266
f 263//263 264//264 273//273
f 267//267 263//263 274//274
f 269//269 267//267 274//274
f 262//262 266//266 270//270
f 275//275 270//270 266//266
f 273//273 274//274 263//263
f 276//276 273//273 264//264
f 269//269 277//277 272//272
f 269//269 274//274 277//277
f 270//270 278//278 271//271
f 278//278 279//279 271//271
f 271//271 280//280 268//268
f 281//281 268//268 280//280
f 268//268 281//281 264//264
f 264//264 281//281 276//276
f 272//272 282//282 266//266
f 270//270 283//283 278//278
f 271//271 279//279 280//280
f 283//283 270//270 275//275
f 272//272 277//277 284//284
f 285//285 277//277 274//274
f 286//286 287//287 288//288
f 289//289 290//290 286//286
f 266//266 282//282 275//275
f 290//290 287//287 286//286
f 290//290 291//291 287//287
f 284//284 282//282 272//272
f 274//274 273//273 285//285
f 292//292 284//284 277//277
f 277//277 285//285 292//292
f 278//278 293//293 279//279
f 279//279 293//293 294//294
f 279//279 294//294 280//280
f 286//286 288//288 289//289
f 290//290 289//289 295//295
f 281//281 287//287 276//276
f 273//273 276//276 287//287
f 285//285 273//273 296//296
f 297//297 293//293 278//278
f 278//278 283//283 297//297
f 298//298 281//281 280//280
f 288//288 287//287 299//299
f 289//289 300//300 295//295
f 273//273 287//287 291//291
f 290//290 295//295 291//291
f 301//301 291//291 295//295
f 282//282 284//284 302//302
f 291//291 301//301 296//296
f 291//291 296//296 273//273
f 303//303 285//285 296//296
f 303//303 292//292 285//285
f 275//275 304//304 283//283
f 294//294 298//298 280//280
f 288//288 305//305 289//289
f 299//299 305//305 288//288
f 306//306 281//281 298//298
f 282//282 302//302 301//301
f 302//302 307//307 301//301
f 301//301 307//307 296//296
f 284//284 292//292 302//302
f 292//292 303//303 302//302
f 297//297 294//294 293//293
f 297//297 283//283 304//304
f 289//289 305//305 300//300
f 281//281 306//306 299//299
f 299//299 287//287 281//281
f 295//295 275//275 282//282
f 282//282 301//301 295//295
f 307//307 303//303 296//296
f 302//302 303//303 307//307
f 297//297 308//308 294//294
f 309//309 297//297 304//304
f 304//304 310//310 311//311
f 304//304 275//275 310//310
f 310//310 300//300 305//305
f 298//298 312//312 306//306
f 275//275 295//295 310//310
f 295//295 300//300 310//310
f 308//308 313//313 294//294
f 309//309 308//308 297//297
f 313//313 314//314 294//294
f 294//294 314//314 298//298
f 298//298 314//314 312//312
f 305//305 299//299 315//315
f 306//306 315//315 299//299
f 316//316 310//310 305//305
f 306//306 312//312 317//317
f 304//304 318//318 309//309
f 315//315 306//306 317//317
f 313//313 308//308 319//319
f 304//304 320//320 318//318
f 304//304 311//311 320//320
f 315//315 317//317 321//321
f 314//314 322//322 312//312
f 305//305 315//315 316//316
f 316//316 311//311 310//310
f 319//319 308//308 323//323
f 308//308 318//318 323//323
f 319//319 324//324 313//313
f 313//313 324//324 314//314
f 309//309 318//318 308//308
f 315//315 321//321 325//325
f 316//316 315//315 325//325
f 326//326 312//312 322//322
f 317//317 326//326 321//321
f 312//312 326//326 317//317
f 311//311 316//316 320//320
f 321//321 326//326 327//327
f 325//325 320//320 316//316
f 327//327 325//325 321//321
f 322//322 328//328 326//326
f 319//319 323//323 324//324
f 324//324 329//329 314//314
f 329//329 330//330 314//314
f 318//318 320//320 331//331
f 314//314 330//330 328//328
f 322//322 314//314 328//328
f 328//328 327//327 326//326
f 332//332 323//323 318//318
f 324//324 333//333 329//329
f 318//318 331//331 334//334
f 325//325 331//331 320//320
f 325//325 327//327 335//335
f 336//336 333//333 324//324
f 334//334 332//332 318//318
f 335//335 331//331 325//325
f 337//337 328//328 330//330
f 338//338 324//324 323//323
f 335//335 334//334 331//331
f 337//337 335//335 327//327
f 327//327 328//328 337//337
f 339//339 337//337 330//330
f 338//338 323//323 332//332
f 338//338 336//336 324//324
f 329//329 333//333 340//340
f 330//330 329//329 340//340
f 330//330 340//340 339//339
f 338//338 332//332 341//341
f 332//332 334//334 341//341
f 342//342 335//335 337//337
f 338//338 343//343 336//336
f 335//335 341//341 334//334
f 344//344 340//340 333//333
f 345//345 342//342 337//337
f 339//339 345//345 337//337
f 340//340 344//344 339//339
f 341//341 346//346 338//338
f 342//342 347//347 335//335
f 333//333 348//348 344//344
f 339//339 344//344 349//349
f 346//346 343//343 338//338
f 336//336 350//350 333//333
f 341//341 335//335 347//347
f 345//345 339//339 349//349
f 344//344 351//351 349//349
f 348//348 333//333 350//350
f 341//341 347//347 352//352
f 342//342 345//345 353//353
f 353//353 345//345 354//354
f 355//355 344//344 348//348
f 345//345 349//349 354//354
f 344//344 355//355 351//351
f 346//346 356//356 343//343
f 343//343 356//356 357//357
f 343//343 357//357 336//336
f 352//352 346//346 341//341
f 346//346 352//352 356//356
f 336//336 357//357 350//350
f 348//348 358//358 355//355
f 349//349 351//351 359//359
f 354//354 348//348 350//350
f 360//360 348//348 354//354
f 348//348 360//360 358//358
f 354//354 349//349 359//359
f 355//355 361//361 351//351
f 350//350 360//360 353//353
f 350//350 353//353 354//354
f 347//347 342//342 362//362
f 342//342 353//353 362//362
f 351//351 361//361 359//359
f 357//357 360//360 350//350
f 362//362 352//352 347//347
f 360//360 354//354 353//353
f 363//363 356//356 364//364
f 356//356 363//363 357//357
f 356//356 352//352 364//364
f 357//357 365//365 360//360
f 360//360 365//365 358//358
f 353//353 354//354 366//366
f 354//354 359//359 366//366
f 367//367 355//355 358//358
f 355//355 367//367 361//361
f 359//359 361//361 368//368
f 357//357 363//363 365//365
f 352//352 362//362 369//369
f 362//362 353//353 370//370
f 366//366 359//359 371//371
f 364//364 352//352 369//369
f 372//372 365//365 363//363
f 370//370 369//369 362//362
f 365//365 373//373 358//358
f 353//353 366//366 370//370
f 366//366 371//371 373//373
f 358//358 373//373 374//374
f 359//359 368//368 371//371
f 358//358 374//374 367//367
f 375//375 365//365 372//372
f 375//375 366//366 365//365
f 373//373 365//365 366//366
f 373//373 371//371 376//376
f 373//373 376//376 374//374
f 377//377 371//371 368//368
f 378//378 377//377 368//368
f 361//361 367//367 378//378
f 368//368 361//361 378//378
f 379//379 363//363 364//364
f 363//363 379//379 372//372
f 369//369 370//370 380//380
f 370//370 366//366 381//381
f 366//366 375//375 381//381
f 376//376 382//382 374//374
f 370//370 381//381 380//380
f 377//377 376//376 371//371
f 364//364 369//369 379//379
f 383//383 375//375 372//372
f 375//375 383//383 376//376
f 383//383 382//382 376//376
f 375//375 376//376 381//381
f 384//384 377//377 378//378
f 369//369 380//380 385//385
f 376//376 377//377 381//381
f 386//386 367//367 374//374
f 367//367 386//386 378//378
f 386//386 384//384 378//378
f 379//379 369//369 387//387
f 372//372 379//379 388//388
f 383//383 389//389 382//382
f 382//382 389//389 374//374
f 388//388 379//379 387//387
f 385//385 387//387 369//369
f 372//372 388//388 383//383
f 389//389 390//390 374//374
f 374//374 390//390 386//386
f 381//381 377//377 391//391
f 377//377 384//384 391//391
f 388//388 389//389 383//383
f 380//380 381//381 392//392
f 386//386 390//390 393//393
f 392//392 381//381 391//391
f 393//393 384//384 386//386
f 394//394 384//384 393//393
f 388//388 395//395 389//389
f 387//387 396//396 388//388
f 387//387 385//385 396//396
f 385//385 380//380 396//396
f 380//380 392//392 396//396
f 396//396 395//395 388//388
f 395//395 397//397 389//389
f 398//398 396//396 392//392
f 389//389 397//397 390//390
f 392//392 391//391 399//399
f 392//392 399//399 398//398
f 391//391 384//384 400//400
f 384//384 394//394 400//400
f 400//400 394//394 401//401
f 396//396 398//398 402//402
f 397//397 403//403 390//390
f 390//390 403//403 393//393
f 393//393 403//403 394//394
f 396//396 402//402 395//395
f 403//403 404//404 394//394
f 405//405 398//398 399//399
f 401//401 394//394 404//404
f 406//406 395//395 402//402
f 406//406 397//397 395//395
f 407//407 399//399 391//391
f 407//407 405//405 399//399
f 391//391 400//400 407//407
f 397//397 408//408 403//403
f 398//398 405//405 409//409
f 400//400 401//401 407//407
f 401//401 404//404 410//410
f 402//402 398//398 411//411
f 412//412 397//397 406//406
f 398//398 409//409 411//411
f 408//408 397//397 412//412
f 413//413 410//410 404//404
f 407//407 414//414 405//405
f 407//407 401//401 415//415
f 401//401 410//410 415//415
f 416//416 417//417 418//418
f 419//419 418//418 417//417
f 420//420 421//421 418//418
f 402//402 411//411 406//406
f 403//403 422//422 404//404
f 407//407 415//415 416//416
f 417//417 415//415 410//410
f 410//410 413//413 417//417
f 407//407 416//416 414//414
f 417//417 416//416 415//415
f 416//416 421//421 414//414
f 421//421 416//416 418//418
f 417//417 423//423 419//419
f 418//418 419//419 420//420
f 406//406 411//411 424//424
f 406//406 424//424 412//412
f 411//411 409//409 424//424
f 425//425 424//424 409//409
f 409//409 405//405 425//425
f 404//404 422//422 413//413
f 426//426 413//413 422//422
f 405//405 414//414 425//425
f 427//427 425//425 414//414
f 413//413 426//426 423//423
f 417//417 413//413 423//423
f 422//422 403//403 408//408
f 414//414 421//421 420//420
f 428//428 420//420 419//419
f 429//429 424//424 425//425
f 430//430 408//408 412//412
f 431//431 429//429 425//425
f 425//425 427//427 431//431
f 432//432 423//423 426//426
f 427//427 414//414 433//433
f 434//434 423//423 432//432
f 423//423 434//434 419//419
f 414//414 420//420 433//433
f 419//419 434//434 435//435
f 435//435 428//428 419//419
f 408//408 430//430 422//422
f 433//433 420//420 436//436
f 424//424 429//429 412//412
f 429//429 430//430 412//412
f 427//427 433//433 437//437
f 436//436 420//420 428//428
f 436//436 428//428 438//438
f 437//437 431//431 427//427
f 430//430 439//439 422//422
f 422//422 439//439 426//426
f 426//426 439//439 432//432
f 433//433 440//440 437//437
f 428//428 435//435 441//441
f 432//432 442//442 434//434
f 433//433 436//436 443//443
f 436//436 438//438 443//443
f 441//441 438//438 428//428
f 429//429 431//431 444//444
f 431//431 437//437 444//444
f 430//430 445//445 439//439
f 440//440 433//433 443//443
f 442//442 446//446 434//434
f 441//441 435//435 446//446
f 435//435 434//434 446//446
f 444//444 430//430 429//429
f 447//447 439//439 445//445
f 432//432 439//439 447//447
f 447//447 442//442 432//432
f 441//441 446//446 448//448
f 444//444 449//449 430//430
f 444//444 437//437 450//450
f 430//430 449//449 445//445
f 437//437 440//440 450//450
f 443//443 438//438 448//448
f 448//448 438//438 441//441
f 445//445 451//451 447//447
f 440//440 443//443 450//450
f 446//446 452//452 448//448
f 444//444 450//450 453//453
f 451//451 445//445 449//449
f 442//442 447//447 451//451
f 442//442 451//451 452//452
f 446//446 442//442 452//452
f 450//450 443//443 454//454
f 444//444 453//453 449//449
f 449//449 453//453 451//451
f 454//454 443//443 448//448
f 454//454 448//448 455//455
f 456//456 453//453 450//450
f 454//454 456//456 450//450
f 456//456 454//454 455//455
f 452//452 455//455 448//448
f 453//453 457//457 451//451
f 457//457 452//452 451//451
f 456//456 455//455 458//458
f 453//453 456//456 457//457
f 456//456 458//458 457//457
f 455//455 457//457 458//458
f 457//457 455//455 452//452
f 459//459 460//460 461//461
f 462//462 460//460 463//463
f 462//462 461//461 460//460
f 460//460 459//459 463//463
f 463//463 464//464 462//462
f 461//461 462//462 465//465
f 463//463 459//459 466//466
f 461//461 467//467 459//459
f 467//467 461//461 468//468
f 465//465 468//468 461//461
f 464//464 465//465 462//462
f 459//459 467//467 466//466
f 466//466 464//464 463//463
f 467//467 468//468 469//469
f 468//468 465//465 469//469
f 469//469 466//466 467//467
f 469//469 464//464 466//466
f 465//465 464//464 469//469
# 948 faces, 0 coords texture

# End of File
