####
#
# OBJ File Generated by Meshlab
#
####
# Object CC_Mid_Anterior-resize.obj
#
# Vertices: 31
# Faces: 58
#
####
vn -2.543464 -3.550579 -0.422463
v -2.564828 6.150625 0.891671 0.752941 0.752941 0.752941
vn 2.337373 -4.074587 0.644783
v 0.272979 6.091102 1.754100 0.752941 0.752941 0.752941
vn 1.137512 -1.205309 2.465797
v -0.053208 7.126952 4.807050 0.752941 0.752941 0.752941
vn -1.717358 -0.696222 2.464865
v -2.491932 7.602583 4.678152 0.752941 0.752941 0.752941
vn 1.801328 -3.141158 -1.836164
v 0.229518 6.279009 -0.607718 0.752941 0.752941 0.752941
vn -3.307872 -2.651221 -3.009891
v -2.535532 8.163826 -1.714319 0.752941 0.752941 0.752941
vn 5.373416 -0.540172 1.099625
v 1.334887 8.430012 2.053353 0.752941 0.752941 0.752941
vn -5.655187 -0.443318 0.530330
v -3.438612 8.631095 1.471111 0.752941 0.752941 0.752941
vn 5.752838 1.225630 0.403427
v 1.359841 15.666132 -3.531642 0.752941 0.752941 0.752941
vn -2.604231 -3.097760 -3.395885
v -2.085500 10.997320 -4.081216 0.752941 0.752941 0.752941
vn 2.079424 2.341491 3.918210
v 0.090732 10.234148 3.475730 0.752941 0.752941 0.752941
vn 3.973460 -2.218837 -2.741318
v 0.885900 10.400651 -2.906887 0.752941 0.752941 0.752941
vn -2.100796 -3.094847 0.904473
v -2.364527 12.484303 -11.694188 0.752941 0.752941 0.752941
vn 1.568054 -2.733077 -0.084947
v 0.062040 12.205969 -12.038390 0.752941 0.752941 0.752941
vn -3.364637 2.414833 3.633073
v -2.541820 13.519208 0.509586 0.752941 0.752941 0.752941
vn 5.374158 -1.537821 -1.602186
v 1.202601 13.612370 -4.885770 0.752941 0.752941 0.752941
vn 0.346718 -5.230162 -2.748928
v -0.697525 13.952757 -7.367689 0.752941 0.752941 0.752941
vn -1.401135 -0.280941 -1.532840
v -2.934935 13.554050 -13.803006 0.752941 0.752941 0.752941
vn 1.485673 0.388395 -1.735390
v 0.611325 14.368153 -13.753549 0.752941 0.752941 0.752941
vn -5.849165 0.034484 0.031558
v -3.437152 12.252592 -1.231749 0.752941 0.752941 0.752941
vn -4.535250 -3.628500 -1.200546
v -2.507892 14.917778 -7.626745 0.752941 0.752941 0.752941
vn 3.113216 -3.576920 1.245996
v 0.217783 14.108625 -9.814645 0.752941 0.752941 0.752941
vn -4.589558 -1.384897 0.743812
v -2.566163 14.792174 -10.165540 0.752941 0.752941 0.752941
vn 5.266286 -2.030837 -0.819560
v 0.779626 14.998379 -8.300825 0.752941 0.752941 0.752941
vn -4.995173 1.746354 -0.969727
v -2.994401 16.117767 -6.719913 0.752941 0.752941 0.752941
vn 3.587167 2.774902 -1.294520
v 0.607821 16.117556 -9.349556 0.752941 0.752941 0.752941
vn -1.987305 4.059217 -1.872096
v -1.925122 15.748619 -11.785232 0.752941 0.752941 0.752941
vn 2.597207 2.622600 3.490585
v 0.359793 14.315183 0.388395 0.752941 0.752941 0.752941
vn 2.501751 3.645199 0.909567
v 0.484360 17.669949 -3.115124 0.752941 0.752941 0.752941
vn -1.738057 2.654823 1.236399
v -2.657619 17.827244 -2.088407 0.752941 0.752941 0.752941
vn -1.025767 5.379328 -1.335611
v -1.458992 17.324215 -6.765729 0.752941 0.752941 0.752941
# 31 vertices, 0 vertices normals

f 2//2 3//3 1//1
f 2//2 5//5 7//7
f 1//1 5//5 2//2
f 7//7 3//3 2//2
f 1//1 3//3 4//4
f 4//4 8//8 1//1
f 5//5 1//1 6//6
f 1//1 8//8 6//6
f 3//3 7//7 11//11
f 7//7 5//5 12//12
f 3//3 11//11 4//4
f 5//5 10//10 12//12
f 5//5 6//6 10//10
f 7//7 12//12 9//9
f 20//20 6//6 8//8
f 28//28 11//11 7//7
f 15//15 8//8 4//4
f 6//6 20//20 10//10
f 15//15 4//4 11//11
f 8//8 15//15 20//20
f 7//7 9//9 28//28
f 12//12 16//16 9//9
f 10//10 20//20 21//21
f 14//14 22//22 13//13
f 14//14 13//13 18//18
f 11//11 28//28 15//15
f 17//17 16//16 12//12
f 12//12 10//10 17//17
f 10//10 21//21 17//17
f 23//23 13//13 22//22
f 22//22 14//14 19//19
f 13//13 23//23 18//18
f 18//18 19//19 14//14
f 20//20 25//25 21//21
f 16//16 17//17 24//24
f 22//22 19//19 26//26
f 30//30 20//20 15//15
f 25//25 20//20 30//30
f 24//24 9//9 16//16
f 22//22 24//24 17//17
f 17//17 21//21 22//22
f 24//24 22//22 26//26
f 22//22 21//21 23//23
f 23//23 27//27 18//18
f 28//28 30//30 15//15
f 26//26 9//9 24//24
f 21//21 25//25 23//23
f 27//27 23//23 25//25
f 26//26 19//19 27//27
f 27//27 19//19 18//18
f 28//28 9//9 29//29
f 30//30 28//28 29//29
f 9//9 26//26 29//29
f 26//26 27//27 31//31
f 31//31 27//27 25//25
f 29//29 26//26 31//31
f 31//31 25//25 30//30
f 29//29 31//31 30//30
# 58 faces, 0 coords texture

# End of File
