####
#
# OBJ File Generated by Meshlab
#
####
# Object Hippocampus-resize-v2.obj
#
# Vertices: 351
# Faces: 694
#
####
mtllib ./Hippocampus-resize-v2.obj.mtl

vn 0.304439 -4.976351 1.822568
v -19.613642 -42.946285 -7.909821 0.752941 0.752941 0.752941
vn 2.166143 -4.833996 -0.527649
v -17.137093 -42.350372 -8.353091 0.752941 0.752941 0.752941
vn -0.023400 -3.126206 4.776364
v -18.935379 -41.808128 -6.704533 0.752941 0.752941 0.752941
vn -2.266838 -3.596165 3.653374
v -23.199085 -41.773270 -7.590445 0.752941 0.752941 0.752941
vn -1.348238 -5.389363 0.250511
v -22.617256 -42.967766 -9.697215 0.752941 0.752941 0.752941
vn -2.951510 -4.918287 0.164427
v -25.528193 -41.651630 -10.914376 0.752941 0.752941 0.752941
vn 1.253968 -4.960652 -2.450558
v -20.755295 -42.678703 -11.049610 0.752941 0.752941 0.752941
vn -1.070233 -5.342537 -2.686326
v -23.962898 -41.659142 -12.654659 0.752941 0.752941 0.752941
vn 1.747173 -3.460465 2.857476
v -16.583611 -41.744453 -6.720488 0.752941 0.752941 0.752941
vn 0.766907 -0.201844 5.453931
v -16.520292 -39.989529 -6.068325 0.752941 0.752941 0.752941
vn -4.085725 -2.999589 3.224966
v -26.217291 -40.285828 -9.465833 0.752941 0.752941 0.752941
vn -2.255995 0.389744 4.152362
v -23.725645 -37.786541 -5.870999 0.752941 0.752941 0.752941
vn 3.538161 -3.940213 -1.099937
v -13.358911 -39.241646 -9.964239 0.752941 0.752941 0.752941
vn 2.640433 -3.943355 -4.067183
v -17.890240 -38.930809 -12.498590 0.752941 0.752941 0.752941
vn 0.496572 -4.856424 -3.824512
v -23.817865 -38.375271 -17.354362 0.752941 0.752941 0.752941
vn 0.779515 0.626069 6.035203
v -19.564875 -39.153946 -6.456987 0.752941 0.752941 0.752941
vn -3.401969 -4.020973 2.217397
v -28.580210 -39.314976 -11.911019 0.752941 0.752941 0.752941
vn -2.323048 -5.351089 -2.131500
v -27.285273 -39.736649 -13.908576 0.752941 0.752941 0.752941
vn -1.335276 -5.124072 -3.255253
v -26.417072 -38.214523 -17.261087 0.752941 0.752941 0.752941
vn 3.040838 -0.093183 2.537102
v -13.509672 -38.507893 -7.056687 0.752941 0.752941 0.752941
vn 0.492619 1.531128 2.177272
v -21.468700 -36.507381 -5.325864 0.752941 0.752941 0.752941
vn 2.771567 -0.315608 -1.065717
v -12.456650 -37.996071 -11.151250 0.752941 0.752941 0.752941
vn -3.694035 -0.941727 4.718329
v -26.284184 -38.005154 -8.610503 0.752941 0.752941 0.752941
vn -2.737564 -2.339198 1.005902
v -30.575701 -38.899792 -12.829110 0.752941 0.752941 0.752941
vn 2.405489 -3.971369 -3.958087
v -22.392714 -37.459045 -17.952520 0.752941 0.752941 0.752941
vn 1.372579 3.445358 3.158133
v -14.555197 -37.078346 -7.259006 0.752941 0.752941 0.752941
vn 3.185685 4.590555 1.886349
v -20.394949 -37.001194 -6.901613 0.752941 0.752941 0.752941
vn 0.384582 4.549455 3.984389
v -18.598272 -37.462967 -7.429593 0.752941 0.752941 0.752941
vn -3.585130 2.567856 3.229343
v -28.598942 -35.669033 -10.691858 0.752941 0.752941 0.752941
vn -4.143974 -1.702822 3.180386
v -31.511879 -36.238743 -14.464094 0.752941 0.752941 0.752941
vn -2.924664 -4.772645 -2.355954
v -30.553812 -37.220093 -16.053879 0.752941 0.752941 0.752941
vn 2.925681 -3.642845 -3.963655
v -18.779339 -36.569763 -15.021116 0.752941 0.752941 0.752941
vn -1.170135 4.645690 3.190154
v -25.183552 -36.668339 -8.491917 0.752941 0.752941 0.752941
vn 2.487445 4.591140 1.375579
v -14.159472 -36.229103 -9.628308 0.752941 0.752941 0.752941
vn -1.698701 1.209109 2.397959
v -27.993855 -36.090141 -8.786194 0.752941 0.752941 0.752941
vn 3.554093 -1.899839 -4.106941
v -15.394465 -36.291920 -13.670284 0.752941 0.752941 0.752941
vn -0.122997 -3.212977 4.480021
v -33.678310 -35.757423 -15.033845 0.752941 0.752941 0.752941
vn -2.741164 -0.273997 3.520762
v -36.901688 -35.623306 -14.986807 0.752941 0.752941 0.752941
vn -1.040316 -1.680801 0.483464
v -36.922024 -36.712440 -15.309655 0.752941 0.752941 0.752941
vn -0.939973 -5.586785 -1.416407
v -33.267921 -36.033836 -15.967781 0.752941 0.752941 0.752941
vn 0.005669 6.059144 1.454028
v -21.743099 -36.360455 -9.650302 0.752941 0.752941 0.752941
vn 0.367438 5.439870 2.891044
v -27.191940 -35.357441 -10.642053 0.752941 0.752941 0.752941
vn 0.471746 5.208302 2.768646
v -23.821486 -35.841618 -11.971199 0.752941 0.752941 0.752941
vn 0.571656 5.585896 2.694525
v -18.064507 -35.086716 -12.301682 0.752941 0.752941 0.752941
vn 3.641371 3.674865 -0.601254
v -15.242740 -35.482552 -13.222486 0.752941 0.752941 0.752941
vn -3.296258 -2.597515 -2.736031
v -37.372906 -33.817410 -18.099039 0.752941 0.752941 0.752941
vn -4.627058 0.291474 1.710981
v -37.655693 -33.503876 -16.564682 0.752941 0.752941 0.752941
vn 3.754781 -2.784509 -4.107623
v -19.441946 -34.397560 -17.839113 0.752941 0.752941 0.752941
vn 3.449079 -3.146548 -4.176404
v -22.051088 -35.354019 -19.425947 0.752941 0.752941 0.752941
vn -0.918793 -4.124350 -4.026134
v -26.952644 -35.470993 -21.228706 0.752941 0.752941 0.752941
vn 0.862685 4.447823 4.017208
v -24.350760 -34.679657 -13.363129 0.752941 0.752941 0.752941
vn -2.220442 2.837848 4.862599
v -29.994957 -33.113617 -14.082250 0.752941 0.752941 0.752941
vn 2.616595 1.354698 -0.942713
v -15.905187 -34.313320 -15.200861 0.752941 0.752941 0.752941
vn -1.783645 0.988167 5.844372
v -31.505127 -33.796349 -14.786126 0.752941 0.752941 0.752941
vn -1.304421 -4.146956 -4.481724
v -34.033169 -33.258942 -19.233713 0.752941 0.752941 0.752941
vn -2.467472 -4.342750 -3.759592
v -31.622183 -33.034767 -20.378412 0.752941 0.752941 0.752941
vn -1.671159 -4.302614 -4.118507
v -29.236027 -32.885426 -22.470201 0.752941 0.752941 0.752941
vn 2.032949 -3.272798 -4.539102
v -24.030384 -34.513512 -21.598186 0.752941 0.752941 0.752941
vn 0.739465 4.360795 4.408273
v -22.084124 -32.492519 -15.484426 0.752941 0.752941 0.752941
vn 4.735754 1.589148 -1.328934
v -18.611853 -32.837002 -17.507265 0.752941 0.752941 0.752941
vn 1.140540 -3.509072 -4.888758
v -25.470741 -32.025566 -23.568556 0.752941 0.752941 0.752941
vn 0.556050 3.399305 5.067714
v -27.367441 -32.427753 -14.452080 0.752941 0.752941 0.752941
vn 2.139046 4.881590 3.059663
v -19.977262 -32.131733 -16.359150 0.752941 0.752941 0.752941
vn -0.885080 2.751213 5.515122
v -30.967897 -30.757961 -15.449170 0.752941 0.752941 0.752941
vn -1.996074 2.004000 5.101471
v -35.375374 -32.052380 -15.415111 0.752941 0.752941 0.752941
vn 3.686889 0.907688 -0.602521
v -18.714613 -31.549076 -18.807383 0.752941 0.752941 0.752941
vn 4.177260 -2.098057 -3.992875
v -20.318989 -31.593805 -20.385868 0.752941 0.752941 0.752941
vn 2.258355 3.454935 4.629429
v -24.824240 -30.790281 -15.998240 0.752941 0.752941 0.752941
vn -2.257261 -3.738903 -4.404721
v -36.698555 -30.945745 -19.964157 0.752941 0.752941 0.752941
vn -2.350244 -4.043363 -4.037251
v -33.943020 -29.065069 -22.772469 0.752941 0.752941 0.752941
vn -2.105075 -4.108835 -3.824725
v -30.475372 -31.602160 -23.541758 0.752941 0.752941 0.752941
vn 0.192946 -4.025045 -4.709655
v -27.911972 -29.070175 -26.186810 0.752941 0.752941 0.752941
vn 1.085062 2.993181 3.890295
v -26.833563 -29.471050 -15.255431 0.752941 0.752941 0.752941
vn 2.339736 4.231565 3.939954
v -24.940559 -28.918623 -17.950796 0.752941 0.752941 0.752941
vn -5.027400 -1.647798 0.528648
v -37.921707 -30.048122 -19.652534 0.752941 0.752941 0.752941
vn 4.204067 2.653323 0.969978
v -20.246803 -29.202646 -20.510487 0.752941 0.752941 0.752941
vn -0.671023 2.814378 5.565418
v -33.793579 -28.111742 -17.401686 0.752941 0.752941 0.752941
vn -2.481204 2.433573 5.017417
v -36.028904 -27.273987 -18.175821 0.752941 0.752941 0.752941
vn -3.310836 -2.965361 -2.261959
v -38.334141 -29.168276 -21.610130 0.752941 0.752941 0.752941
vn 3.954293 -1.175568 -2.180970
v -20.692963 -28.612049 -24.063316 0.752941 0.752941 0.752941
vn -1.751521 -3.749967 -4.512057
v -30.589901 -27.683353 -26.984344 0.752941 0.752941 0.752941
vn 0.110213 3.144288 5.294251
v -29.713961 -27.987700 -17.323782 0.752941 0.752941 0.752941
vn -4.815201 1.287370 3.318425
v -37.969784 -27.378698 -19.769567 0.752941 0.752941 0.752941
vn -4.797538 -0.343749 -0.623724
v -38.870972 -27.760057 -21.683619 0.752941 0.752941 0.752941
vn -3.220742 -2.540256 -4.408769
v -37.101208 -26.118782 -24.290066 0.752941 0.752941 0.752941
vn 3.620386 3.152450 3.839165
v -24.936153 -27.155310 -19.574881 0.752941 0.752941 0.752941
vn 1.948858 1.595797 5.668061
v -26.885904 -26.864351 -18.336048 0.752941 0.752941 0.752941
vn 3.706599 -1.089372 -1.876530
v -21.087776 -27.121897 -25.776350 0.752941 0.752941 0.752941
vn 0.709588 2.840844 5.263820
v -28.402863 -23.548529 -18.796825 0.752941 0.752941 0.752941
vn 4.635117 3.323786 1.490338
v -21.309925 -26.826338 -23.581400 0.752941 0.752941 0.752941
vn -2.850217 -3.517343 -4.238558
v -34.046551 -26.508734 -25.787643 0.752941 0.752941 0.752941
vn 1.715088 -4.587272 -3.889545
v -22.996893 -25.735893 -28.053825 0.752941 0.752941 0.752941
vn -0.025342 -4.495607 -4.322050
v -26.782351 -25.666336 -28.976963 0.752941 0.752941 0.752941
vn 1.890101 1.746218 3.973469
v -26.550299 -24.357672 -18.478096 0.752941 0.752941 0.752941
vn -4.796517 2.616242 1.010541
v -37.757824 -23.686993 -22.060823 0.752941 0.752941 0.752941
vn 4.554809 0.830991 3.162973
v -22.915524 -24.881521 -24.196711 0.752941 0.752941 0.752941
vn 5.670253 1.576733 1.525782
v -21.788937 -25.305933 -26.557447 0.752941 0.752941 0.752941
vn 4.670894 -2.128605 -1.576371
v -21.544035 -24.724941 -28.228086 0.752941 0.752941 0.752941
vn -2.349572 -3.883243 -4.232712
v -31.172548 -24.477903 -29.065662 0.752941 0.752941 0.752941
vn -1.112791 3.092537 5.115319
v -32.036587 -22.361265 -19.528002 0.752941 0.752941 0.752941
vn -3.003768 3.258030 3.732494
v -36.576065 -23.711668 -20.331747 0.752941 0.752941 0.752941
vn 4.152026 0.600901 3.734616
v -24.714363 -24.284220 -22.440428 0.752941 0.752941 0.752941
vn -4.516220 0.115636 -2.694777
v -36.943638 -23.155214 -25.584257 0.752941 0.752941 0.752941
vn 4.020286 -3.075674 3.232735
v -22.731546 -23.306778 -23.290751 0.752941 0.752941 0.752941
vn 5.955244 -1.663682 -0.164832
v -21.351217 -21.970102 -27.843794 0.752941 0.752941 0.752941
vn 2.574549 -3.215944 -3.515095
v -22.768652 -23.502468 -31.388842 0.752941 0.752941 0.752941
vn 4.555090 -2.489491 -3.398401
v -21.460985 -19.427353 -31.837574 0.752941 0.752941 0.752941
vn 0.303416 -4.502260 -4.218436
v -25.390766 -23.689194 -31.545460 0.752941 0.752941 0.752941
vn -1.161187 -3.277891 -4.630186
v -29.250519 -20.756121 -34.502514 0.752941 0.752941 0.752941
vn 3.238089 0.047306 4.914028
v -25.444775 -22.513971 -21.500618 0.752941 0.752941 0.752941
vn -5.930908 -0.024848 -1.194641
v -36.554993 -21.716150 -25.600662 0.752941 0.752941 0.752941
vn -4.527494 2.988083 2.457001
v -36.238438 -21.714535 -23.061190 0.752941 0.752941 0.752941
vn -4.198125 -2.682717 -3.729029
v -35.248451 -22.103266 -27.436314 0.752941 0.752941 0.752941
vn -3.213025 -3.093899 -4.072672
v -32.359280 -19.925026 -33.321659 0.752941 0.752941 0.752941
vn 3.020417 -2.690781 -4.433709
v -23.378717 -20.089052 -33.798656 0.752941 0.752941 0.752941
vn 1.708489 1.758679 5.611780
v -26.378799 -21.441164 -21.078922 0.752941 0.752941 0.752941
vn 2.926326 -2.259528 3.321651
v -21.478971 -21.356110 -21.925529 0.752941 0.752941 0.752941
vn 4.689130 -4.085995 0.223605
v -20.639820 -21.080433 -25.467260 0.752941 0.752941 0.752941
vn -0.256721 3.255189 5.322901
v -31.233274 -19.320021 -21.554337 0.752941 0.752941 0.752941
vn 0.000144 0.231228 6.191745
v -24.775530 -20.243288 -21.418636 0.752941 0.752941 0.752941
vn -0.095881 2.783343 5.549944
v -28.284096 -18.640457 -22.088530 0.752941 0.752941 0.752941
vn -2.654587 3.099780 4.616796
v -33.284588 -17.863604 -22.948988 0.752941 0.752941 0.752941
vn 4.536088 -2.922627 2.932611
v -20.028591 -19.637180 -23.527708 0.752941 0.752941 0.752941
vn -5.186335 -2.277424 -2.252700
v -35.801365 -19.215372 -29.356426 0.752941 0.752941 0.752941
vn -3.891574 -1.263540 -4.082832
v -34.508987 -17.740427 -32.730984 0.752941 0.752941 0.752941
vn 0.640361 -2.788149 -5.232720
v -26.091652 -19.246546 -35.416874 0.752941 0.752941 0.752941
vn 1.233223 -0.643788 5.179067
v -21.909817 -18.506516 -20.978117 0.752941 0.752941 0.752941
vn -4.082076 2.869396 3.189895
v -35.872326 -18.523476 -24.409855 0.752941 0.752941 0.752941
vn -5.087425 1.119675 0.398393
v -36.935246 -19.095011 -25.919231 0.752941 0.752941 0.752941
vn 4.049007 -4.310577 -1.846065
v -20.586174 -19.431644 -30.054150 0.752941 0.752941 0.752941
vn 4.315766 -3.029549 1.828501
v -17.756800 -18.364214 -24.962675 0.752941 0.752941 0.752941
vn 3.290192 -0.608517 4.870821
v -19.525467 -15.663985 -21.861130 0.752941 0.752941 0.752941
vn 3.869564 -3.824261 -1.943038
v -16.811699 -17.004126 -29.722792 0.752941 0.752941 0.752941
vn -5.403389 2.015650 0.239749
v -36.254917 -17.422947 -27.994278 0.752941 0.752941 0.752941
vn -2.384623 2.766683 4.576544
v -24.874910 -16.210892 -22.104412 0.752941 0.752941 0.752941
vn -1.446713 2.360061 3.697808
v -22.107622 -14.158248 -21.225410 0.752941 0.752941 0.752941
vn 4.897199 -0.670434 3.421011
v -17.367682 -15.679438 -24.127741 0.752941 0.752941 0.752941
vn 5.138830 -0.302336 0.764702
v -15.156857 -14.576843 -28.210278 0.752941 0.752941 0.752941
vn -2.613724 0.730843 -1.463758
v -36.447636 -16.706148 -31.705013 0.752941 0.752941 0.752941
vn -2.690833 -1.188003 -5.141562
v -31.318123 -16.122952 -35.611198 0.752941 0.752941 0.752941
vn -0.420531 5.429910 2.850768
v -26.894243 -14.969915 -25.261332 0.752941 0.752941 0.752941
vn -0.533368 3.733164 4.056250
v -31.164835 -15.535899 -23.474569 0.752941 0.752941 0.752941
vn 0.446594 4.987586 3.177842
v -30.179718 -14.691063 -24.684151 0.752941 0.752941 0.752941
vn -2.662115 4.474286 2.379910
v -33.324253 -14.526129 -26.127455 0.752941 0.752941 0.752941
vn 3.612084 -1.145868 -2.215158
v -15.444675 -15.277609 -30.319059 0.752941 0.752941 0.752941
vn 3.611387 -2.168623 -4.600095
v -20.454069 -17.072252 -32.082279 0.752941 0.752941 0.752941
vn 3.944947 -0.668092 -4.486805
v -22.100039 -13.987775 -35.373619 0.752941 0.752941 0.752941
vn -4.229982 1.878133 -3.619454
v -32.635998 -15.850051 -34.427814 0.752941 0.752941 0.752941
vn 3.668322 -2.668808 -4.321982
v -23.956163 -15.611787 -36.316521 0.752941 0.752941 0.752941
vn -4.020420 3.659300 -2.405694
v -34.776920 -15.512642 -31.484079 0.752941 0.752941 0.752941
vn 3.748857 0.649806 -4.465613
v -18.160063 -13.930082 -31.758102 0.752941 0.752941 0.752941
vn -1.993108 1.595734 -3.286886
v -30.148960 -13.758361 -36.621029 0.752941 0.752941 0.752941
vn 0.010887 2.858918 2.449466
v -20.955448 -13.375872 -21.484419 0.752941 0.752941 0.752941
vn 2.424691 2.788757 2.594464
v -18.799587 -13.548928 -22.518429 0.752941 0.752941 0.752941
vn -2.249177 5.535787 1.554566
v -24.166660 -14.784847 -23.821049 0.752941 0.752941 0.752941
vn 4.080614 2.664475 2.489483
v -15.875539 -13.730510 -26.959637 0.752941 0.752941 0.752941
vn 1.254938 0.771213 -3.117704
v -23.782356 -13.448641 -37.746872 0.752941 0.752941 0.752941
vn -0.145263 5.960276 1.567340
v -18.957642 -13.155996 -26.303532 0.752941 0.752941 0.752941
vn -1.297994 5.514122 2.149175
v -22.896341 -14.004951 -27.354778 0.752941 0.752941 0.752941
vn 0.205883 5.598786 2.576176
v -27.236034 -13.941242 -28.310362 0.752941 0.752941 0.752941
vn -0.566620 5.913435 1.427735
v -30.512749 -12.761018 -29.943478 0.752941 0.752941 0.752941
vn -2.654025 4.200506 -0.281190
v -33.562675 -13.196357 -29.965267 0.752941 0.752941 0.752941
vn 3.406221 2.698561 -1.609341
v -15.677592 -12.906494 -29.727551 0.752941 0.752941 0.752941
vn -2.930092 5.253914 -1.290944
v -30.749512 -12.879163 -32.143257 0.752941 0.752941 0.752941
vn 2.526720 0.863366 -2.691045
v -19.645811 -12.821877 -34.319653 0.752941 0.752941 0.752941
vn 1.937160 4.676442 1.018544
v -16.655865 -12.179996 -28.500418 0.752941 0.752941 0.752941
vn -0.660823 5.817279 2.151672
v -24.637100 -12.081742 -31.189959 0.752941 0.752941 0.752941
vn 1.689269 4.755196 -2.782876
v -22.895144 -12.220583 -35.129467 0.752941 0.752941 0.752941
vn -0.253684 5.930378 1.294870
v -20.604879 -11.897572 -29.801540 0.752941 0.752941 0.752941
vn 1.906266 5.405583 -1.543270
v -18.755989 -12.104973 -30.465811 0.752941 0.752941 0.752941
vn -1.485383 5.677712 -0.303522
v -28.649418 -11.917416 -33.012047 0.752941 0.752941 0.752941
vn 1.470767 5.689006 -1.142017
v -20.426708 -11.874173 -32.754772 0.752941 0.752941 0.752941
vn -0.615422 5.224676 -2.529085
v -26.395098 -12.129725 -35.865444 0.752941 0.752941 0.752941
vn -0.098666 6.116408 -0.037554
v -24.771097 -11.652045 -33.099682 0.752941 0.752941 0.752941
vn 0.873078 -4.675227 0.730114
v 25.536327 -40.706558 -8.834103 0.752941 0.752941 0.752941
vn -0.210620 -5.658933 2.382944
v 19.761122 -38.293381 -5.507611 0.752941 0.752941 0.752941
vn -1.636991 -5.542287 -1.175670
v 23.382980 -40.111046 -10.139581 0.752941 0.752941 0.752941
vn -1.612312 -4.824294 -2.908957
v 23.504620 -39.138439 -12.570202 0.752941 0.752941 0.752941
vn 0.578656 -3.642867 4.070490
v 23.802397 -38.763748 -5.305657 0.752941 0.752941 0.752941
vn 1.976775 0.383989 3.185964
v 25.882730 -37.355709 -5.164345 0.752941 0.752941 0.752941
vn 4.014328 -3.177851 2.894546
v 28.682346 -38.507706 -9.219547 0.752941 0.752941 0.752941
vn -1.536933 -5.988777 -0.308652
v 18.848909 -38.461510 -7.377227 0.752941 0.752941 0.752941
vn 3.875737 -3.962385 0.461991
v 29.257612 -38.657818 -10.755521 0.752941 0.752941 0.752941
vn 3.950745 0.364407 2.874629
v 29.736351 -36.518345 -9.255457 0.752941 0.752941 0.752941
vn -2.669537 -5.028770 -2.542301
v 19.841202 -38.151825 -9.986166 0.752941 0.752941 0.752941
vn 1.241482 -5.583437 -2.139056
v 29.371868 -37.523361 -15.499994 0.752941 0.752941 0.752941
vn 3.709004 -4.703894 -0.016796
v 30.200480 -37.520988 -13.766166 0.752941 0.752941 0.752941
vn 0.566646 -1.028991 5.503417
v 21.531557 -37.473202 -4.682610 0.752941 0.752941 0.752941
vn -0.817659 -2.903865 2.515702
v 16.269108 -38.151966 -4.361881 0.752941 0.752941 0.752941
vn -2.612015 -2.518276 3.144218
v 14.822377 -37.249672 -4.540543 0.752941 0.752941 0.752941
vn -3.193713 -4.494650 -1.163667
v 13.557016 -36.761829 -7.902176 0.752941 0.752941 0.752941
vn 3.300113 2.890072 3.734318
v 27.092745 -36.634060 -7.245405 0.752941 0.752941 0.752941
vn 5.185317 -2.012203 2.595966
v 30.782055 -36.302494 -13.144585 0.752941 0.752941 0.752941
vn -0.155557 -5.001254 -3.563612
v 28.775244 -36.469688 -17.512955 0.752941 0.752941 0.752941
vn -2.116429 -4.357243 -3.932075
v 24.749680 -36.585045 -15.962999 0.752941 0.752941 0.752941
vn 1.968459 3.837143 4.200625
v 22.283422 -35.861824 -5.482250 0.752941 0.752941 0.752941
vn -4.754802 -2.282147 -0.075738
v 12.298635 -35.464832 -7.394553 0.752941 0.752941 0.752941
vn -1.741346 -5.156301 -3.046215
v 16.803669 -36.221420 -10.696157 0.752941 0.752941 0.752941
vn -2.035948 -4.568357 -3.690211
v 20.579170 -35.031292 -14.620802 0.752941 0.752941 0.752941
vn 3.760207 -3.983182 1.150664
v 32.386951 -36.262573 -15.518277 0.752941 0.752941 0.752941
vn 3.076658 -3.121398 -1.153281
v 33.667667 -35.465462 -17.981579 0.752941 0.752941 0.752941
vn 1.428292 2.611133 3.552837
v 17.869293 -33.755768 -4.236742 0.752941 0.752941 0.752941
vn -4.726754 0.832720 -1.553513
v 12.758965 -34.429863 -9.513206 0.752941 0.752941 0.752941
vn -3.541331 -4.393329 -1.869584
v 13.588486 -35.505104 -10.251238 0.752941 0.752941 0.752941
vn 4.013826 2.478363 3.654861
v 30.303818 -34.403847 -12.301249 0.752941 0.752941 0.752941
vn 4.174612 -0.121052 3.699502
v 32.666634 -34.321625 -14.325686 0.752941 0.752941 0.752941
vn -2.237092 1.046515 4.295397
v 14.548482 -32.508434 -4.145674 0.752941 0.752941 0.752941
vn -2.849583 1.402147 0.769526
v 11.945314 -33.390163 -6.238173 0.752941 0.752941 0.752941
vn 2.454356 4.275124 3.560171
v 28.701868 -34.994022 -9.806440 0.752941 0.752941 0.752941
vn -3.245655 -1.958571 -2.126685
v 13.621889 -34.865891 -12.332337 0.752941 0.752941 0.752941
vn -1.756886 -4.726912 -3.501097
v 16.554531 -34.053169 -14.966757 0.752941 0.752941 0.752941
vn -4.146450 -0.502491 -3.646517
v 15.023559 -33.625156 -14.205704 0.752941 0.752941 0.752941
vn 5.299363 -0.721302 2.216262
v 33.928085 -33.667095 -16.225374 0.752941 0.752941 0.752941
vn -2.388522 -4.396262 -3.608391
v 22.318705 -32.548206 -18.233149 0.752941 0.752941 0.752941
vn -2.006682 -4.485025 -3.744689
v 25.491806 -33.537102 -20.077049 0.752941 0.752941 0.752941
vn 1.493022 -4.621131 -3.815430
v 32.610657 -33.432514 -20.619793 0.752941 0.752941 0.752941
vn 4.893079 -2.893263 -1.186567
v 34.173367 -33.463909 -19.088438 0.752941 0.752941 0.752941
vn 2.065078 5.494497 1.976055
v 20.462790 -34.010269 -7.111532 0.752941 0.752941 0.752941
vn 0.924284 5.510555 2.763913
v 21.392660 -33.293655 -9.586922 0.752941 0.752941 0.752941
vn 1.204700 4.533057 4.119551
v 28.871332 -32.596169 -13.437303 0.752941 0.752941 0.752941
vn -3.391248 3.578411 -0.684239
v 14.304128 -32.625366 -12.433279 0.752941 0.752941 0.752941
vn -0.180850 -4.331526 -4.428500
v 29.157572 -30.471109 -24.405872 0.752941 0.752941 0.752941
vn -0.760941 2.171973 1.227023
v 14.626451 -31.917671 -4.286603 0.752941 0.752941 0.752941
vn 0.728842 6.189733 0.145892
v 17.422781 -33.348362 -8.134252 0.752941 0.752941 0.752941
vn -1.205814 6.008094 -1.118171
v 13.586527 -33.052563 -7.056291 0.752941 0.752941 0.752941
vn -1.470176 5.900386 0.758004
v 14.699543 -33.258934 -9.900290 0.752941 0.752941 0.752941
vn 1.522181 3.353557 4.922637
v 30.844162 -31.413824 -14.766971 0.752941 0.752941 0.752941
vn 3.774144 1.920788 4.219324
v 33.281891 -31.376747 -15.969450 0.752941 0.752941 0.752941
vn -2.578786 -0.428473 -2.738835
v 16.898647 -32.459385 -17.058041 0.752941 0.752941 0.752941
vn -1.042905 -4.182755 -4.531590
v 19.347948 -31.431398 -18.595123 0.752941 0.752941 0.752941
vn 5.425890 -0.184595 2.946175
v 34.863251 -30.632246 -18.723879 0.752941 0.752941 0.752941
vn 3.719784 -2.258593 -0.558006
v 36.321495 -30.949156 -21.607594 0.752941 0.752941 0.752941
vn -1.323219 -4.217782 -4.354274
v 26.634607 -30.266680 -24.157726 0.752941 0.752941 0.752941
vn 0.415051 4.924863 3.789912
v 23.351536 -31.077219 -13.798687 0.752941 0.752941 0.752941
vn -1.054842 5.754939 1.518381
v 16.603935 -31.961601 -12.325931 0.752941 0.752941 0.752941
vn -3.726900 4.598647 -1.030580
v 16.645159 -31.991613 -15.474657 0.752941 0.752941 0.752941
vn -1.471734 5.831910 1.552455
v 19.130415 -30.948391 -14.963706 0.752941 0.752941 0.752941
vn -1.557247 4.609551 3.770916
v 21.673674 -30.475456 -14.725118 0.752941 0.752941 0.752941
vn -0.464620 4.168829 4.508136
v 26.667160 -28.916607 -16.911482 0.752941 0.752941 0.752941
vn -3.488223 4.875866 0.859137
v 19.095432 -30.350401 -17.346123 0.752941 0.752941 0.752941
vn -4.032434 -1.582940 -2.644875
v 19.174101 -30.577993 -19.244625 0.752941 0.752941 0.752941
vn -2.125561 -4.613270 -3.655341
v 22.449501 -29.162447 -23.303644 0.752941 0.752941 0.752941
vn 1.189418 -4.326113 -4.260406
v 32.710629 -30.430794 -24.070736 0.752941 0.752941 0.752941
vn 3.635038 -2.804142 -3.309588
v 35.951389 -28.008711 -24.985682 0.752941 0.752941 0.752941
vn -0.210934 4.755763 2.745536
v 23.439619 -29.295427 -15.385657 0.752941 0.752941 0.752941
vn -2.311857 5.233433 2.365139
v 20.489529 -29.336889 -17.873405 0.752941 0.752941 0.752941
vn 4.001029 1.624969 4.288347
v 33.838787 -29.287849 -17.557842 0.752941 0.752941 0.752941
vn 0.545196 2.861785 5.412703
v 31.156635 -27.515081 -17.174721 0.752941 0.752941 0.752941
vn -1.724516 4.469340 3.822422
v 25.046701 -28.591114 -17.878101 0.752941 0.752941 0.752941
vn -3.732181 0.116055 -0.843445
v 19.482159 -28.777634 -21.328175 0.752941 0.752941 0.752941
vn 5.314304 0.727895 2.468515
v 36.377705 -26.439299 -21.150963 0.752941 0.752941 0.752941
vn -3.854852 -2.901638 -2.561679
v 20.563829 -27.754169 -24.147720 0.752941 0.752941 0.752941
vn 0.134089 -4.606939 -4.216419
v 29.750927 -26.597967 -27.626020 0.752941 0.752941 0.752941
vn -0.698286 -4.537282 -4.238132
v 26.699360 -27.249729 -26.652178 0.752941 0.752941 0.752941
vn -2.456819 2.907018 4.733900
v 26.663172 -25.314213 -19.144680 0.752941 0.752941 0.752941
vn 2.723851 1.896500 4.719220
v 33.836395 -26.236814 -18.303352 0.752941 0.752941 0.752941
vn 5.869272 -0.397166 -0.504947
v 36.808235 -26.793085 -23.603855 0.752941 0.752941 0.752941
vn -5.639857 1.590164 1.150152
v 20.530817 -26.247215 -24.189281 0.752941 0.752941 0.752941
vn 1.353027 -4.422626 -4.211268
v 32.150200 -25.610260 -28.379753 0.752941 0.752941 0.752941
vn -3.067030 4.401090 3.007746
v 21.285275 -26.887312 -21.600489 0.752941 0.752941 0.752941
vn 5.231369 -1.638387 -2.763965
v 36.113998 -26.363108 -25.727833 0.752941 0.752941 0.752941
vn -1.189413 -5.016999 -3.528961
v 24.164070 -25.238230 -29.087061 0.752941 0.752941 0.752941
vn 0.434087 3.374785 5.114493
v 30.754728 -22.198095 -20.101154 0.752941 0.752941 0.752941
vn -2.535523 1.259947 4.444201
v 24.024746 -24.234051 -22.977608 0.752941 0.752941 0.752941
vn -3.868869 1.120908 4.116805
v 21.763813 -24.678432 -23.752108 0.752941 0.752941 0.752941
vn -3.255100 -1.989913 -2.074922
v 20.376303 -25.552851 -27.587830 0.752941 0.752941 0.752941
vn 3.039077 -3.811244 -3.875469
v 34.727844 -23.983158 -28.753527 0.752941 0.752941 0.752941
vn -4.007606 1.787815 4.405532
v 25.941587 -23.283134 -20.889669 0.752941 0.752941 0.752941
vn 5.370548 1.893808 2.250954
v 36.029030 -22.107323 -23.390007 0.752941 0.752941 0.752941
vn 6.148540 0.056638 0.461396
v 36.626518 -23.426420 -25.127254 0.752941 0.752941 0.752941
vn 5.210011 -1.874011 -1.916109
v 36.580677 -22.860729 -27.770313 0.752941 0.752941 0.752941
vn -6.055442 -1.066485 0.476305
v 20.408297 -23.600389 -26.349142 0.752941 0.752941 0.752941
vn -4.724900 -2.826033 -2.173352
v 20.702820 -23.680922 -28.630915 0.752941 0.752941 0.752941
vn -2.444623 -5.064876 -2.495158
v 21.973776 -24.022854 -29.677748 0.752941 0.752941 0.752941
vn 1.497388 -4.609595 -3.901923
v 31.048105 -23.157703 -32.019630 0.752941 0.752941 0.752941
vn 3.264837 2.739867 3.903128
v 34.877121 -22.841713 -20.850986 0.752941 0.752941 0.752941
vn -1.449158 2.822109 5.011184
v 27.643124 -22.311640 -20.164730 0.752941 0.752941 0.752941
vn -0.943036 2.386585 5.284267
v 24.679531 -20.596905 -22.434652 0.752941 0.752941 0.752941
vn -0.562754 -4.634934 -3.799512
v 26.302935 -23.352943 -32.896839 0.752941 0.752941 0.752941
vn -1.572159 -2.105670 5.493277
v 20.714258 -20.658457 -22.672338 0.752941 0.752941 0.752941
vn -4.369636 -3.174558 2.723822
v 19.868334 -21.429426 -23.772596 0.752941 0.752941 0.752941
vn 5.354516 1.176630 -0.009157
v 36.942749 -19.927607 -28.047396 0.752941 0.752941 0.752941
vn -5.240269 -3.263482 -0.180360
v 19.775158 -21.701096 -26.958305 0.752941 0.752941 0.752941
vn -3.289565 -3.810859 -2.687686
v 20.304775 -21.923882 -31.678833 0.752941 0.752941 0.752941
vn 2.784165 -4.074631 -3.683266
v 34.148693 -21.254847 -32.594273 0.752941 0.752941 0.752941
vn -1.386332 3.922720 4.573104
v 25.956352 -20.202078 -22.379356 0.752941 0.752941 0.752941
vn 4.782759 -2.407783 -2.685509
v 35.606888 -20.350115 -31.947233 0.752941 0.752941 0.752941
vn 0.545000 -3.633880 -4.822803
v 28.297127 -20.438866 -35.724396 0.752941 0.752941 0.752941
vn 1.035329 4.202227 4.473858
v 31.624393 -17.815012 -23.903664 0.752941 0.752941 0.752941
vn -0.112917 4.164427 4.556738
v 30.198643 -18.902737 -22.713352 0.752941 0.752941 0.752941
vn -2.227384 -1.672905 4.595614
v 19.336021 -19.294338 -22.362900 0.752941 0.752941 0.752941
vn -4.362721 -3.340599 2.398109
v 16.854702 -18.750088 -25.265009 0.752941 0.752941 0.752941
vn -2.922859 -2.837250 -4.618084
v 21.918589 -18.944313 -34.879368 0.752941 0.752941 0.752941
vn -1.530804 -3.632842 -4.569525
v 24.955574 -20.019922 -35.786179 0.752941 0.752941 0.752941
vn 0.871575 0.369080 5.828388
v 20.671513 -18.960377 -22.283289 0.752941 0.752941 0.752941
vn 4.618674 3.145120 2.518300
v 35.617611 -19.000153 -25.735989 0.752941 0.752941 0.752941
vn -4.406393 -2.818949 0.131671
v 15.083800 -17.513096 -26.757389 0.752941 0.752941 0.752941
vn -3.978661 -3.025840 -2.672391
v 17.923538 -19.067274 -32.100746 0.752941 0.752941 0.752941
vn 5.295650 0.786959 -1.671901
v 35.660839 -18.394880 -32.927174 0.752941 0.752941 0.752941
vn 2.988443 -1.169092 -3.755942
v 34.057072 -18.192633 -35.878742 0.752941 0.752941 0.752941
vn -0.965579 -2.461647 -5.411736
v 24.879622 -17.647764 -37.191628 0.752941 0.752941 0.752941
vn 4.020259 2.977680 3.375295
v 21.675234 -18.062431 -23.298887 0.752941 0.752941 0.752941
vn 2.474578 4.015423 3.800640
v 33.192417 -16.665083 -25.503750 0.752941 0.752941 0.752941
vn 0.737947 3.324822 4.367592
v 23.369558 -16.915018 -27.008905 0.752941 0.752941 0.752941
vn 3.346921 4.034719 2.488647
v 22.206516 -17.774643 -25.292036 0.752941 0.752941 0.752941
vn -4.974058 -3.628808 -1.126885
v 14.849442 -15.713470 -29.187914 0.752941 0.752941 0.752941
vn -2.920313 -2.338099 -4.882099
v 23.215813 -16.342342 -37.154160 0.752941 0.752941 0.752941
vn -0.096265 4.369133 4.450981
v 30.519537 -16.291470 -25.369562 0.752941 0.752941 0.752941
vn -1.200774 3.790454 4.848304
v 26.519112 -15.434225 -27.098246 0.752941 0.752941 0.752941
vn 4.566662 3.593728 1.857181
v 34.361607 -16.322168 -27.379919 0.752941 0.752941 0.752941
vn 4.852275 3.777966 -0.686556
v 33.977631 -15.386038 -30.957607 0.752941 0.752941 0.752941
vn -4.051906 -2.412434 -3.804409
v 16.845886 -16.851433 -32.239582 0.752941 0.752941 0.752941
vn 4.158928 2.772594 -2.311891
v 34.429253 -16.666548 -34.837658 0.752941 0.752941 0.752941
vn 1.700244 0.598021 -4.235871
v 31.247213 -16.341064 -37.534641 0.752941 0.752941 0.752941
vn 1.824900 0.435244 -4.844964
v 29.294949 -15.201943 -37.879543 0.752941 0.752941 0.752941
vn 4.628477 3.497135 1.536342
v 20.833603 -14.790435 -25.641993 0.752941 0.752941 0.752941
vn -4.937495 0.520627 2.905964
v 16.146587 -14.585457 -24.046499 0.752941 0.752941 0.752941
vn 3.097846 1.409756 0.132387
v 21.017557 -16.392900 -25.855072 0.752941 0.752941 0.752941
vn -5.052257 -1.438807 2.348341
v 14.872622 -16.314354 -26.060968 0.752941 0.752941 0.752941
vn -3.482541 -1.712580 -4.810524
v 19.905840 -15.075882 -34.513741 0.752941 0.752941 0.752941
vn 1.015919 2.923311 3.157436
v 18.055910 -13.574168 -22.451303 0.752941 0.752941 0.752941
vn 3.744676 2.046319 2.105590
v 21.155838 -15.368115 -23.365206 0.752941 0.752941 0.752941
vn -0.016307 4.493892 4.093950
v 24.585783 -14.033712 -28.386578 0.752941 0.752941 0.752941
vn 1.974564 3.885848 4.179706
v 22.464811 -14.414488 -27.628721 0.752941 0.752941 0.752941
vn -4.695029 -0.981440 -1.877829
v 14.066047 -14.269590 -30.836164 0.752941 0.752941 0.752941
vn -1.671435 1.509745 2.186420
v 16.829569 -13.552264 -22.439625 0.752941 0.752941 0.752941
vn 2.652238 4.016661 0.450652
v 32.976639 -13.435638 -29.256313 0.752941 0.752941 0.752941
vn 0.394746 4.871035 2.505312
v 30.478155 -13.195623 -28.138458 0.752941 0.752941 0.752941
vn -2.715070 0.838553 -3.899246
v 16.090847 -12.767148 -33.674274 0.752941 0.752941 0.752941
vn 3.958579 4.401663 -0.940166
v 30.834940 -13.573619 -32.994717 0.752941 0.752941 0.752941
vn -3.837865 0.205739 -4.003297
v 21.583872 -13.400339 -37.257519 0.752941 0.752941 0.752941
vn 0.004818 3.592035 -2.806601
v 23.764181 -12.108197 -38.407207 0.752941 0.752941 0.752941
vn 3.223037 5.177915 1.044635
v 19.768309 -14.023665 -24.598879 0.752941 0.752941 0.752941
vn -3.740959 1.453899 0.809795
v 13.597031 -13.278330 -28.172743 0.752941 0.752941 0.752941
vn 2.325742 5.468589 -1.175117
v 31.706369 -13.456834 -31.128897 0.752941 0.752941 0.752941
vn -3.132114 1.381456 -4.820985
v 19.348970 -13.027667 -34.732044 0.752941 0.752941 0.752941
vn 0.385369 0.767286 -2.353924
v 23.655338 -12.510632 -38.896812 0.752941 0.752941 0.752941
vn -0.760314 5.416024 1.919257
v 16.976393 -12.840158 -25.785482 0.752941 0.752941 0.752941
vn 0.959920 5.886393 1.643223
v 18.136412 -11.920008 -29.685345 0.752941 0.752941 0.752941
vn 0.324711 5.973447 1.400150
v 28.634731 -12.758215 -30.701645 0.752941 0.752941 0.752941
vn 0.664802 5.831338 1.991583
v 21.654623 -12.008933 -31.382164 0.752941 0.752941 0.752941
vn -4.545897 3.309350 -1.510027
v 14.986648 -12.375826 -31.422293 0.752941 0.752941 0.752941
vn 3.282754 3.252616 0.146076
v 30.313734 -12.195080 -33.643833 0.752941 0.752941 0.752941
vn 2.359106 2.826656 -2.442547
v 29.039394 -12.170452 -37.116959 0.752941 0.752941 0.752941
vn -1.910383 5.496510 1.014013
v 15.472092 -11.992125 -29.379601 0.752941 0.752941 0.752941
vn 0.827510 5.962494 0.966683
v 28.582870 -11.829429 -33.567249 0.752941 0.752941 0.752941
vn -1.164774 3.977499 -1.473779
v 16.594810 -11.147858 -32.670052 0.752941 0.752941 0.752941
vn -2.157092 4.845897 -2.511106
v 20.989937 -12.282416 -35.594963 0.752941 0.752941 0.752941
vn -0.308778 5.408552 -1.746537
v 19.109833 -11.598228 -33.260559 0.752941 0.752941 0.752941
vn 0.455528 6.085704 -0.507102
v 27.200262 -11.605268 -35.580322 0.752941 0.752941 0.752941
vn -0.002833 6.184414 0.063365
v 22.055391 -11.706652 -33.110737 0.752941 0.752941 0.752941
# 351 vertices, 0 vertices normals


usemtl material_0
f 1//1 2//2 3//3
f 5//5 1//1 4//4
f 5//5 4//4 6//6
f 1//1 7//7 2//2
f 1//1 5//5 7//7
f 8//8 7//7 5//5
f 9//9 10//10 3//3
f 9//9 3//3 2//2
f 4//4 1//1 3//3
f 11//11 6//6 4//4
f 5//5 6//6 8//8
f 3//3 12//12 4//4
f 9//9 2//2 13//13
f 11//11 4//4 12//12
f 14//14 2//2 7//7
f 7//7 8//8 15//15
f 10//10 16//16 3//3
f 3//3 16//16 12//12
f 6//6 11//11 17//17
f 6//6 17//17 18//18
f 18//18 8//8 6//6
f 19//19 15//15 8//8
f 8//8 18//18 19//19
f 20//20 10//10 9//9
f 12//12 16//16 21//21
f 20//20 9//9 13//13
f 13//13 22//22 20//20
f 12//12 23//23 11//11
f 11//11 23//23 17//17
f 14//14 13//13 2//2
f 13//13 14//14 22//22
f 24//24 18//18 17//17
f 14//14 7//7 25//25
f 7//7 15//15 25//25
f 20//20 26//26 10//10
f 10//10 26//26 16//16
f 21//21 16//16 27//27
f 26//26 28//28 16//16
f 27//27 16//16 28//28
f 17//17 29//29 24//24
f 24//24 30//30 31//31
f 25//25 32//32 14//14
f 24//24 31//31 18//18
f 18//18 31//31 19//19
f 12//12 33//33 23//23
f 20//20 22//22 34//34
f 20//20 34//34 26//26
f 35//35 23//23 33//33
f 23//23 35//35 17//17
f 17//17 35//35 29//29
f 22//22 14//14 36//36
f 14//14 32//32 36//36
f 37//37 38//38 39//39
f 37//37 39//39 40//40
f 21//21 33//33 12//12
f 21//21 41//41 33//33
f 21//21 27//27 41//41
f 28//28 41//41 27//27
f 33//33 42//42 35//35
f 26//26 34//34 28//28
f 28//28 34//34 41//41
f 41//41 43//43 33//33
f 33//33 43//43 42//42
f 41//41 34//34 44//44
f 41//41 44//44 43//43
f 22//22 36//36 45//45
f 22//22 45//45 34//34
f 24//24 29//29 30//30
f 40//40 31//31 30//30
f 30//30 37//37 40//40
f 39//39 38//38 46//46
f 47//47 46//46 38//38
f 32//32 25//25 48//48
f 48//48 25//25 49//49
f 25//25 15//15 50//50
f 15//15 19//19 50//50
f 19//19 31//31 50//50
f 42//42 29//29 35//35
f 34//34 45//45 44//44
f 43//43 51//51 42//42
f 52//52 30//30 29//29
f 45//45 36//36 53//53
f 30//30 52//52 54//54
f 48//48 36//36 32//32
f 54//54 37//37 30//30
f 38//38 37//37 54//54
f 36//36 48//48 53//53
f 39//39 55//55 40//40
f 39//39 46//46 55//55
f 31//31 40//40 56//56
f 31//31 56//56 57//57
f 49//49 25//25 58//58
f 31//31 57//57 50//50
f 25//25 50//50 58//58
f 45//45 53//53 44//44
f 44//44 59//59 43//43
f 51//51 43//43 59//59
f 60//60 53//53 48//48
f 55//55 56//56 40//40
f 57//57 61//61 50//50
f 62//62 29//29 42//42
f 52//52 29//29 62//62
f 44//44 63//63 59//59
f 51//51 62//62 42//42
f 44//44 53//53 63//63
f 64//64 65//65 54//54
f 54//54 65//65 38//38
f 51//51 59//59 62//62
f 38//38 65//65 47//47
f 60//60 48//48 66//66
f 49//49 58//58 67//67
f 58//58 50//50 61//61
f 62//62 64//64 52//52
f 52//52 64//64 54//54
f 59//59 68//68 62//62
f 53//53 60//60 63//63
f 60//60 66//66 63//63
f 48//48 49//49 67//67
f 48//48 67//67 66//66
f 55//55 46//46 69//69
f 56//56 55//55 69//69
f 56//56 69//69 70//70
f 71//71 57//57 56//56
f 70//70 71//71 56//56
f 58//58 61//61 67//67
f 72//72 61//61 57//57
f 71//71 72//72 57//57
f 62//62 68//68 73//73
f 74//74 59//59 63//63
f 59//59 74//74 68//68
f 47//47 65//65 75//75
f 47//47 75//75 46//46
f 66//66 67//67 76//76
f 69//69 46//46 75//75
f 62//62 73//73 64//64
f 68//68 74//74 73//73
f 64//64 77//77 65//65
f 78//78 65//65 77//77
f 63//63 76//76 74//74
f 69//69 79//79 70//70
f 69//69 75//75 79//79
f 67//67 80//80 76//76
f 61//61 80//80 67//67
f 61//61 72//72 80//80
f 72//72 71//71 81//81
f 73//73 82//82 64//64
f 77//77 64//64 82//82
f 63//63 66//66 76//76
f 65//65 83//83 75//75
f 84//84 75//75 83//83
f 75//75 84//84 79//79
f 70//70 79//79 85//85
f 71//71 70//70 81//81
f 82//82 73//73 74//74
f 74//74 86//86 87//87
f 74//74 87//87 82//82
f 78//78 83//83 65//65
f 76//76 86//86 74//74
f 84//84 85//85 79//79
f 80//80 72//72 88//88
f 87//87 89//89 82//82
f 76//76 90//90 86//86
f 76//76 80//80 90//90
f 70//70 85//85 91//91
f 80//80 88//88 90//90
f 91//91 81//81 70//70
f 88//88 72//72 92//92
f 92//92 72//72 93//93
f 72//72 81//81 93//93
f 82//82 89//89 77//77
f 87//87 94//94 89//89
f 83//83 95//95 84//84
f 90//90 96//96 86//86
f 97//97 90//90 88//88
f 90//90 97//97 96//96
f 98//98 97//97 88//88
f 88//88 92//92 98//98
f 81//81 91//91 99//99
f 93//93 81//81 99//99
f 94//94 87//87 86//86
f 89//89 100//100 77//77
f 77//77 100//100 78//78
f 78//78 100//100 101//101
f 78//78 101//101 83//83
f 83//83 101//101 95//95
f 86//86 96//96 102//102
f 84//84 95//95 103//103
f 84//84 103//103 85//85
f 86//86 102//102 94//94
f 96//96 104//104 102//102
f 96//96 97//97 104//104
f 105//105 104//104 97//97
f 103//103 99//99 91//91
f 91//91 85//85 103//103
f 97//97 98//98 105//105
f 98//98 92//92 106//106
f 98//98 106//106 107//107
f 92//92 93//93 106//106
f 93//93 108//108 106//106
f 109//109 108//108 93//93
f 93//93 99//99 109//109
f 94//94 102//102 110//110
f 104//104 110//110 102//102
f 111//111 103//103 112//112
f 95//95 112//112 103//103
f 99//99 103//103 113//113
f 98//98 107//107 105//105
f 99//99 114//114 109//109
f 106//106 108//108 115//115
f 94//94 110//110 89//89
f 110//110 116//116 89//89
f 100//100 112//112 101//101
f 104//104 117//117 110//110
f 101//101 112//112 95//95
f 117//117 104//104 118//118
f 104//104 105//105 118//118
f 111//111 113//113 103//103
f 99//99 113//113 114//114
f 106//106 115//115 107//107
f 116//116 119//119 89//89
f 117//117 120//120 110//110
f 110//110 120//120 116//116
f 121//121 116//116 120//120
f 116//116 121//121 119//119
f 100//100 122//122 112//112
f 117//117 118//118 123//123
f 111//111 124//124 113//113
f 113//113 124//124 114//114
f 114//114 124//124 125//125
f 126//126 115//115 108//108
f 108//108 109//109 126//126
f 89//89 119//119 100//100
f 127//127 120//120 117//117
f 100//100 119//119 122//122
f 122//122 128//128 112//112
f 129//129 112//112 128//128
f 129//129 111//111 112//112
f 111//111 129//129 124//124
f 118//118 105//105 130//130
f 105//105 107//107 130//130
f 131//131 123//123 118//118
f 131//131 132//132 123//123
f 118//118 133//133 131//131
f 130//130 133//133 118//118
f 129//129 134//134 124//124
f 117//117 123//123 127//127
f 135//135 127//127 136//136
f 127//127 135//135 120//120
f 120//120 135//135 121//121
f 131//131 137//137 132//132
f 131//131 133//133 138//138
f 130//130 107//107 133//133
f 139//139 125//125 124//124
f 140//140 109//109 114//114
f 114//114 125//125 140//140
f 126//126 109//109 140//140
f 132//132 127//127 123//123
f 121//121 135//135 141//141
f 121//121 142//142 119//119
f 119//119 142//142 122//122
f 142//142 121//121 143//143
f 121//121 141//141 143//143
f 122//122 144//144 128//128
f 131//131 138//138 137//137
f 128//128 134//134 129//129
f 144//144 134//134 128//128
f 133//133 145//145 138//138
f 134//134 139//139 124//124
f 133//133 107//107 146//146
f 133//133 146//146 145//145
f 147//147 146//146 107//107
f 107//107 115//115 147//147
f 148//148 140//140 125//125
f 149//149 147//147 115//115
f 115//115 126//126 149//149
f 144//144 122//122 142//142
f 134//134 150//150 139//139
f 145//145 146//146 151//151
f 125//125 139//139 150//150
f 125//125 150//150 148//148
f 152//152 126//126 140//140
f 152//152 140//140 148//148
f 127//127 132//132 153//153
f 127//127 153//153 136//136
f 132//132 137//137 154//154
f 155//155 135//135 136//136
f 141//141 135//135 155//155
f 137//137 138//138 156//156
f 149//149 126//126 157//157
f 126//126 152//152 157//157
f 154//154 153//153 132//132
f 156//156 154//154 137//137
f 155//155 158//158 159//159
f 155//155 159//159 141//141
f 142//142 143//143 144//144
f 141//141 160//160 143//143
f 161//161 143//143 160//160
f 160//160 141//141 159//159
f 162//162 134//134 144//144
f 138//138 145//145 163//163
f 134//134 162//162 150//150
f 163//163 145//145 151//151
f 151//151 146//146 147//147
f 150//150 164//164 148//148
f 151//151 147//147 165//165
f 148//148 164//164 152//152
f 147//147 149//149 157//157
f 153//153 158//158 155//155
f 153//153 155//155 136//136
f 158//158 153//153 154//154
f 156//156 166//166 158//158
f 143//143 161//161 144//144
f 162//162 144//144 161//161
f 163//163 156//156 138//138
f 167//167 159//159 158//158
f 159//159 167//167 160//160
f 167//167 161//161 160//160
f 164//164 150//150 162//162
f 168//168 165//165 147//147
f 147//147 157//157 168//168
f 156//156 158//158 154//154
f 158//158 166//166 169//169
f 156//156 163//163 166//166
f 158//158 169//169 167//167
f 162//162 161//161 164//164
f 170//170 163//163 151//151
f 171//171 161//161 167//167
f 161//161 171//171 164//164
f 151//151 165//165 170//170
f 172//172 165//165 168//168
f 164//164 171//171 152//152
f 152//152 171//171 173//173
f 168//168 157//157 173//173
f 152//152 173//173 157//157
f 166//166 170//170 169//169
f 166//166 163//163 170//170
f 170//170 172//172 169//169
f 169//169 174//174 167//167
f 174//174 169//169 172//172
f 167//167 174//174 171//171
f 170//170 165//165 172//172
f 172//172 168//168 174//174
f 168//168 173//173 174//174
f 174//174 173//173 171//171
f 175//175 176//176 177//177
f 175//175 177//177 178//178
f 179//179 175//175 180//180
f 176//176 175//175 179//179
f 175//175 181//181 180//180
f 176//176 182//182 177//177
f 181//181 183//183 184//184
f 177//177 182//182 185//185
f 181//181 175//175 183//183
f 183//183 175//175 186//186
f 177//177 185//185 178//178
f 183//183 186//186 187//187
f 186//186 175//175 178//178
f 179//179 180//180 188//188
f 188//188 176//176 179//179
f 176//176 188//188 189//189
f 182//182 176//176 189//189
f 189//189 190//190 191//191
f 182//182 189//189 191//191
f 181//181 192//192 180//180
f 191//191 185//185 182//182
f 184//184 192//192 181//181
f 193//193 184//184 183//183
f 183//183 187//187 193//193
f 186//186 178//178 194//194
f 178//178 195//195 194//194
f 180//180 196//196 188//188
f 190//190 197//197 191//191
f 185//185 191//191 198//198
f 178//178 185//185 199//199
f 200//200 187//187 186//186
f 200//200 186//186 201//201
f 202//202 188//188 196//196
f 188//188 202//202 189//189
f 180//180 192//192 196//196
f 197//197 203//203 191//191
f 191//191 204//204 198//198
f 184//184 193//193 205//205
f 185//185 198//198 199//199
f 206//206 193//193 200//200
f 187//187 200//200 193//193
f 178//178 199//199 195//195
f 201//201 186//186 194//194
f 202//202 207//207 189//189
f 189//189 207//207 190//190
f 190//190 208//208 197//197
f 184//184 209//209 192//192
f 191//191 203//203 204//204
f 204//204 203//203 210//210
f 198//198 204//204 210//210
f 210//210 199//199 198//198
f 199//199 210//210 211//211
f 210//210 212//212 211//211
f 206//206 200//200 213//213
f 214//214 195//195 199//199
f 201//201 213//213 200//200
f 194//194 195//195 215//215
f 216//216 217//217 201//201
f 201//201 194//194 216//216
f 196//196 218//218 202//202
f 208//208 190//190 207//207
f 196//196 219//219 218//218
f 203//203 197//197 208//208
f 192//192 219//219 196//196
f 219//219 192//192 209//209
f 184//184 205//205 209//209
f 209//209 220//220 219//219
f 221//221 210//210 203//203
f 220//220 209//209 205//205
f 221//221 212//212 210//210
f 206//206 205//205 193//193
f 201//201 217//217 213//213
f 214//214 215//215 195//195
f 194//194 222//222 216//216
f 194//194 215//215 222//222
f 223//223 207//207 202//202
f 224//224 202//202 218//218
f 202//202 224//224 223//223
f 224//224 225//225 223//223
f 218//218 219//219 224//224
f 226//226 225//225 224//224
f 225//225 226//226 208//208
f 203//203 208//208 226//226
f 224//224 219//219 226//226
f 226//226 221//221 203//203
f 205//205 206//206 227//227
f 206//206 213//213 228//228
f 199//199 211//211 229//229
f 229//229 211//211 212//212
f 214//214 199//199 230//230
f 229//229 230//230 199//199
f 213//213 217//217 231//231
f 217//217 216//216 232//232
f 233//233 222//222 215//215
f 207//207 225//225 208//208
f 207//207 223//223 225//225
f 219//219 220//220 234//234
f 219//219 234//234 235//235
f 219//219 235//235 226//226
f 226//226 235//235 221//221
f 205//205 227//227 220//220
f 236//236 221//221 235//235
f 221//221 236//236 212//212
f 206//206 228//228 227//227
f 229//229 212//212 236//236
f 232//232 231//231 217//217
f 234//234 237//237 235//235
f 237//237 234//234 238//238
f 236//236 235//235 237//237
f 220//220 239//239 234//234
f 237//237 240//240 236//236
f 220//220 227//227 239//239
f 213//213 231//231 228//228
f 236//236 240//240 229//229
f 230//230 229//229 241//241
f 241//241 214//214 230//230
f 214//214 242//242 215//215
f 243//243 232//232 216//216
f 232//232 243//243 244//244
f 216//216 222//222 243//243
f 233//233 215//215 242//242
f 234//234 239//239 245//245
f 234//234 245//245 238//238
f 246//246 238//238 245//245
f 237//237 238//238 240//240
f 238//238 246//246 240//240
f 231//231 247//247 228//228
f 240//240 241//241 229//229
f 214//214 241//241 242//242
f 228//228 248//248 227//227
f 228//228 247//247 248//248
f 227//227 248//248 239//239
f 246//246 239//239 249//249
f 239//239 246//246 245//245
f 250//250 241//241 240//240
f 232//232 251//251 231//231
f 250//250 242//242 241//241
f 252//252 242//242 250//250
f 243//243 222//222 253//253
f 233//233 242//242 254//254
f 222//222 254//254 253//253
f 222//222 233//233 254//254
f 255//255 239//239 248//248
f 247//247 256//256 248//248
f 231//231 256//256 247//247
f 246//246 250//250 240//240
f 251//251 256//256 231//231
f 257//257 251//251 232//232
f 250//250 258//258 252//252
f 232//232 244//244 257//257
f 243//243 259//259 244//244
f 243//243 253//253 259//259
f 239//239 255//255 249//249
f 249//249 260//260 246//246
f 246//246 260//260 250//250
f 250//250 260//260 258//258
f 261//261 257//257 244//244
f 242//242 262//262 254//254
f 248//248 263//263 255//255
f 255//255 264//264 249//249
f 249//249 264//264 265//265
f 249//249 265//265 260//260
f 260//260 265//265 258//258
f 266//266 252//252 258//258
f 267//267 261//261 244//244
f 242//242 252//252 262//262
f 266//266 262//262 252//252
f 244//244 259//259 267//267
f 254//254 262//262 253//253
f 263//263 248//248 256//256
f 255//255 268//268 264//264
f 251//251 257//257 269//269
f 257//257 261//261 270//270
f 261//261 271//271 270//270
f 258//258 272//272 266//266
f 261//261 267//267 271//271
f 262//262 266//266 273//273
f 262//262 273//273 274//274
f 259//259 253//253 275//275
f 256//256 251//251 276//276
f 277//277 255//255 263//263
f 270//270 269//269 257//257
f 268//268 278//278 264//264
f 265//265 272//272 258//258
f 272//272 273//273 266//266
f 275//275 267//267 259//259
f 253//253 262//262 279//279
f 256//256 276//276 263//263
f 255//255 277//277 268//268
f 251//251 269//269 276//276
f 264//264 280//280 265//265
f 281//281 265//265 280//280
f 272//272 265//265 281//281
f 282//282 270//270 271//271
f 272//272 283//283 273//273
f 273//273 284//284 274//274
f 267//267 275//275 285//285
f 262//262 274//274 279//279
f 274//274 284//284 279//279
f 275//275 253//253 279//279
f 277//277 286//286 268//268
f 268//268 286//286 278//278
f 282//282 269//269 270//270
f 283//283 272//272 281//281
f 273//273 283//283 284//284
f 285//285 271//271 267//267
f 271//271 285//285 287//287
f 275//275 279//279 288//288
f 285//285 275//275 288//288
f 289//289 263//263 276//276
f 290//290 263//263 289//289
f 277//277 263//263 290//290
f 280//280 291//291 281//281
f 281//281 292//292 283//283
f 287//287 282//282 271//271
f 279//279 284//284 293//293
f 279//279 294//294 288//288
f 277//277 290//290 286//286
f 280//280 264//264 278//278
f 278//278 295//295 280//280
f 295//295 291//291 280//280
f 281//281 291//291 292//292
f 269//269 296//296 276//276
f 269//269 282//282 296//296
f 283//283 292//292 297//297
f 284//284 283//283 298//298
f 299//299 282//282 287//287
f 284//284 298//298 293//293
f 285//285 288//288 300//300
f 279//279 293//293 294//294
f 288//288 294//294 301//301
f 278//278 302//302 295//295
f 276//276 303//303 289//289
f 286//286 304//304 278//278
f 278//278 304//304 305//305
f 302//302 278//278 305//305
f 296//296 303//303 276//276
f 290//290 304//304 286//286
f 306//306 298//298 283//283
f 300//300 299//299 287//287
f 287//287 285//285 300//300
f 294//294 293//293 301//301
f 307//307 301//301 293//293
f 290//290 289//289 308//308
f 290//290 309//309 304//304
f 310//310 296//296 282//282
f 311//311 310//310 282//282
f 306//306 283//283 297//297
f 299//299 311//311 282//282
f 306//306 312//312 298//298
f 298//298 312//312 293//293
f 299//299 300//300 313//313
f 300//300 288//288 314//314
f 315//315 288//288 301//301
f 302//302 305//305 316//316
f 291//291 317//317 292//292
f 308//308 309//309 290//290
f 305//305 318//318 316//316
f 292//292 319//319 297//297
f 292//292 317//317 319//319
f 296//296 310//310 303//303
f 318//318 305//305 304//304
f 306//306 297//297 319//319
f 299//299 313//313 311//311
f 293//293 312//312 320//320
f 314//314 288//288 315//315
f 295//295 321//321 291//291
f 302//302 322//322 295//295
f 321//321 295//295 322//322
f 302//302 316//316 322//322
f 289//289 303//303 308//308
f 323//323 304//304 309//309
f 304//304 324//324 318//318
f 306//306 325//325 312//312
f 293//293 320//320 307//307
f 300//300 314//314 313//313
f 326//326 291//291 321//321
f 291//291 326//326 317//317
f 310//310 327//327 303//303
f 308//308 328//328 309//309
f 324//324 316//316 318//318
f 323//323 324//324 304//304
f 325//325 306//306 319//319
f 310//310 311//311 327//327
f 312//312 325//325 329//329
f 329//329 320//320 312//312
f 313//313 315//315 330//330
f 320//320 331//331 307//307
f 313//313 314//314 315//315
f 315//315 301//301 332//332
f 322//322 333//333 321//321
f 322//322 316//316 333//333
f 303//303 328//328 308//308
f 317//317 334//334 319//319
f 327//327 328//328 303//303
f 319//319 334//334 325//325
f 323//323 309//309 328//328
f 311//311 335//335 327//327
f 311//311 313//313 335//335
f 330//330 335//335 313//313
f 320//320 336//336 331//331
f 320//320 329//329 336//336
f 301//301 337//337 332//332
f 301//301 307//307 337//337
f 307//307 331//331 337//337
f 338//338 321//321 333//333
f 326//326 338//338 317//317
f 316//316 324//324 339//339
f 316//316 339//339 333//333
f 333//333 339//339 338//338
f 328//328 340//340 323//323
f 323//323 341//341 324//324
f 324//324 341//341 339//339
f 335//335 330//330 340//340
f 325//325 342//342 329//329
f 330//330 343//343 340//340
f 330//330 344//344 343//343
f 315//315 344//344 330//330
f 332//332 344//344 315//315
f 321//321 338//338 326//326
f 338//338 334//334 317//317
f 338//338 345//345 334//334
f 338//338 339//339 345//345
f 327//327 335//335 328//328
f 340//340 328//328 335//335
f 345//345 342//342 334//334
f 325//325 334//334 342//342
f 340//340 346//346 323//323
f 323//323 346//346 341//341
f 346//346 340//340 343//343
f 329//329 342//342 347//347
f 348//348 336//336 349//349
f 336//336 329//329 349//349
f 350//350 332//332 348//348
f 331//331 336//336 348//348
f 331//331 348//348 337//337
f 339//339 347//347 345//345
f 341//341 351//351 349//349
f 341//341 349//349 339//339
f 345//345 347//347 342//342
f 351//351 341//341 346//346
f 346//346 350//350 351//351
f 351//351 348//348 349//349
f 329//329 347//347 349//349
f 343//343 344//344 346//346
f 346//346 344//344 350//350
f 350//350 348//348 351//351
f 350//350 344//344 332//332
f 332//332 337//337 348//348
f 347//347 339//339 349//349
# 694 faces, 0 coords texture

# End of File
